11.660
11.661
11.649
11.660
11.670
11.681
11.701
11.701
11.696
11.699
11.705
11.712
11.739
11.736
11.729
11.733
11.732
11.758
11.762
11.758
11.754
11.754
11.760
11.782
11.783
11.780
11.779
11.778
11.758
11.808
11.808
11.808
11.802
11.804
11.836
11.836
11.830
11.829
11.826
11.809
11.861
11.861
11.857
11.853
11.847
11.847
11.881
11.882
11.877
11.875
11.871
11.869
11.893
11.897
11.895
11.895
11.892
11.888
11.894
11.897
11.904
11.906
11.908
11.905
11.905
11.912
11.924
11.929
11.920
11.918
11.962
11.931
11.916
11.930
11.934
11.931
12.005
11.977
11.947
11.935
11.941
11.945
12.018
11.962
11.944
11.949
12.044
12.043
12.032
11.996
11.964
11.955
12.052
12.052
12.054
12.030
11.996
11.974
12.056
12.058
12.064
12.031
12.000
12.056
12.059
12.067
12.069
12.053
12.027
12.057
12.059
12.067
12.072
12.068
12.048
12.058
12.060
12.066
12.072
12.075
12.062
12.072
12.077
12.072
12.078
12.073
12.078
12.075
12.079
12.076
12.080
12.079
12.082
12.081
12.085
12.059
12.058
12.059
12.062
12.067
12.073
12.080
12.086
12.091
12.096
12.100
12.084
12.082
12.081
12.081
12.084
12.088
12.093
12.098
12.100
12.103
12.105
12.121
12.118
12.115
12.112
12.112
12.112
12.113
12.114
12.114
12.113
12.113
12.145
12.143
12.139
12.137
12.136
12.137
12.136
12.135
12.133
12.130
12.126
12.150
12.149
12.148
12.146
12.146
12.147
12.148
12.147
12.146
12.145
12.142
12.140
12.143
12.145
12.147
12.148
12.151
12.153
12.155
12.156
12.156
12.154
12.122
12.128
12.133
12.138
12.142
12.147
12.151
12.156
12.159
12.162
12.163
12.095
12.105
12.114
12.123
12.130
12.137
12.145
12.152
12.158
12.163
12.166
12.065
12.078
12.090
12.102
12.113
12.124
12.133
12.143
12.152
12.159
12.164
12.039
12.052
12.066
12.080
12.095
12.108
12.120
12.132
12.143
12.152
12.160
12.015
12.030
12.045
12.060
12.076
12.091
12.106
12.120
12.133
12.144
12.154
12.010
12.026
12.042
12.059
12.076
12.092
12.108
12.124
12.136
12.148
11.991
12.008
12.027
12.044
12.063
12.080
12.098
12.115
12.130
12.143
11.980
11.992
12.011
12.030
12.050
12.069
12.088
12.107
12.124
12.138
11.971
11.981
11.996
12.018
12.038
12.058
12.080
12.099
12.117
12.134
11.970
11.973
11.986
12.005
12.027
12.049
12.071
12.092
12.112
12.130
11.983
11.970
11.980
11.996
12.017
12.040
12.063
12.085
12.107
12.126
11.975
11.978
11.991
12.010
12.032
12.056
12.079
12.102
12.122
11.987
11.980
11.989
12.006
12.027
12.051
12.075
12.097
12.119
12.007
11.986
11.991
12.004
12.024
12.048
12.072
12.094
12.116
11.997
11.995
12.006
12.023
12.045
12.069
12.092
12.114
12.009
12.001
12.009
12.023
12.044
12.067
12.091
12.113
12.022
12.009
12.013
12.026
12.044
12.067
12.090
12.112
12.019
12.018
12.028
12.045
12.066
12.090
12.112
12.029
12.025
12.032
12.047
12.067
12.090
12.113
12.039
12.033
12.038
12.050
12.069
12.090
12.112
12.049
12.041
12.043
12.054
12.070
12.091
12.112
12.058
12.049
12.050
12.058
12.072
12.091
12.113
12.067
12.057
12.056
12.063
12.076
12.093
12.114
12.075
12.065
12.063
12.069
12.079
12.095
12.115
12.083
12.072
12.069
12.074
12.083
12.098
12.116
12.090
12.079
12.077
12.080
12.088
12.101
12.118
12.096
12.085
12.082
12.085
12.093
12.104
12.120
12.102
12.090
12.087
12.090
12.097
12.108
12.122
12.096
12.093
12.096
12.101
12.111
12.125
12.100
12.098
12.100
12.107
12.115
12.127
12.106
12.103
12.105
12.110
12.119
12.130
12.110
12.107
12.109
12.114
12.122
12.133
12.113
12.110
12.112
12.118
12.126
12.135
12.142
12.127
12.124
12.125
12.131
12.137
12.146
12.139
12.134
12.136
12.141
12.147
12.155
12.149
12.143
12.144
12.148
12.154
12.161
12.158
12.151
12.151
12.155
12.160
12.167
12.167
12.158
12.157
12.161
12.166
12.172
12.176
12.165
12.163
12.166
12.170
12.176
12.171
12.168
12.170
12.174
12.179
12.177
12.174
12.174
12.178
12.183
12.182
12.178
12.179
12.181
12.185
12.187
12.182
12.183
12.185
12.189
12.191
12.186
12.186
12.188
12.192
12.194
12.188
12.188
12.190
12.194
12.199
12.192
12.191
12.193
12.196
12.193
12.194
12.194
12.197
12.196
12.196
12.196
12.199
12.199
12.197
12.198
12.200
12.201
12.199
12.200
12.202
12.204
12.201
12.202
12.204
12.203
12.203
12.205
12.204
12.205
12.206
12.206
12.206
12.207
12.207
12.207
12.208
12.207
12.207
12.209
12.207
12.208
12.209
12.207
12.208
12.210
12.208
12.209
12.210
12.210
12.211
12.210
12.211
12.210
12.212
12.210
12.211
12.211
12.212
12.210
12.212
12.211
12.212
12.210
12.212
12.210
12.212
12.211
12.213
12.212
12.208
12.209
12.210
12.210
12.211
12.211
12.212
12.212
12.212
12.212
12.212
12.213
12.213
12.213
12.213
12.214
12.213
12.214
12.214
12.213
12.214
12.214
12.214
12.214
12.214
12.213
12.214
12.214
12.214
12.213
12.214
12.214
12.214
12.213
12.214
12.214
12.214
12.214
12.214
