8.224
8.232
8.204
8.209
8.223
8.245
8.329
8.329
8.308
8.309
8.312
8.330
8.420
8.417
8.393
8.402
8.401
8.472
8.478
8.473
8.467
8.468
8.484
8.521
8.524
8.522
8.522
8.524
8.472
8.567
8.567
8.567
8.559
8.570
8.611
8.611
8.600
8.599
8.596
8.569
8.653
8.652
8.644
8.637
8.634
8.634
8.686
8.688
8.680
8.676
8.671
8.669
8.703
8.712
8.712
8.710
8.707
8.705
8.735
8.734
8.762
8.737
8.736
8.737
8.774
8.777
8.798
8.801
8.777
8.773
8.840
8.813
8.785
8.808
8.809
8.809
8.899
8.856
8.838
8.828
8.822
8.837
8.904
8.859
8.843
8.849
9.015
8.955
8.912
8.883
8.870
8.875
9.059
8.998
8.947
8.908
8.892
8.893
9.091
9.035
8.986
8.916
8.910
9.107
9.063
9.019
8.975
8.942
8.929
9.119
9.084
9.047
9.007
8.971
8.950
9.130
9.101
9.072
9.037
9.002
8.975
9.065
9.032
9.088
9.060
9.109
9.084
9.128
9.107
9.144
9.126
9.159
9.143
9.172
9.158
9.083
9.108
9.134
9.160
9.186
9.210
9.232
9.245
9.249
9.245
9.238
9.102
9.122
9.142
9.162
9.182
9.202
9.221
9.236
9.243
9.245
9.245
9.122
9.141
9.159
9.177
9.194
9.211
9.227
9.240
9.250
9.252
9.253
9.146
9.162
9.178
9.193
9.210
9.225
9.240
9.253
9.263
9.269
9.269
9.174
9.187
9.200
9.211
9.224
9.238
9.251
9.264
9.275
9.284
9.291
9.206
9.217
9.227
9.235
9.243
9.253
9.263
9.273
9.283
9.293
9.303
9.240
9.250
9.258
9.265
9.270
9.276
9.281
9.288
9.295
9.303
9.310
9.278
9.284
9.290
9.295
9.299
9.302
9.304
9.308
9.312
9.316
9.321
9.315
9.319
9.322
9.324
9.327
9.329
9.330
9.331
9.331
9.333
9.335
9.350
9.351
9.352
9.354
9.355
9.354
9.354
9.353
9.353
9.352
9.352
9.386
9.382
9.382
9.381
9.380
9.379
9.376
9.375
9.373
9.371
9.370
9.413
9.408
9.405
9.403
9.401
9.398
9.395
9.392
9.389
9.387
9.441
9.435
9.428
9.423
9.421
9.417
9.414
9.410
9.406
9.403
9.463
9.460
9.452
9.443
9.438
9.434
9.430
9.425
9.421
9.417
9.480
9.480
9.474
9.464
9.455
9.449
9.443
9.438
9.434
9.430
9.490
9.495
9.491
9.485
9.473
9.463
9.456
9.451
9.445
9.440
9.488
9.506
9.504
9.498
9.491
9.478
9.468
9.461
9.456
9.451
9.511
9.515
9.511
9.504
9.495
9.482
9.471
9.464
9.458
9.511
9.522
9.520
9.514
9.505
9.496
9.482
9.474
9.466
9.508
9.526
9.528
9.523
9.515
9.507
9.495
9.482
9.474
9.528
9.533
9.530
9.524
9.515
9.505
9.493
9.480
9.528
9.536
9.536
9.530
9.522
9.513
9.502
9.489
9.529
9.539
9.540
9.536
9.529
9.520
9.510
9.498
9.541
9.543
9.541
9.535
9.526
9.517
9.505
9.542
9.546
9.544
9.540
9.532
9.522
9.510
9.544
9.548
9.547
9.543
9.536
9.528
9.516
9.545
9.549
9.549
9.547
9.540
9.532
9.521
9.546
9.552
9.551
9.549
9.543
9.536
9.526
9.548
9.553
9.554
9.552
9.547
9.540
9.530
9.549
9.554
9.555
9.553
9.549
9.542
9.534
9.549
9.555
9.556
9.555
9.552
9.546
9.538
9.551
9.556
9.558
9.557
9.553
9.548
9.540
9.552
9.558
9.559
9.558
9.555
9.550
9.543
9.553
9.559
9.560
9.559
9.557
9.552
9.545
9.560
9.562
9.561
9.558
9.554
9.548
9.561
9.563
9.562
9.560
9.555
9.550
9.561
9.564
9.563
9.561
9.557
9.552
9.563
9.565
9.565
9.562
9.558
9.553
9.563
9.566
9.565
9.564
9.560
9.555
9.559
9.567
9.570
9.569
9.567
9.564
9.560
9.571
9.573
9.573
9.571
9.568
9.564
9.573
9.576
9.577
9.575
9.572
9.567
9.576
9.579
9.580
9.578
9.575
9.571
9.577
9.582
9.582
9.581
9.579
9.575
9.578
9.584
9.585
9.584
9.582
9.578
9.585
9.587
9.587
9.585
9.581
9.587
9.589
9.589
9.586
9.583
9.588
9.590
9.590
9.589
9.586
9.589
9.592
9.592
9.591
9.588
9.591
9.593
9.594
9.593
9.590
9.592
9.595
9.596
9.594
9.592
9.593
9.597
9.597
9.596
9.594
9.599
9.599
9.597
9.596
9.600
9.601
9.599
9.597
9.602
9.603
9.601
9.599
9.602
9.603
9.603
9.600
9.603
9.606
9.605
9.603
9.606
9.606
9.605
9.607
9.607
9.605
9.607
9.608
9.607
9.608
9.609
9.608
9.609
9.610
9.609
9.609
9.610
9.610
9.610
9.611
9.611
9.611
9.612
9.611
9.613
9.613
9.613
9.613
9.614
9.613
9.614
9.614
9.615
9.615
9.615
9.615
9.616
9.616
9.616
9.617
9.617
9.617
9.617
9.617
9.618
9.615
9.617
9.620
9.622
9.624
9.625
9.626
9.627
9.629
9.629
9.630
9.631
9.632
9.632
9.633
9.633
9.633
9.634
9.634
9.635
9.634
9.635
9.635
9.635
9.636
9.636
9.636
9.636
9.636
9.636
9.636
9.636
9.636
9.636
9.637
9.636
9.636
9.636
9.636
