2.854
2.855
2.853
2.853
2.856
2.860
2.876
2.875
2.870
2.873
2.878
2.888
2.930
2.930
2.917
2.934
2.933
2.984
2.995
2.999
3.002
3.010
3.033
3.059
3.066
3.070
3.084
3.100
2.984
3.148
3.148
3.148
3.151
3.194
3.244
3.243
3.228
3.229
3.238
3.152
3.336
3.336
3.327
3.316
3.328
3.329
3.376
3.391
3.393
3.395
3.399
3.403
3.373
3.382
3.402
3.429
3.450
3.467
3.381
3.419
3.432
3.424
3.444
3.475
3.422
3.432
3.466
3.463
3.473
3.492
3.477
3.471
3.458
3.490
3.490
3.518
3.544
3.530
3.530
3.528
3.517
3.550
3.605
3.599
3.584
3.583
3.966
3.747
3.661
3.650
3.646
3.664
4.352
3.988
3.777
3.712
3.703
3.719
4.772
4.329
3.972
3.767
3.764
5.119
4.696
4.243
3.954
3.838
3.813
5.422
5.043
4.560
4.181
3.951
3.875
5.686
5.371
4.906
4.476
4.129
3.965
4.830
4.389
5.192
4.724
5.551
5.098
5.891
5.490
6.203
5.871
6.481
6.217
6.718
6.524
5.687
5.968
6.254
6.541
6.819
7.068
7.279
7.435
7.542
7.600
7.565
6.073
6.351
6.615
6.865
7.102
7.314
7.503
7.647
7.739
7.831
7.878
6.712
6.975
7.214
7.427
7.618
7.776
7.900
7.991
8.045
8.088
8.146
7.444
7.671
7.874
8.058
8.217
8.346
8.432
8.482
8.493
8.483
8.480
8.086
8.269
8.426
8.568
8.694
8.803
8.881
8.922
8.930
8.908
8.863
8.626
8.781
8.910
9.022
9.120
9.204
9.270
9.310
9.322
9.307
9.266
9.084
9.222
9.340
9.438
9.520
9.587
9.639
9.673
9.685
9.676
9.646
9.481
9.597
9.702
9.790
9.865
9.924
9.969
9.999
10.010
10.004
9.981
9.822
9.912
9.999
10.077
10.146
10.202
10.248
10.279
10.294
10.293
10.275
10.102
10.165
10.235
10.305
10.368
10.422
10.468
10.504
10.526
10.534
10.526
10.333
10.368
10.420
10.479
10.536
10.590
10.638
10.677
10.707
10.726
10.728
10.538
10.569
10.616
10.666
10.717
10.767
10.810
10.847
10.874
10.889
10.685
10.696
10.728
10.770
10.817
10.864
10.911
10.953
10.988
11.013
10.812
10.811
10.827
10.857
10.897
10.942
10.989
11.034
11.075
11.109
10.925
10.913
10.917
10.936
10.967
11.007
11.052
11.097
11.142
11.183
11.027
11.007
11.001
11.010
11.031
11.065
11.105
11.149
11.195
11.239
11.119
11.097
11.082
11.082
11.094
11.120
11.154
11.195
11.240
11.285
11.183
11.162
11.153
11.157
11.174
11.202
11.238
11.279
11.324
11.266
11.240
11.224
11.221
11.229
11.250
11.280
11.317
11.359
11.351
11.313
11.294
11.285
11.287
11.300
11.323
11.354
11.392
11.380
11.360
11.348
11.345
11.351
11.367
11.392
11.425
11.443
11.418
11.405
11.399
11.402
11.412
11.432
11.459
11.502
11.470
11.456
11.449
11.450
11.457
11.472
11.494
11.520
11.502
11.494
11.493
11.499
11.510
11.528
11.567
11.546
11.535
11.533
11.537
11.547
11.562
11.610
11.587
11.575
11.571
11.572
11.580
11.593
11.651
11.626
11.612
11.606
11.605
11.612
11.623
11.689
11.662
11.647
11.639
11.638
11.641
11.651
11.723
11.696
11.680
11.671
11.668
11.671
11.678
11.755
11.727
11.710
11.701
11.697
11.698
11.704
11.784
11.757
11.740
11.729
11.724
11.724
11.729
11.810
11.783
11.767
11.756
11.750
11.749
11.753
11.834
11.808
11.791
11.781
11.775
11.773
11.775
11.855
11.830
11.814
11.804
11.799
11.795
11.797
11.851
11.836
11.826
11.820
11.817
11.818
11.870
11.856
11.847
11.841
11.838
11.837
11.888
11.873
11.865
11.860
11.857
11.856
11.904
11.891
11.882
11.878
11.875
11.874
11.919
11.906
11.898
11.894
11.891
11.890
11.999
11.972
11.959
11.953
11.950
11.949
11.948
12.016
12.002
11.996
11.993
11.992
11.993
12.053
12.038
12.031
12.028
12.027
12.028
12.086
12.069
12.062
12.058
12.057
12.058
12.115
12.096
12.088
12.084
12.083
12.083
12.140
12.120
12.110
12.106
12.106
12.106
12.141
12.131
12.127
12.125
12.125
12.161
12.150
12.145
12.143
12.142
12.177
12.167
12.161
12.159
12.158
12.191
12.180
12.175
12.174
12.172
12.204
12.194
12.188
12.187
12.186
12.215
12.204
12.199
12.197
12.197
12.226
12.215
12.210
12.207
12.207
12.225
12.219
12.217
12.217
12.234
12.228
12.225
12.224
12.242
12.237
12.234
12.233
12.248
12.244
12.241
12.240
12.252
12.251
12.248
12.247
12.256
12.255
12.253
12.261
12.260
12.259
12.264
12.264
12.264
12.268
12.268
12.268
12.270
12.271
12.272
12.271
12.274
12.275
12.273
12.277
12.278
12.275
12.278
12.280
12.281
12.282
12.281
12.283
12.284
12.285
12.285
12.286
12.286
12.288
12.287
12.289
12.287
12.290
12.288
12.292
12.289
12.292
12.290
12.294
12.294
12.281
12.286
12.290
12.294
12.297
12.300
12.302
12.305
12.307
12.308
12.310
12.311
12.312
12.313
12.314
12.316
12.316
12.316
12.317
12.318
12.319
12.319
12.319
12.319
12.319
12.320
12.320
12.320
12.320
12.321
12.320
12.321
12.321
12.321
12.321
12.321
12.322
12.321
12.321
