6.150
6.152
6.143
6.142
6.142
6.145
6.170
6.170
6.162
6.161
6.161
6.167
6.202
6.201
6.189
6.194
6.193
6.249
6.259
6.253
6.247
6.250
6.277
6.368
6.380
6.373
6.380
6.398
6.249
6.624
6.624
6.624
6.581
6.686
7.043
7.040
6.940
6.923
6.914
6.639
7.541
7.533
7.440
7.361
7.351
7.349
7.932
7.965
7.871
7.830
7.786
7.773
8.190
8.239
8.232
8.220
8.191
8.170
8.604
8.634
8.854
8.594
8.514
8.489
8.908
8.932
9.032
9.035
8.874
8.825
9.202
9.130
9.000
9.088
9.032
8.992
9.375
9.297
9.247
9.197
9.120
9.118
9.419
9.317
9.243
9.183
9.596
9.516
9.445
9.386
9.333
9.296
9.661
9.583
9.511
9.443
9.391
9.353
9.699
9.633
9.567
9.442
9.393
9.714
9.663
9.609
9.546
9.482
9.431
9.718
9.678
9.637
9.583
9.524
9.466
9.719
9.686
9.657
9.611
9.557
9.500
9.632
9.585
9.645
9.606
9.656
9.622
9.664
9.634
9.671
9.644
9.678
9.652
9.682
9.659
9.629
9.661
9.692
9.721
9.748
9.772
9.792
9.802
9.799
9.787
9.771
9.595
9.619
9.643
9.669
9.693
9.716
9.738
9.754
9.761
9.758
9.751
9.598
9.616
9.633
9.651
9.670
9.688
9.706
9.723
9.736
9.739
9.737
9.619
9.632
9.646
9.659
9.672
9.685
9.699
9.711
9.723
9.733
9.733
9.643
9.654
9.664
9.673
9.683
9.693
9.704
9.713
9.723
9.733
9.739
9.672
9.679
9.687
9.693
9.700
9.706
9.713
9.720
9.727
9.733
9.741
9.701
9.707
9.713
9.717
9.722
9.726
9.730
9.733
9.736
9.741
9.745
9.730
9.735
9.739
9.743
9.745
9.747
9.749
9.751
9.751
9.753
9.754
9.759
9.762
9.765
9.766
9.768
9.769
9.769
9.769
9.768
9.768
9.767
9.786
9.788
9.788
9.789
9.789
9.789
9.789
9.787
9.786
9.784
9.782
9.812
9.810
9.810
9.810
9.809
9.808
9.807
9.804
9.802
9.800
9.798
9.832
9.829
9.827
9.826
9.824
9.823
9.821
9.817
9.815
9.812
9.851
9.848
9.843
9.841
9.839
9.836
9.834
9.831
9.829
9.825
9.866
9.865
9.860
9.855
9.852
9.849
9.846
9.843
9.840
9.837
9.876
9.877
9.874
9.869
9.863
9.859
9.856
9.854
9.850
9.847
9.883
9.887
9.886
9.882
9.875
9.870
9.865
9.862
9.859
9.855
9.881
9.893
9.893
9.891
9.887
9.880
9.874
9.870
9.866
9.862
9.896
9.899
9.898
9.895
9.891
9.883
9.877
9.873
9.869
9.896
9.904
9.904
9.901
9.898
9.893
9.885
9.880
9.875
9.894
9.906
9.908
9.907
9.904
9.900
9.894
9.886
9.881
9.907
9.912
9.911
9.909
9.905
9.901
9.893
9.887
9.908
9.913
9.914
9.913
9.909
9.906
9.900
9.893
9.907
9.915
9.916
9.916
9.914
9.909
9.906
9.900
9.916
9.918
9.919
9.917
9.913
9.909
9.904
9.917
9.920
9.920
9.918
9.917
9.912
9.908
9.917
9.921
9.922
9.921
9.919
9.915
9.910
9.918
9.922
9.923
9.923
9.921
9.918
9.914
9.918
9.922
9.925
9.924
9.922
9.919
9.916
9.919
9.924
9.925
9.925
9.923
9.922
9.919
9.920
9.925
9.926
9.926
9.925
9.923
9.920
9.921
9.925
9.927
9.927
9.926
9.924
9.921
9.922
9.926
9.927
9.928
9.927
9.926
9.923
9.922
9.926
9.928
9.929
9.928
9.927
9.924
9.923
9.927
9.928
9.930
9.929
9.927
9.926
9.927
9.929
9.929
9.929
9.928
9.926
9.928
9.930
9.931
9.931
9.929
9.927
9.929
9.931
9.931
9.931
9.930
9.928
9.929
9.931
9.932
9.932
9.931
9.929
9.930
9.932
9.932
9.932
9.931
9.930
9.927
9.933
9.934
9.935
9.934
9.933
9.932
9.934
9.936
9.936
9.937
9.935
9.935
9.935
9.938
9.939
9.938
9.937
9.936
9.936
9.940
9.940
9.940
9.939
9.938
9.937
9.941
9.942
9.942
9.942
9.939
9.937
9.941
9.943
9.944
9.942
9.942
9.942
9.944
9.944
9.944
9.943
9.942
9.945
9.946
9.945
9.945
9.943
9.945
9.946
9.946
9.946
9.944
9.946
9.947
9.948
9.947
9.944
9.947
9.948
9.948
9.947
9.945
9.948
9.948
9.949
9.948
9.946
9.949
9.949
9.950
9.949
9.950
9.950
9.950
9.950
9.951
9.951
9.951
9.951
9.951
9.952
9.952
9.951
9.952
9.953
9.953
9.952
9.952
9.954
9.953
9.953
9.954
9.955
9.954
9.954
9.955
9.955
9.955
9.956
9.956
9.956
9.956
9.956
9.956
9.957
9.956
9.955
9.957
9.957
9.956
9.957
9.957
9.956
9.957
9.958
9.957
9.958
9.958
9.958
9.959
9.959
9.958
9.959
9.959
9.959
9.959
9.960
9.959
9.959
9.960
9.960
9.960
9.961
9.960
9.960
9.961
9.958
9.960
9.961
9.962
9.963
9.964
9.965
9.966
9.966
9.967
9.967
9.968
9.967
9.968
9.969
9.968
9.969
9.969
9.970
9.970
9.970
9.970
9.970
9.970
9.970
9.970
9.970
9.971
9.970
9.970
9.971
9.971
9.971
9.970
9.970
9.971
9.970
9.971
9.970
