0.97860000000000003
0.98140000000000005
0.97899999999999998
0.97189999999999999
0.9627
0.94179999999999997
0.84219999999999995
0.64149999999999996
0.47860000000000003
0.3836
0.33239999999999997
0.85740000000000005
0.8589
0.86480000000000001
0.87309999999999999
0.88349999999999995
0.89149999999999996
0.88649999999999995
0.76060000000000005
0.51690000000000003
0.34449999999999997
0.25890000000000002
0.7843
0.78110000000000002
0.77790000000000004
0.77790000000000004
0.78029999999999999
0.7843
0.78979999999999995
0.78649999999999998
0.67879999999999996
0.45939999999999998
0.29199999999999998
0.71030000000000004
0.70909999999999995
0.71160000000000001
0.71030000000000004
0.7127
0.71579999999999999
0.71840000000000004
0.71989999999999998
0.71589999999999998
0.63739999999999997
0.45860000000000001
0.63949999999999996
0.63500000000000001
0.63549999999999995
0.63939999999999997
0.64459999999999995
0.6502
0.65569999999999995
0.65969999999999995
0.6613
0.65780000000000005
0.60429999999999995
0.56869999999999998
0.56520000000000004
0.56299999999999994
0.57130000000000003
0.57369999999999999
0.58140000000000003
0.58899999999999997
0.59509999999999996
0.60029999999999994
0.60170000000000001
0.59840000000000004
0.50680000000000003
0.50149999999999995
0.50739999999999996
0.50609999999999999
0.50749999999999995
0.51439999999999997
0.52200000000000002
0.5302
0.53669999999999995
0.54159999999999997
0.54239999999999999
0.45540000000000003
0.45419999999999999
0.45119999999999999
0.44879999999999998
0.44990000000000002
0.45190000000000002
0.45829999999999999
0.46779999999999999
0.47539999999999999
0.48080000000000001
0.48130000000000001
0.55079999999999996
0.39950000000000002
0.3972
0.39600000000000002
0.38990000000000002
0.39340000000000003
0.40300000000000002
0.41139999999999999
0.4194
0.4249
0.4234
0.52959999999999996
0.52900000000000003
0.35930000000000001
0.35639999999999999
0.35470000000000002
0.35699999999999998
0.35930000000000001
0.3649
0.37240000000000001
0.37659999999999999
0.37669999999999998
0.50349999999999995
0.50470000000000004
0.505
0.32379999999999998
0.32740000000000002
0.32500000000000001
0.3266
0.3286
0.3342
0.3357
0.33429999999999999
0.48070000000000002
0.48080000000000001
0.48080000000000001
0.29709999999999998
0.29959999999999998
0.30109999999999998
0.30320000000000003
0.30620000000000003
0.30590000000000001
0.30370000000000003
0.45960000000000001
0.4572
0.45669999999999999
0.45600000000000002
0.27510000000000001
0.27829999999999999
0.28179999999999999
0.28420000000000001
0.2828
0.28070000000000001
0.4365
0.43430000000000002
0.43149999999999999
0.43020000000000003
0.42980000000000002
0.25890000000000002
0.26100000000000001
0.26479999999999998
0.26469999999999999
0.26419999999999999
0.4133
0.40870000000000001
0.4088
0.40620000000000001
0.4037
0.40279999999999999
0.24510000000000001
0.2472
0.2485
0.25
0.3916
0.3805
0.37940000000000002
0.38159999999999999
0.37919999999999998
0.3765
0.3765
0.2319
0.2326
0.2356
0.37440000000000001
0.3548
0.3483
0.34939999999999999
0.35199999999999998
0.35170000000000001
0.35020000000000001
0.34910000000000002
0.21820000000000001
0.22040000000000001
0.3377
0.3231
0.3196
0.3226
0.32600000000000001
0.32669999999999999
0.32469999999999999
0.21049999999999999
0.20799999999999999
0.32679999999999998
0.30719999999999997
0.29759999999999998
0.29620000000000002
0.30009999999999998
0.30299999999999999
0.30259999999999998
0.29999999999999999
0.1971
0.31879999999999997
0.29559999999999997
0.28220000000000001
0.2767
0.27729999999999999
0.28079999999999999
0.28270000000000001
0.27960000000000002
0.27610000000000001
0.31890000000000002
0.28639999999999999
0.27039999999999997
0.26229999999999998
0.26029999999999998
0.26190000000000002
0.26469999999999999
0.2636
0.25900000000000001
0.27929999999999999
0.26090000000000002
0.25080000000000002
0.24579999999999999
0.24510000000000001
0.24790000000000001
0.24959999999999999
0.2445
0.27310000000000001
0.25240000000000001
0.24149999999999999
0.23580000000000001
0.23330000000000001
0.2339
0.2374
0.24299999999999999
0.2442
0.2334
0.22700000000000001
0.2233
0.22239999999999999
0.22409999999999999
0.2276
0.23619999999999999
0.22520000000000001
0.21929999999999999
0.21540000000000001
0.21310000000000001
0.21310000000000001
0.21510000000000001
0.22869999999999999
0.21729999999999999
0.2112
0.20710000000000001
0.20549999999999999
0.20399999999999999
0.2049
0.2215
0.2097
0.20399999999999999
0.20069999999999999
0.1978
0.19600000000000001
0.19639999999999999
0.20910000000000001
0.1951
0.19020000000000001
0.18790000000000001
0.1862
0.184
0.1822
0.18340000000000001
0.17780000000000001
0.17630000000000001
0.17560000000000001
0.1741
0.1721
0.1741
0.16769999999999999
0.1661
0.16589999999999999
0.1658
0.1643
0.1668
0.15959999999999999
0.1575
0.15770000000000001
0.158
0.15770000000000001
0.1615
0.15290000000000001
0.15049999999999999
0.15029999999999999
0.1507
0.1512
0.15709999999999999
0.14749999999999999
0.14460000000000001
0.14410000000000001
0.14449999999999999
0.14499999999999999
0.1898
0.1512
0.13930000000000001
0.13539999999999999
0.1343
0.13450000000000001
0.13439999999999999
0.14779999999999999
0.1333
0.12889999999999999
0.1275
0.127
0.12640000000000001
0.14699999999999999
0.1283
0.1235
0.1222
0.12130000000000001
0.1205
0.1472
0.12470000000000001
0.11849999999999999
0.1172
0.1169
0.1159
0.1477
0.1215
0.1147
0.1134
0.1128
0.11210000000000001
0.1469
0.11749999999999999
0.111
0.1096
0.1091
0.1085
0.11219999999999999
0.10630000000000001
0.1057
0.1056
0.1051
0.1053
0.1004
0.1014
0.1022
0.10199999999999999
0.099000000000000005
0.093100000000000002
0.095799999999999996
0.097900000000000001
0.098500000000000004
0.0964
0.085500000000000007
0.088999999999999996
0.092600000000000002
0.094299999999999995
0.098500000000000004
0.079299999999999995
0.081900000000000001
0.086599999999999996
0.089499999999999996
0.10390000000000001
0.075700000000000003
0.075600000000000001
0.080399999999999999
0.083799999999999999
0.1066
0.074200000000000002
0.071199999999999999
0.074899999999999994
0.078299999999999995
0.073599999999999999
0.0683
0.070499999999999993
0.073599999999999999
0.071800000000000003
0.066100000000000006
0.067299999999999999
0.070199999999999999
0.066799999999999998
0.063799999999999996
0.065000000000000002
0.067400000000000002
0.059900000000000002
0.059900000000000002
0.062600000000000003
0.065000000000000002
0.051499999999999997
0.054899999999999997
0.059200000000000003
0.062300000000000001
0.048099999999999997
0.0557
0.059999999999999998
0.039699999999999999
0.050700000000000002
0.057099999999999998
0.030099999999999998
0.044600000000000001
0.053400000000000003
0.021100000000000001
0.036900000000000002
0.0487
0.019699999999999999
0.033799999999999997
0.0114
0.022800000000000001
0.016899999999999998
0.013299999999999999
0.0092999999999999992
0.0051999999999999998
