-4.676
-4.518
-4.266
-3.804
-3.192
-2.651
-2.653
-2.677
-2.595
-2.206
-1.813
-1.425
-1.407
-1.263
-1.251
-0.966
-0.740
-0.802
-0.593
-0.389
-0.188
-0.019
0.208
-0.174
-0.069
0.079
0.319
0.552
-1.216
0.464
0.464
0.464
0.668
1.089
1.040
1.036
1.000
1.062
1.173
1.080
1.547
1.521
1.483
1.485
1.570
1.587
2.049
2.006
1.943
1.910
1.881
1.862
2.405
2.386
2.343
2.286
2.230
2.174
2.640
2.702
2.926
2.748
2.616
2.481
2.688
2.740
2.869
2.936
2.822
2.819
2.753
2.744
2.683
2.819
2.795
2.740
2.748
2.758
2.782
2.795
2.756
2.731
2.745
2.825
2.782
2.715
2.713
2.726
2.756
2.793
2.805
2.786
2.684
2.698
2.725
2.755
2.789
2.806
2.650
2.664
2.692
2.770
2.782
2.607
2.625
2.653
2.692
2.729
2.758
2.564
2.581
2.611
2.651
2.691
2.721
2.522
2.540
2.572
2.606
2.649
2.683
2.435
2.342
2.436
2.359
2.429
2.368
2.416
2.367
2.395
2.359
2.371
2.346
2.343
2.325
2.723
2.683
2.628
2.557
2.465
2.392
2.350
2.319
2.281
2.226
2.152
2.602
2.581
2.554
2.512
2.451
2.377
2.317
2.280
2.253
2.219
2.164
2.453
2.436
2.417
2.394
2.364
2.315
2.256
2.208
2.177
2.157
2.132
2.299
2.286
2.269
2.248
2.226
2.199
2.162
2.118
2.082
2.059
2.045
2.141
2.134
2.122
2.106
2.086
2.065
2.040
2.011
1.979
1.952
1.933
1.982
1.980
1.974
1.964
1.951
1.933
1.914
1.892
1.868
1.844
1.824
1.824
1.827
1.825
1.821
1.813
1.803
1.788
1.771
1.752
1.733
1.716
1.667
1.676
1.678
1.677
1.674
1.669
1.661
1.649
1.635
1.619
1.605
1.513
1.527
1.534
1.537
1.537
1.535
1.531
1.525
1.516
1.504
1.492
1.360
1.381
1.393
1.399
1.402
1.402
1.401
1.399
1.394
1.387
1.378
1.210
1.238
1.255
1.265
1.270
1.273
1.274
1.274
1.272
1.269
1.264
1.098
1.120
1.133
1.141
1.147
1.149
1.151
1.152
1.151
1.150
0.961
0.987
1.004
1.016
1.023
1.028
1.031
1.033
1.035
1.036
0.830
0.858
0.879
0.893
0.902
0.909
0.914
0.918
0.921
0.923
0.709
0.735
0.756
0.772
0.784
0.793
0.800
0.805
0.809
0.813
0.596
0.620
0.639
0.655
0.669
0.680
0.688
0.695
0.700
0.705
0.495
0.512
0.529
0.543
0.557
0.569
0.579
0.587
0.594
0.600
0.412
0.425
0.438
0.449
0.461
0.473
0.482
0.491
0.498
0.320
0.328
0.338
0.347
0.357
0.368
0.380
0.389
0.398
0.234
0.236
0.242
0.250
0.258
0.267
0.279
0.290
0.300
0.148
0.152
0.157
0.163
0.171
0.180
0.192
0.204
0.063
0.064
0.067
0.072
0.078
0.085
0.096
0.109
-0.021
-0.020
-0.019
-0.017
-0.012
-0.006
0.003
0.016
-0.103
-0.104
-0.103
-0.099
-0.094
-0.086
-0.076
-0.184
-0.186
-0.186
-0.184
-0.180
-0.173
-0.164
-0.264
-0.266
-0.267
-0.266
-0.263
-0.258
-0.250
-0.342
-0.344
-0.346
-0.347
-0.345
-0.340
-0.333
-0.418
-0.421
-0.424
-0.425
-0.424
-0.420
-0.413
-0.493
-0.496
-0.499
-0.501
-0.501
-0.498
-0.493
-0.566
-0.570
-0.574
-0.576
-0.577
-0.575
-0.570
-0.638
-0.642
-0.646
-0.649
-0.650
-0.649
-0.645
-0.708
-0.712
-0.717
-0.721
-0.722
-0.722
-0.718
-0.777
-0.782
-0.787
-0.791
-0.793
-0.793
-0.790
-0.844
-0.850
-0.855
-0.859
-0.862
-0.862
-0.860
-0.916
-0.922
-0.926
-0.929
-0.930
-0.928
-0.981
-0.988
-0.992
-0.995
-0.996
-0.995
-1.045
-1.052
-1.057
-1.060
-1.062
-1.061
-1.108
-1.115
-1.121
-1.124
-1.126
-1.125
-1.170
-1.177
-1.183
-1.187
-1.188
-1.188
-1.396
-1.406
-1.415
-1.422
-1.426
-1.428
-1.428
-1.624
-1.636
-1.644
-1.649
-1.651
-1.652
-1.827
-1.841
-1.851
-1.857
-1.860
-1.861
-2.015
-2.032
-2.044
-2.051
-2.055
-2.057
-2.191
-2.211
-2.225
-2.234
-2.239
-2.241
-2.356
-2.378
-2.394
-2.404
-2.411
-2.413
-2.535
-2.553
-2.565
-2.572
-2.576
-2.683
-2.703
-2.716
-2.725
-2.729
-2.823
-2.846
-2.860
-2.869
-2.874
-2.954
-2.980
-2.996
-3.006
-3.011
-3.075
-3.108
-3.126
-3.137
-3.142
-3.183
-3.227
-3.249
-3.261
-3.267
-3.270
-3.338
-3.364
-3.378
-3.386
-3.439
-3.473
-3.489
-3.498
-3.526
-3.572
-3.593
-3.604
-3.599
-3.663
-3.690
-3.703
-3.664
-3.742
-3.777
-3.793
-3.729
-3.813
-3.856
-3.876
-3.878
-3.927
-3.952
-3.944
-3.993
-4.022
-4.011
-4.059
-4.088
-4.079
-4.125
-4.154
-4.150
-4.191
-4.219
-4.226
-4.258
-4.285
-4.307
-4.329
-4.351
-4.391
-4.404
-4.421
-4.482
-4.493
-4.563
-4.568
-4.644
-4.646
-4.724
-4.724
-4.803
-4.802
-4.881
-4.879
-4.958
-4.956
-5.032
-5.032
-5.105
-5.106
-5.177
-5.178
-5.249
-5.320
-5.686
-6.053
-6.420
-6.788
-7.157
-7.527
-7.897
-8.268
-8.639
-9.011
-9.383
-9.756
-10.128
-10.501
-10.874
-11.248
-11.621
-11.995
-12.369
-12.743
-13.117
-13.491
-13.865
-14.239
-14.614
-14.988
-15.363
-15.737
-16.112
-16.487
-16.861
-17.236
-17.611
-17.986
-18.361
-18.735
-19.110
-19.485
