-32.571
-32.152
-32.944
-32.115
-30.511
-28.627
-25.513
-25.698
-26.360
-25.528
-24.335
-22.740
-19.784
-19.686
-20.471
-19.064
-19.085
-17.076
-16.537
-16.277
-16.019
-15.634
-14.828
-14.507
-14.270
-14.074
-13.598
-13.056
-17.490
-12.204
-12.204
-12.204
-12.031
-10.923
-10.184
-10.214
-10.502
-10.435
-10.212
-12.460
-8.538
-8.559
-8.709
-8.884
-8.630
-8.632
-7.258
-7.252
-7.405
-7.472
-7.508
-7.472
-6.089
-6.140
-6.207
-6.279
-6.322
-6.352
-5.070
-4.767
-4.216
-4.901
-5.204
-5.364
-4.493
-4.377
-3.936
-3.932
-4.267
-4.299
-3.921
-4.032
-4.346
-3.947
-4.069
-4.040
-3.643
-3.647
-3.650
-3.735
-3.952
-3.796
-3.367
-3.313
-3.589
-3.693
-3.024
-3.080
-3.140
-3.137
-3.238
-3.206
-2.717
-2.782
-2.897
-2.950
-2.990
-2.932
-2.413
-2.482
-2.620
-2.752
-2.750
-2.140
-2.192
-2.349
-2.451
-2.531
-2.551
-1.899
-1.931
-2.088
-2.191
-2.296
-2.353
-1.704
-1.698
-1.840
-1.932
-2.052
-2.139
-1.425
-1.338
-1.216
-1.165
-1.022
-1.003
-0.849
-0.854
-0.699
-0.718
-0.558
-0.588
-0.426
-0.462
-0.548
-0.421
-0.314
-0.235
-0.189
-0.159
-0.137
-0.116
-0.089
-0.051
0.003
-0.362
-0.309
-0.259
-0.204
-0.151
-0.111
-0.085
-0.065
-0.044
-0.016
0.022
-0.149
-0.126
-0.114
-0.105
-0.092
-0.065
-0.033
-0.006
0.012
0.029
0.052
0.006
0.011
0.011
0.009
0.008
0.013
0.028
0.049
0.066
0.080
0.092
0.106
0.098
0.090
0.083
0.078
0.078
0.084
0.096
0.111
0.125
0.137
0.161
0.145
0.131
0.119
0.111
0.109
0.112
0.122
0.134
0.147
0.160
0.186
0.167
0.150
0.134
0.122
0.115
0.115
0.123
0.135
0.148
0.162
0.192
0.173
0.155
0.138
0.123
0.112
0.107
0.110
0.120
0.134
0.148
0.184
0.168
0.151
0.134
0.119
0.105
0.095
0.092
0.097
0.109
0.123
0.167
0.154
0.140
0.125
0.109
0.094
0.081
0.073
0.072
0.080
0.092
0.141
0.134
0.124
0.111
0.097
0.081
0.067
0.054
0.048
0.049
0.059
0.106
0.102
0.093
0.081
0.066
0.051
0.036
0.025
0.021
0.024
0.070
0.073
0.070
0.061
0.048
0.033
0.017
0.004
-0.006
-0.008
0.032
0.036
0.041
0.037
0.027
0.014
-0.002
-0.018
-0.031
-0.038
-0.005
-0.002
0.003
0.007
0.002
-0.009
-0.023
-0.040
-0.055
-0.066
-0.039
-0.039
-0.036
-0.031
-0.028
-0.034
-0.047
-0.062
-0.078
-0.093
-0.068
-0.078
-0.075
-0.071
-0.067
-0.066
-0.073
-0.086
-0.102
-0.119
-0.116
-0.116
-0.112
-0.109
-0.105
-0.105
-0.114
-0.128
-0.145
-0.154
-0.160
-0.156
-0.152
-0.149
-0.145
-0.146
-0.156
-0.172
-0.196
-0.206
-0.204
-0.200
-0.196
-0.193
-0.187
-0.189
-0.201
-0.255
-0.254
-0.250
-0.245
-0.241
-0.237
-0.231
-0.234
-0.307
-0.308
-0.304
-0.299
-0.294
-0.289
-0.282
-0.275
-0.364
-0.363
-0.360
-0.355
-0.349
-0.343
-0.337
-0.327
-0.420
-0.418
-0.413
-0.406
-0.399
-0.392
-0.385
-0.478
-0.476
-0.472
-0.466
-0.458
-0.450
-0.442
-0.536
-0.535
-0.531
-0.525
-0.517
-0.508
-0.499
-0.594
-0.593
-0.591
-0.585
-0.577
-0.568
-0.558
-0.651
-0.651
-0.649
-0.645
-0.638
-0.628
-0.618
-0.708
-0.708
-0.708
-0.704
-0.698
-0.689
-0.677
-0.764
-0.765
-0.765
-0.762
-0.757
-0.748
-0.737
-0.819
-0.821
-0.822
-0.820
-0.815
-0.807
-0.797
-0.874
-0.876
-0.878
-0.877
-0.873
-0.866
-0.856
-0.928
-0.931
-0.933
-0.933
-0.929
-0.923
-0.914
-0.982
-0.985
-0.987
-0.988
-0.985
-0.980
-0.971
-1.038
-1.041
-1.042
-1.040
-1.035
-1.027
-1.090
-1.094
-1.096
-1.094
-1.090
-1.083
-1.142
-1.147
-1.148
-1.147
-1.143
-1.137
-1.193
-1.198
-1.200
-1.200
-1.196
-1.190
-1.244
-1.249
-1.252
-1.251
-1.248
-1.243
-1.430
-1.437
-1.445
-1.450
-1.450
-1.448
-1.444
-1.618
-1.629
-1.635
-1.638
-1.637
-1.633
-1.787
-1.801
-1.810
-1.814
-1.814
-1.811
-1.945
-1.962
-1.973
-1.980
-1.981
-1.979
-2.093
-2.113
-2.127
-2.135
-2.138
-2.137
-2.233
-2.255
-2.271
-2.281
-2.286
-2.286
-2.389
-2.408
-2.419
-2.425
-2.426
-2.516
-2.537
-2.550
-2.557
-2.559
-2.635
-2.659
-2.674
-2.682
-2.685
-2.745
-2.775
-2.792
-2.802
-2.805
-2.846
-2.884
-2.904
-2.915
-2.919
-2.934
-2.985
-3.009
-3.022
-3.027
-3.001
-3.078
-3.108
-3.123
-3.130
-3.161
-3.199
-3.218
-3.227
-3.231
-3.283
-3.306
-3.317
-3.291
-3.357
-3.387
-3.401
-3.348
-3.423
-3.461
-3.478
-3.407
-3.483
-3.527
-3.548
-3.540
-3.588
-3.613
-3.600
-3.646
-3.674
-3.663
-3.704
-3.732
-3.730
-3.766
-3.792
-3.803
-3.829
-3.853
-3.880
-3.896
-3.916
-3.962
-3.968
-3.982
-4.045
-4.044
-4.051
-4.122
-4.124
-4.201
-4.199
-4.280
-4.275
-4.359
-4.353
-4.436
-4.429
-4.512
-4.505
-4.586
-4.580
-4.659
-4.654
-4.729
-4.725
-4.799
-4.796
-4.865
-4.951
-5.303
-5.658
-6.015
-6.374
-6.735
-7.098
-7.462
-7.827
-8.193
-8.560
-8.928
-9.297
-9.666
-10.037
-10.407
-10.778
-11.150
-11.522
-11.894
-12.267
-12.639
-13.012
-13.386
-13.759
-14.133
-14.507
-14.881
-15.255
-15.629
-16.003
-16.377
-16.752
-17.126
-17.501
-17.875
-18.250
-18.624
-18.999
