1.919
1.921
1.915
1.917
1.922
1.929
1.954
1.953
1.946
1.950
1.955
1.966
1.998
1.998
1.989
1.999
1.998
2.026
2.030
2.031
2.032
2.035
2.044
2.055
2.057
2.058
2.062
2.067
2.026
2.084
2.084
2.084
2.083
2.095
2.111
2.111
2.105
2.106
2.108
2.084
2.136
2.135
2.132
2.128
2.130
2.130
2.150
2.154
2.151
2.150
2.149
2.149
2.148
2.156
2.163
2.167
2.167
2.166
2.140
2.154
2.165
2.168
2.174
2.179
2.137
2.150
2.166
2.174
2.180
2.182
2.138
2.148
2.158
2.172
2.180
2.187
2.140
2.152
2.162
2.172
2.181
2.190
2.158
2.179
2.183
2.188
2.160
2.169
2.175
2.186
2.192
2.194
2.177
2.184
2.188
2.196
2.202
2.205
2.197
2.203
2.203
2.216
2.216
2.219
2.223
2.222
2.226
2.231
2.231
2.237
2.242
2.239
2.243
2.246
2.247
2.252
2.257
2.256
2.258
2.261
2.262
2.272
2.274
2.283
2.285
2.294
2.295
2.302
2.304
2.309
2.311
2.315
2.318
2.320
2.324
2.320
2.317
2.316
2.315
2.314
2.315
2.315
2.317
2.320
2.323
2.325
2.340
2.339
2.338
2.337
2.336
2.335
2.333
2.334
2.334
2.335
2.337
2.351
2.351
2.350
2.350
2.350
2.349
2.348
2.348
2.347
2.347
2.348
2.359
2.358
2.358
2.358
2.358
2.358
2.357
2.358
2.357
2.357
2.357
2.365
2.365
2.364
2.364
2.363
2.363
2.363
2.363
2.363
2.363
2.363
2.370
2.370
2.369
2.369
2.368
2.368
2.367
2.368
2.367
2.367
2.368
2.374
2.373
2.372
2.372
2.372
2.372
2.371
2.371
2.371
2.372
2.371
2.376
2.375
2.376
2.376
2.376
2.375
2.375
2.375
2.375
2.375
2.376
2.377
2.378
2.378
2.378
2.378
2.378
2.378
2.378
2.377
2.378
2.377
2.378
2.379
2.379
2.380
2.380
2.381
2.381
2.381
2.380
2.380
2.381
2.378
2.380
2.381
2.382
2.383
2.383
2.383
2.383
2.383
2.383
2.383
2.380
2.381
2.383
2.384
2.384
2.385
2.385
2.385
2.385
2.385
2.380
2.382
2.384
2.385
2.386
2.387
2.388
2.388
2.387
2.387
2.379
2.382
2.384
2.386
2.388
2.389
2.389
2.389
2.390
2.389
2.380
2.381
2.384
2.387
2.388
2.390
2.391
2.391
2.392
2.391
2.380
2.382
2.384
2.387
2.390
2.391
2.393
2.393
2.393
2.393
2.382
2.382
2.385
2.388
2.390
2.392
2.393
2.395
2.395
2.395
2.383
2.385
2.388
2.391
2.393
2.395
2.396
2.397
2.397
2.385
2.385
2.388
2.391
2.394
2.396
2.398
2.399
2.399
2.388
2.386
2.389
2.392
2.394
2.396
2.398
2.400
2.400
2.388
2.390
2.392
2.394
2.397
2.400
2.401
2.402
2.389
2.390
2.393
2.395
2.397
2.401
2.402
2.403
2.392
2.391
2.393
2.396
2.398
2.401
2.403
2.404
2.393
2.394
2.396
2.398
2.401
2.403
2.405
2.394
2.395
2.397
2.399
2.401
2.403
2.405
2.395
2.395
2.397
2.400
2.402
2.404
2.406
2.397
2.396
2.398
2.400
2.403
2.404
2.406
2.398
2.398
2.398
2.400
2.403
2.405
2.407
2.399
2.398
2.400
2.401
2.403
2.405
2.407
2.400
2.400
2.401
2.402
2.403
2.405
2.407
2.401
2.401
2.402
2.403
2.404
2.406
2.407
2.401
2.401
2.402
2.404
2.404
2.406
2.408
2.403
2.402
2.403
2.404
2.405
2.406
2.408
2.404
2.403
2.403
2.404
2.406
2.407
2.408
2.404
2.404
2.405
2.406
2.407
2.409
2.404
2.405
2.405
2.406
2.408
2.409
2.405
2.405
2.406
2.407
2.408
2.410
2.405
2.405
2.407
2.408
2.408
2.410
2.406
2.407
2.407
2.408
2.409
2.410
2.408
2.408
2.408
2.409
2.410
2.411
2.411
2.409
2.409
2.410
2.411
2.411
2.412
2.411
2.411
2.412
2.412
2.413
2.413
2.412
2.412
2.413
2.413
2.413
2.414
2.414
2.413
2.413
2.414
2.415
2.415
2.415
2.414
2.414
2.415
2.415
2.416
2.416
2.415
2.415
2.416
2.416
2.416
2.416
2.417
2.416
2.417
2.417
2.417
2.418
2.418
2.418
2.417
2.418
2.418
2.418
2.418
2.418
2.418
2.419
2.419
2.419
2.419
2.418
2.419
2.419
2.419
2.418
2.418
2.419
2.420
2.420
2.419
2.420
2.420
2.420
2.420
2.420
2.420
2.420
2.420
2.421
2.420
2.420
2.421
2.421
2.421
2.421
2.421
2.421
2.422
2.422
2.421
2.421
2.422
2.421
2.422
2.422
2.422
2.422
2.423
2.422
2.422
2.422
2.422
2.423
2.423
2.423
2.423
2.423
2.422
2.423
2.424
2.422
2.424
2.423
2.424
2.424
2.423
2.423
2.424
2.424
2.424
2.424
2.424
2.424
2.424
2.425
2.424
2.424
2.424
2.425
2.424
2.424
2.424
2.425
2.424
2.421
2.421
2.422
2.422
2.423
2.422
2.423
2.423
2.423
2.424
2.424
2.424
2.424
2.424
2.424
2.424
2.424
2.424
2.424
2.424
2.424
2.424
2.425
2.424
2.424
2.425
2.425
2.425
2.425
2.424
2.425
2.425
2.424
2.425
2.425
2.424
2.425
2.425
2.424
