3.180
3.180
3.176
3.175
3.176
3.180
3.196
3.195
3.191
3.191
3.193
3.197
3.227
3.225
3.215
3.220
3.220
3.271
3.279
3.274
3.269
3.273
3.296
3.361
3.370
3.366
3.370
3.383
3.271
3.519
3.519
3.519
3.494
3.554
3.734
3.732
3.684
3.676
3.672
3.528
3.957
3.953
3.913
3.879
3.874
3.873
4.115
4.128
4.091
4.074
4.056
4.052
4.209
4.229
4.227
4.223
4.212
4.205
4.353
4.358
4.433
4.345
4.323
4.319
4.458
4.465
4.500
4.502
4.444
4.428
4.570
4.534
4.485
4.519
4.502
4.490
4.647
4.601
4.576
4.556
4.532
4.537
4.658
4.604
4.574
4.557
4.767
4.710
4.665
4.633
4.611
4.598
4.807
4.750
4.702
4.662
4.637
4.622
4.831
4.782
4.736
4.663
4.640
4.841
4.802
4.764
4.722
4.686
4.660
4.844
4.813
4.783
4.747
4.710
4.680
4.846
4.820
4.798
4.767
4.733
4.700
4.782
4.752
4.794
4.768
4.803
4.781
4.810
4.791
4.817
4.799
4.823
4.806
4.827
4.813
4.777
4.798
4.818
4.838
4.857
4.874
4.889
4.897
4.896
4.891
4.884
4.765
4.781
4.797
4.813
4.830
4.845
4.859
4.870
4.876
4.876
4.874
4.768
4.780
4.793
4.806
4.819
4.832
4.844
4.856
4.864
4.866
4.866
4.781
4.791
4.800
4.810
4.821
4.831
4.841
4.851
4.859
4.864
4.866
4.798
4.805
4.813
4.820
4.828
4.836
4.843
4.851
4.859
4.865
4.871
4.816
4.823
4.829
4.834
4.839
4.844
4.850
4.856
4.861
4.866
4.871
4.836
4.842
4.847
4.851
4.855
4.859
4.861
4.865
4.867
4.871
4.874
4.857
4.862
4.866
4.869
4.873
4.874
4.876
4.877
4.879
4.879
4.880
4.878
4.881
4.884
4.888
4.889
4.890
4.891
4.892
4.892
4.891
4.891
4.900
4.901
4.903
4.904
4.905
4.906
4.906
4.906
4.905
4.904
4.903
4.920
4.919
4.920
4.921
4.920
4.921
4.921
4.920
4.918
4.916
4.914
4.937
4.935
4.934
4.934
4.934
4.933
4.931
4.930
4.928
4.926
4.953
4.950
4.947
4.946
4.945
4.944
4.942
4.940
4.938
4.936
4.966
4.964
4.960
4.956
4.955
4.953
4.951
4.949
4.947
4.945
4.977
4.975
4.972
4.968
4.964
4.961
4.959
4.956
4.954
4.952
4.983
4.985
4.983
4.979
4.973
4.969
4.966
4.963
4.960
4.959
4.984
4.992
4.991
4.987
4.982
4.977
4.972
4.968
4.966
4.964
4.996
4.997
4.994
4.990
4.985
4.978
4.973
4.971
4.968
4.998
5.002
5.000
4.996
4.991
4.985
4.979
4.975
4.972
4.998
5.005
5.004
5.000
4.996
4.991
4.984
4.979
4.975
5.007
5.008
5.006
5.001
4.996
4.990
4.984
4.979
5.008
5.011
5.009
5.005
5.000
4.994
4.989
4.982
5.009
5.012
5.011
5.008
5.003
4.998
4.992
4.987
5.014
5.014
5.012
5.007
5.002
4.996
4.990
5.015
5.015
5.014
5.010
5.004
4.999
4.993
5.017
5.017
5.016
5.012
5.008
5.002
4.996
5.017
5.018
5.017
5.014
5.010
5.005
4.999
5.018
5.019
5.019
5.016
5.012
5.007
5.002
5.019
5.020
5.019
5.017
5.014
5.010
5.003
5.020
5.021
5.021
5.019
5.016
5.011
5.006
5.020
5.023
5.022
5.020
5.017
5.013
5.007
5.022
5.023
5.022
5.021
5.018
5.014
5.010
5.022
5.024
5.023
5.022
5.019
5.015
5.011
5.023
5.024
5.025
5.023
5.020
5.017
5.013
5.025
5.025
5.024
5.021
5.018
5.014
5.025
5.025
5.024
5.022
5.019
5.015
5.027
5.027
5.025
5.023
5.019
5.016
5.028
5.027
5.025
5.024
5.021
5.017
5.028
5.028
5.027
5.024
5.022
5.018
5.028
5.030
5.031
5.029
5.027
5.024
5.022
5.032
5.032
5.031
5.029
5.028
5.024
5.034
5.034
5.033
5.032
5.029
5.026
5.035
5.036
5.036
5.034
5.032
5.029
5.036
5.038
5.037
5.036
5.034
5.031
5.037
5.040
5.039
5.038
5.036
5.033
5.041
5.040
5.039
5.037
5.035
5.041
5.042
5.041
5.039
5.037
5.042
5.043
5.042
5.040
5.039
5.044
5.043
5.043
5.041
5.040
5.044
5.045
5.044
5.043
5.041
5.045
5.046
5.045
5.044
5.043
5.046
5.047
5.046
5.044
5.043
5.048
5.047
5.046
5.045
5.049
5.048
5.047
5.046
5.050
5.049
5.048
5.047
5.051
5.050
5.049
5.048
5.051
5.051
5.051
5.048
5.052
5.051
5.050
5.052
5.052
5.051
5.053
5.052
5.052
5.053
5.053
5.052
5.054
5.054
5.053
5.054
5.054
5.053
5.055
5.054
5.054
5.055
5.054
5.054
5.056
5.055
5.056
5.055
5.056
5.055
5.056
5.056
5.057
5.056
5.056
5.056
5.057
5.057
5.057
5.057
5.058
5.057
5.058
5.057
5.058
5.058
5.059
5.061
5.061
5.062
5.063
5.064
5.064
5.065
5.065
5.066
5.066
5.066
5.066
5.067
5.067
5.067
5.067
5.067
5.067
5.068
5.068
5.068
5.068
5.068
5.068
5.068
5.069
5.068
5.068
5.069
5.069
5.069
5.069
5.068
5.069
5.069
5.069
5.069
