4.796
4.799
4.791
4.793
4.798
4.805
4.830
4.829
4.824
4.825
4.826
4.831
4.856
4.856
4.849
4.851
4.851
4.870
4.871
4.869
4.867
4.868
4.871
4.882
4.882
4.881
4.881
4.881
4.870
4.891
4.891
4.891
4.889
4.892
4.900
4.900
4.898
4.897
4.897
4.892
4.907
4.907
4.906
4.905
4.903
4.904
4.912
4.912
4.911
4.910
4.909
4.910
4.914
4.915
4.916
4.915
4.915
4.914
4.918
4.917
4.920
4.917
4.918
4.918
4.921
4.922
4.924
4.923
4.920
4.920
4.930
4.925
4.921
4.922
4.921
4.922
4.938
4.932
4.927
4.921
4.921
4.924
4.940
4.925
4.919
4.918
4.952
4.948
4.940
4.929
4.919
4.913
4.956
4.952
4.947
4.936
4.924
4.914
4.957
4.956
4.952
4.930
4.918
4.958
4.957
4.955
4.949
4.936
4.924
4.957
4.958
4.957
4.953
4.943
4.930
4.957
4.957
4.958
4.955
4.947
4.936
4.956
4.951
4.957
4.953
4.956
4.953
4.956
4.954
4.956
4.954
4.956
4.954
4.956
4.954
4.950
4.954
4.955
4.958
4.960
4.962
4.963
4.964
4.964
4.963
4.962
4.946
4.948
4.951
4.953
4.956
4.958
4.959
4.962
4.962
4.961
4.960
4.944
4.946
4.949
4.950
4.952
4.954
4.956
4.958
4.959
4.959
4.959
4.945
4.947
4.948
4.949
4.951
4.952
4.954
4.955
4.957
4.958
4.958
4.948
4.948
4.949
4.950
4.951
4.952
4.952
4.954
4.955
4.956
4.957
4.950
4.950
4.951
4.952
4.952
4.952
4.953
4.953
4.954
4.955
4.955
4.952
4.952
4.953
4.953
4.953
4.953
4.953
4.954
4.955
4.955
4.955
4.953
4.954
4.954
4.954
4.954
4.955
4.955
4.955
4.955
4.955
4.956
4.955
4.955
4.955
4.955
4.956
4.956
4.955
4.956
4.956
4.956
4.956
4.956
4.956
4.957
4.957
4.956
4.957
4.957
4.957
4.957
4.956
4.957
4.958
4.957
4.958
4.957
4.958
4.958
4.958
4.958
4.957
4.957
4.958
4.959
4.958
4.958
4.958
4.958
4.958
4.959
4.958
4.958
4.958
4.960
4.959
4.960
4.959
4.959
4.959
4.959
4.959
4.959
4.959
4.961
4.961
4.961
4.961
4.960
4.960
4.960
4.960
4.960
4.959
4.961
4.961
4.962
4.961
4.961
4.960
4.961
4.960
4.961
4.960
4.961
4.962
4.961
4.962
4.961
4.962
4.961
4.962
4.961
4.961
4.961
4.962
4.962
4.963
4.962
4.962
4.962
4.962
4.962
4.961
4.962
4.963
4.962
4.963
4.963
4.963
4.963
4.962
4.962
4.962
4.962
4.963
4.963
4.963
4.963
4.964
4.963
4.963
4.962
4.962
4.963
4.964
4.964
4.964
4.964
4.964
4.964
4.962
4.963
4.963
4.964
4.964
4.964
4.964
4.963
4.962
4.963
4.963
4.964
4.964
4.965
4.965
4.965
4.963
4.963
4.963
4.964
4.964
4.964
4.964
4.964
4.962
4.964
4.964
4.964
4.964
4.964
4.965
4.962
4.963
4.964
4.964
4.964
4.965
4.965
4.963
4.964
4.964
4.964
4.965
4.965
4.966
4.963
4.963
4.964
4.964
4.964
4.965
4.965
4.963
4.963
4.964
4.964
4.964
4.965
4.965
4.963
4.963
4.964
4.964
4.965
4.965
4.966
4.963
4.963
4.964
4.964
4.965
4.965
4.966
4.963
4.963
4.963
4.964
4.965
4.965
4.965
4.963
4.963
4.964
4.964
4.964
4.965
4.965
4.963
4.963
4.963
4.964
4.964
4.965
4.965
4.963
4.964
4.964
4.964
4.964
4.965
4.965
4.963
4.964
4.964
4.964
4.964
4.965
4.964
4.964
4.964
4.964
4.965
4.965
4.963
4.964
4.965
4.965
4.965
4.965
4.964
4.964
4.964
4.964
4.965
4.965
4.963
4.964
4.964
4.964
4.965
4.965
4.963
4.963
4.964
4.964
4.965
4.965
4.965
4.964
4.964
4.964
4.965
4.965
4.965
4.964
4.965
4.964
4.964
4.965
4.965
4.964
4.965
4.964
4.965
4.965
4.965
4.964
4.965
4.965
4.965
4.965
4.965
4.964
4.964
4.965
4.965
4.965
4.966
4.965
4.965
4.965
4.965
4.965
4.964
4.965
4.965
4.965
4.965
4.965
4.964
4.964
4.965
4.966
4.964
4.965
4.964
4.964
4.966
4.964
4.965
4.965
4.964
4.965
4.965
4.964
4.965
4.965
4.965
4.964
4.964
4.965
4.965
4.965
4.965
4.964
4.965
4.965
4.965
4.965
4.964
4.965
4.965
4.965
4.965
4.965
4.965
4.965
4.965
4.965
4.965
4.964
4.965
4.965
4.965
4.964
4.965
4.965
4.965
4.965
4.965
4.964
4.965
4.964
4.964
4.964
4.965
4.965
4.965
4.964
4.965
4.965
4.965
4.965
4.964
4.965
4.964
4.965
4.965
4.965
4.964
4.965
4.964
4.965
4.965
4.965
4.965
4.965
4.965
4.965
4.965
4.965
4.965
4.965
4.965
4.965
4.965
4.965
4.965
4.964
4.965
4.965
4.965
4.965
4.965
4.965
4.965
4.966
4.965
4.965
4.965
4.966
4.965
4.965
4.965
4.965
4.965
4.966
4.965
4.966
4.966
4.966
4.965
4.966
4.966
4.965
4.965
4.966
4.965
4.965
4.965
4.965
4.966
4.966
4.965
4.966
4.965
4.966
