9.324
9.329
9.309
9.312
9.320
9.337
9.415
9.416
9.393
9.395
9.397
9.414
9.529
9.523
9.490
9.502
9.501
9.609
9.619
9.608
9.599
9.601
9.628
9.695
9.701
9.695
9.695
9.699
9.609
9.783
9.783
9.783
9.767
9.789
9.873
9.873
9.852
9.848
9.842
9.787
9.963
9.961
9.943
9.929
9.921
9.921
10.036
10.041
10.021
10.012
10.002
9.997
10.073
10.091
10.090
10.089
10.080
10.073
10.134
10.137
10.196
10.145
10.145
10.144
10.210
10.220
10.263
10.272
10.226
10.218
10.364
10.283
10.228
10.277
10.284
10.288
10.528
10.383
10.320
10.296
10.302
10.338
10.506
10.348
10.318
10.339
10.840
10.644
10.490
10.395
10.352
10.350
10.945
10.756
10.587
10.458
10.390
10.374
11.010
10.847
10.685
10.446
10.400
11.035
10.905
10.766
10.622
10.505
10.441
11.045
10.939
10.827
10.700
10.576
10.491
11.051
10.962
10.874
10.764
10.646
10.549
10.816
10.710
10.857
10.764
10.888
10.809
10.915
10.847
10.937
10.878
10.955
10.905
10.971
10.926
10.814
10.873
10.934
10.992
11.048
11.094
11.132
11.151
11.150
11.135
11.111
10.788
10.832
10.878
10.923
10.968
11.010
11.049
11.078
11.093
11.095
11.090
10.809
10.846
10.882
10.917
10.953
10.986
11.017
11.044
11.064
11.072
11.075
10.855
10.884
10.914
10.942
10.972
11.000
11.024
11.045
11.063
11.073
11.077
10.907
10.932
10.954
10.977
11.000
11.023
11.044
11.062
11.078
11.090
11.097
10.965
10.986
11.005
11.022
11.038
11.055
11.069
11.083
11.095
11.107
11.115
11.027
11.045
11.061
11.074
11.087
11.097
11.107
11.115
11.122
11.129
11.135
11.091
11.105
11.117
11.128
11.138
11.145
11.151
11.154
11.157
11.159
11.160
11.154
11.164
11.172
11.180
11.187
11.192
11.195
11.197
11.196
11.194
11.192
11.213
11.218
11.225
11.229
11.233
11.236
11.236
11.236
11.234
11.231
11.226
11.271
11.268
11.271
11.273
11.275
11.276
11.275
11.273
11.269
11.264
11.260
11.318
11.312
11.313
11.312
11.312
11.309
11.306
11.301
11.296
11.291
11.362
11.355
11.347
11.344
11.342
11.339
11.334
11.330
11.324
11.318
11.396
11.393
11.383
11.373
11.368
11.363
11.359
11.353
11.348
11.342
11.424
11.422
11.415
11.403
11.392
11.384
11.379
11.373
11.367
11.361
11.443
11.446
11.440
11.431
11.417
11.405
11.396
11.389
11.383
11.377
11.445
11.465
11.462
11.453
11.441
11.425
11.413
11.404
11.397
11.390
11.476
11.478
11.470
11.459
11.446
11.430
11.418
11.409
11.401
11.480
11.490
11.485
11.475
11.462
11.448
11.432
11.420
11.411
11.480
11.498
11.497
11.488
11.476
11.462
11.447
11.431
11.420
11.503
11.506
11.499
11.488
11.474
11.460
11.443
11.429
11.504
11.513
11.508
11.500
11.486
11.471
11.455
11.439
11.506
11.516
11.515
11.507
11.495
11.481
11.466
11.448
11.520
11.520
11.514
11.504
11.490
11.475
11.457
11.522
11.524
11.519
11.510
11.498
11.482
11.465
11.524
11.528
11.524
11.516
11.505
11.490
11.474
11.526
11.530
11.528
11.521
11.510
11.496
11.480
11.528
11.532
11.531
11.525
11.516
11.502
11.487
11.530
11.534
11.534
11.528
11.520
11.508
11.493
11.531
11.536
11.535
11.531
11.523
11.513
11.498
11.533
11.538
11.537
11.534
11.527
11.517
11.503
11.534
11.539
11.539
11.536
11.529
11.520
11.507
11.536
11.541
11.541
11.538
11.532
11.523
11.511
11.537
11.543
11.543
11.540
11.534
11.526
11.515
11.545
11.544
11.541
11.536
11.528
11.518
11.546
11.547
11.543
11.538
11.531
11.521
11.547
11.548
11.545
11.539
11.532
11.523
11.548
11.549
11.546
11.542
11.535
11.526
11.550
11.551
11.548
11.543
11.536
11.527
11.547
11.555
11.556
11.554
11.549
11.543
11.535
11.559
11.560
11.559
11.555
11.549
11.542
11.563
11.565
11.564
11.560
11.554
11.547
11.566
11.569
11.568
11.564
11.559
11.552
11.568
11.572
11.571
11.568
11.563
11.557
11.571
11.576
11.575
11.573
11.568
11.561
11.578
11.578
11.576
11.572
11.565
11.580
11.581
11.579
11.575
11.569
11.582
11.584
11.581
11.578
11.573
11.585
11.586
11.584
11.581
11.576
11.587
11.588
11.586
11.583
11.578
11.589
11.590
11.588
11.586
11.582
11.590
11.593
11.591
11.588
11.584
11.596
11.593
11.590
11.587
11.597
11.596
11.593
11.589
11.599
11.598
11.596
11.592
11.600
11.600
11.598
11.594
11.601
11.602
11.601
11.597
11.604
11.602
11.599
11.606
11.604
11.602
11.606
11.606
11.604
11.608
11.607
11.605
11.608
11.608
11.607
11.609
11.609
11.607
11.610
11.610
11.609
11.610
11.611
11.610
11.611
11.610
11.613
11.611
11.614
11.613
11.614
11.613
11.615
11.613
11.615
11.614
11.615
11.615
11.616
11.616
11.617
11.617
11.617
11.616
11.617
11.616
11.619
11.621
11.624
11.626
11.627
11.629
11.631
11.632
11.632
11.633
11.635
11.635
11.636
11.636
11.637
11.638
11.637
11.638
11.639
11.639
11.639
11.640
11.639
11.640
11.640
11.640
11.640
11.640
11.640
11.640
11.640
11.640
11.640
11.641
11.641
11.640
11.641
11.640
