9.360
9.363
9.408
9.441
9.456
9.359
8.933
7.154
8.949
8.992
9.015
9.000
8.535
8.541
6.905
8.570
8.590
8.165
6.687
8.176
8.185
10.245
6.764
7.818
6.440
7.822
7.827
7.830
7.751
6.229
6.229
6.229
6.237
7.492
7.184
7.183
7.184
7.179
7.181
7.176
6.888
6.889
6.885
5.861
6.886
5.877
6.610
6.607
6.605
6.602
6.607
6.605
6.346
6.342
6.342
6.337
6.340
6.344
6.103
6.094
6.102
6.098
6.092
6.097
5.876
5.862
5.855
5.860
5.857
5.865
5.667
5.648
5.631
5.626
5.623
5.624
5.472
5.450
5.429
5.416
5.411
5.410
5.266
5.227
5.214
5.207
-23.645
5.093
5.067
5.048
5.032
5.020
4.960
4.933
4.904
4.882
4.863
4.851
4.793
4.783
4.750
4.703
4.689
4.654
4.644
4.607
4.579
4.556
4.539
4.520
4.512
4.473
4.443
4.417
4.398
4.389
4.385
4.346
4.316
4.287
4.265
3.870
3.850
3.761
3.736
3.659
3.632
3.560
3.536
3.464
3.443
3.371
3.354
3.281
3.271
3.160
3.163
3.165
3.164
3.159
3.152
3.147
3.154
3.165
3.169
3.166
2.918
2.921
2.923
2.923
2.921
2.918
2.915
2.914
2.923
2.932
2.936
2.708
2.711
2.715
2.718
2.720
2.719
2.712
2.706
2.706
2.709
2.716
2.521
2.522
2.525
2.529
2.533
2.537
2.539
2.541
2.543
2.549
2.552
2.354
2.352
2.352
2.354
2.357
2.360
2.363
2.365
2.367
2.369
2.374
2.176
2.173
2.172
2.171
2.172
2.173
2.174
2.176
2.178
2.179
2.182
2.017
2.013
2.010
2.008
2.006
2.005
2.005
2.005
2.005
2.007
2.009
1.862
1.860
1.858
1.857
1.855
1.854
1.852
1.851
1.851
1.851
1.852
1.707
1.706
1.705
1.705
1.704
1.704
1.703
1.702
1.701
1.701
1.701
1.556
1.555
1.554
1.555
1.556
1.556
1.556
1.556
1.556
1.556
1.556
1.411
1.410
1.410
1.411
1.412
1.413
1.414
1.415
1.415
1.415
1.415
1.269
1.269
1.271
1.272
1.274
1.275
1.276
1.277
1.277
1.278
1.130
1.132
1.134
1.137
1.139
1.141
1.142
1.143
1.143
1.144
0.996
0.999
1.002
1.006
1.009
1.012
1.013
1.014
1.015
1.015
0.868
0.870
0.874
0.879
0.883
0.887
0.889
0.891
0.891
0.892
0.745
0.746
0.750
0.756
0.761
0.766
0.769
0.771
0.773
0.774
0.633
0.628
0.631
0.636
0.642
0.648
0.652
0.656
0.658
0.660
0.517
0.518
0.522
0.528
0.534
0.539
0.543
0.547
0.549
0.412
0.409
0.413
0.418
0.424
0.429
0.434
0.438
0.442
0.315
0.305
0.307
0.312
0.318
0.324
0.329
0.333
0.337
0.206
0.205
0.209
0.214
0.220
0.226
0.231
0.234
0.112
0.107
0.109
0.114
0.119
0.125
0.130
0.134
0.020
0.013
0.013
0.017
0.021
0.026
0.031
0.036
-0.078
-0.079
-0.078
-0.074
-0.070
-0.066
-0.061
-0.166
-0.169
-0.169
-0.167
-0.164
-0.161
-0.157
-0.253
-0.257
-0.258
-0.257
-0.255
-0.253
-0.250
-0.339
-0.343
-0.344
-0.344
-0.343
-0.342
-0.340
-0.423
-0.427
-0.428
-0.429
-0.429
-0.428
-0.427
-0.505
-0.510
-0.511
-0.512
-0.512
-0.512
-0.511
-0.586
-0.591
-0.593
-0.593
-0.593
-0.593
-0.593
-0.665
-0.671
-0.673
-0.673
-0.673
-0.672
-0.672
-0.742
-0.749
-0.751
-0.752
-0.752
-0.751
-0.750
-0.817
-0.825
-0.828
-0.829
-0.829
-0.828
-0.826
-0.891
-0.900
-0.904
-0.905
-0.904
-0.903
-0.901
-0.973
-0.977
-0.979
-0.979
-0.977
-0.975
-1.045
-1.050
-1.051
-1.051
-1.050
-1.047
-1.115
-1.120
-1.122
-1.122
-1.121
-1.118
-1.184
-1.189
-1.192
-1.192
-1.190
-1.188
-1.250
-1.256
-1.259
-1.260
-1.258
-1.256
-1.480
-1.498
-1.508
-1.513
-1.515
-1.516
-1.514
-1.724
-1.737
-1.745
-1.750
-1.753
-1.754
-1.942
-1.956
-1.965
-1.972
-1.977
-1.980
-2.151
-2.166
-2.177
-2.185
-2.191
-2.195
-2.348
-2.365
-2.378
-2.387
-2.394
-2.400
-2.534
-2.554
-2.567
-2.577
-2.585
-2.592
-2.732
-2.747
-2.758
-2.767
-2.774
-2.898
-2.916
-2.928
-2.938
-2.946
-3.054
-3.076
-3.089
-3.100
-3.108
-3.199
-3.227
-3.243
-3.253
-3.262
-3.333
-3.368
-3.387
-3.399
-3.408
-3.457
-3.502
-3.523
-3.537
-3.546
-3.564
-3.626
-3.653
-3.667
-3.677
-3.742
-3.773
-3.790
-3.800
-3.846
-3.887
-3.906
-3.916
-3.935
-3.990
-4.014
-4.026
-4.016
-4.083
-4.113
-4.127
-4.097
-4.167
-4.203
-4.220
-4.247
-4.287
-4.307
-4.327
-4.366
-4.388
-4.410
-4.445
-4.466
-4.492
-4.525
-4.545
-4.574
-4.604
-4.622
-4.656
-4.684
-4.700
-4.740
-4.763
-4.777
-4.825
-4.843
-4.854
-4.925
-4.933
-5.008
-5.014
-5.091
-5.095
-5.173
-5.176
-5.253
-5.257
-5.332
-5.336
-5.410
-5.415
-5.486
-5.492
-5.561
-5.567
-5.634
-5.641
-5.714
-5.580
-5.955
-6.330
-6.705
-7.079
-7.454
-7.829
-8.204
-8.579
-8.954
-9.329
-9.704
-10.079
-10.454
-10.829
-11.204
-11.579
-11.954
-12.329
-12.704
-13.079
-13.454
-13.829
-14.204
-14.579
-14.954
-15.329
-15.704
-16.079
-16.454
-16.829
-17.204
-17.579
-17.954
-18.329
-18.704
-19.079
-19.454
-19.829
