-32.540
-32.248
-32.611
-31.926
-30.663
-29.286
-27.591
-27.734
-28.055
-27.370
-26.460
-25.362
-23.751
-23.628
-24.062
-23.012
-23.022
-21.964
-21.558
-21.307
-21.062
-20.759
-20.198
-20.224
-20.042
-19.862
-19.471
-19.045
-22.378
-18.613
-18.613
-18.613
-18.423
-17.573
-17.177
-17.200
-17.391
-17.323
-17.135
-18.896
-16.006
-16.020
-16.108
-16.224
-16.014
-16.015
-15.010
-15.044
-15.159
-15.208
-15.230
-15.203
-13.995
-14.079
-14.197
-14.299
-14.357
-14.394
-13.050
-12.887
-12.414
-13.020
-13.366
-13.609
-12.521
-12.468
-12.171
-12.168
-12.535
-12.595
-11.998
-12.103
-12.403
-12.140
-12.336
-12.434
-11.724
-11.740
-11.756
-11.874
-12.170
-12.203
-11.492
-11.465
-11.764
-12.019
-11.267
-11.276
-11.271
-11.279
-11.414
-11.507
-11.077
-11.090
-11.100
-11.121
-11.177
-11.219
-10.890
-10.917
-10.936
-10.972
-11.044
-10.713
-10.748
-10.790
-10.798
-10.828
-10.877
-10.530
-10.577
-10.649
-10.663
-10.689
-10.742
-10.354
-10.388
-10.497
-10.534
-10.565
-10.610
-10.354
-10.348
-10.264
-10.278
-10.147
-10.190
-9.973
-10.065
-9.728
-9.876
-9.401
-9.587
-9.026
-9.180
-9.956
-9.810
-9.643
-9.447
-9.218
-8.965
-8.660
-8.356
-8.161
-8.099
-8.190
-9.600
-9.430
-9.246
-9.042
-8.813
-8.573
-8.309
-7.961
-7.620
-7.419
-7.364
-8.742
-8.403
-8.049
-7.722
-7.481
-7.363
-7.335
-7.247
-6.992
-6.708
-6.536
-7.337
-6.899
-6.442
-6.020
-5.695
-5.497
-5.451
-5.537
-5.640
-5.623
-5.560
-6.152
-5.741
-5.311
-4.915
-4.592
-4.372
-4.272
-4.283
-4.392
-4.546
-4.637
-5.279
-4.896
-4.495
-4.120
-3.809
-3.588
-3.462
-3.432
-3.486
-3.604
-3.770
-4.532
-4.183
-3.817
-3.472
-3.177
-2.959
-2.823
-2.771
-2.792
-2.869
-2.993
-3.887
-3.571
-3.245
-2.934
-2.665
-2.457
-2.317
-2.251
-2.249
-2.300
-2.390
-3.361
-3.076
-2.780
-2.497
-2.249
-2.048
-1.905
-1.826
-1.806
-1.836
-1.902
-2.944
-2.691
-2.422
-2.162
-1.926
-1.728
-1.580
-1.483
-1.443
-1.453
-1.498
-2.615
-2.394
-2.152
-1.911
-1.688
-1.494
-1.336
-1.222
-1.159
-1.142
-1.167
-2.164
-1.946
-1.724
-1.512
-1.321
-1.157
-1.029
-0.942
-0.900
-0.899
-1.980
-1.785
-1.579
-1.378
-1.191
-1.025
-0.886
-0.780
-0.714
-0.687
-1.811
-1.654
-1.464
-1.274
-1.092
-0.925
-0.779
-0.659
-0.573
-0.523
-1.638
-1.525
-1.367
-1.188
-1.013
-0.848
-0.698
-0.569
-0.468
-0.397
-1.439
-1.384
-1.263
-1.112
-0.945
-0.784
-0.634
-0.500
-0.387
-0.301
-1.179
-1.226
-1.146
-1.026
-0.884
-0.729
-0.581
-0.445
-0.325
-0.228
-1.041
-1.015
-0.927
-0.812
-0.679
-0.535
-0.399
-0.276
-0.171
-0.830
-0.872
-0.820
-0.730
-0.621
-0.495
-0.360
-0.236
-0.126
-0.593
-0.722
-0.707
-0.643
-0.554
-0.451
-0.329
-0.202
-0.089
-0.568
-0.591
-0.553
-0.485
-0.399
-0.299
-0.177
-0.060
-0.417
-0.477
-0.464
-0.415
-0.346
-0.261
-0.160
-0.039
-0.281
-0.367
-0.374
-0.344
-0.292
-0.221
-0.136
-0.030
-0.267
-0.291
-0.275
-0.236
-0.179
-0.109
-0.022
-0.178
-0.215
-0.212
-0.184
-0.139
-0.079
-0.005
-0.102
-0.147
-0.153
-0.135
-0.100
-0.049
0.014
-0.037
-0.088
-0.101
-0.091
-0.063
-0.022
0.033
0.018
-0.037
-0.056
-0.052
-0.031
0.004
0.051
0.067
0.007
-0.017
-0.018
-0.003
0.027
0.068
0.108
0.045
0.017
0.011
0.022
0.046
0.083
0.144
0.078
0.046
0.036
0.043
0.063
0.095
0.176
0.107
0.072
0.058
0.061
0.076
0.104
0.202
0.131
0.093
0.077
0.076
0.088
0.112
0.225
0.151
0.111
0.093
0.089
0.098
0.118
0.169
0.127
0.106
0.100
0.106
0.123
0.183
0.139
0.117
0.109
0.113
0.127
0.195
0.149
0.125
0.116
0.117
0.129
0.205
0.157
0.131
0.121
0.121
0.131
0.212
0.163
0.136
0.124
0.123
0.131
0.322
0.227
0.171
0.139
0.123
0.118
0.122
0.226
0.161
0.124
0.104
0.097
0.098
0.215
0.142
0.098
0.075
0.065
0.064
0.199
0.118
0.067
0.039
0.026
0.024
0.180
0.090
0.033
0.000
-0.016
-0.021
0.157
0.061
-0.002
-0.040
-0.060
-0.068
0.030
-0.039
-0.081
-0.105
-0.115
-0.002
-0.076
-0.123
-0.150
-0.162
-0.034
-0.114
-0.164
-0.194
-0.209
-0.065
-0.150
-0.205
-0.238
-0.255
-0.094
-0.187
-0.245
-0.281
-0.300
-0.117
-0.221
-0.284
-0.322
-0.344
-0.134
-0.253
-0.321
-0.362
-0.385
-0.279
-0.355
-0.399
-0.424
-0.300
-0.385
-0.434
-0.461
-0.321
-0.410
-0.465
-0.494
-0.351
-0.433
-0.491
-0.524
-0.392
-0.457
-0.516
-0.552
-0.487
-0.542
-0.578
-0.526
-0.569
-0.605
-0.575
-0.605
-0.634
-0.632
-0.648
-0.671
-0.696
-0.699
-0.714
-0.765
-0.756
-0.764
-0.837
-0.819
-0.819
-0.909
-0.886
-0.879
-0.954
-0.943
-1.023
-1.010
-1.092
-1.077
-1.160
-1.145
-1.227
-1.212
-1.292
-1.278
-1.357
-1.343
-1.420
-1.407
-1.482
-1.470
-1.543
-1.532
-1.593
-1.730
-2.040
-2.358
-2.683
-3.014
-3.350
-3.690
-4.035
-4.383
-4.734
-5.088
-5.444
-5.802
-6.162
-6.524
-6.888
-7.252
-7.618
-7.985
-8.353
-8.721
-9.091
-9.460
-9.831
-10.202
-10.573
-10.945
-11.317
-11.690
-12.062
-12.435
-12.809
-13.182
-13.555
-13.929
-14.303
-14.677
-15.051
-15.425
