1.864
1.870
1.852
1.858
1.871
1.903
2.116
2.105
2.032
2.063
2.134
2.292
2.894
2.883
2.713
2.893
2.888
3.295
3.342
3.346
3.351
3.378
3.448
3.532
3.543
3.546
3.562
3.582
3.296
3.648
3.648
3.648
3.645
3.674
3.712
3.711
3.701
3.701
3.703
3.651
3.754
3.753
3.747
3.742
3.744
3.744
3.778
3.781
3.776
3.774
3.772
3.771
3.796
3.797
3.798
3.798
3.797
3.795
3.813
3.822
3.832
3.816
3.814
3.815
3.824
3.830
3.843
3.840
3.831
3.828
3.829
3.833
3.830
3.838
3.837
3.840
3.825
3.833
3.838
3.838
3.837
3.846
3.834
3.840
3.835
3.839
3.832
3.838
3.838
3.838
3.833
3.834
3.845
3.848
3.843
3.838
3.831
3.831
3.862
3.862
3.854
3.834
3.829
3.881
3.880
3.870
3.860
3.844
3.832
3.898
3.898
3.888
3.880
3.862
3.842
3.912
3.915
3.905
3.900
3.884
3.861
3.920
3.907
3.936
3.927
3.952
3.946
3.964
3.961
3.975
3.974
3.984
3.985
3.992
3.994
3.992
3.987
3.982
3.979
3.977
3.976
3.978
3.982
3.990
3.998
4.003
4.024
4.024
4.023
4.022
4.020
4.018
4.017
4.017
4.017
4.018
4.020
4.038
4.038
4.037
4.036
4.036
4.036
4.035
4.034
4.034
4.033
4.031
4.048
4.048
4.047
4.047
4.045
4.045
4.045
4.044
4.044
4.043
4.040
4.054
4.055
4.055
4.054
4.053
4.054
4.053
4.052
4.052
4.051
4.050
4.059
4.060
4.060
4.060
4.060
4.060
4.059
4.058
4.058
4.058
4.057
4.063
4.063
4.065
4.064
4.065
4.065
4.064
4.064
4.064
4.063
4.063
4.068
4.069
4.069
4.069
4.068
4.069
4.069
4.069
4.068
4.068
4.068
4.074
4.074
4.073
4.074
4.073
4.073
4.073
4.072
4.073
4.073
4.072
4.079
4.078
4.078
4.078
4.078
4.077
4.077
4.076
4.077
4.076
4.076
4.085
4.084
4.083
4.082
4.082
4.081
4.081
4.080
4.080
4.079
4.080
4.089
4.088
4.087
4.086
4.085
4.085
4.084
4.084
4.083
4.083
4.095
4.093
4.092
4.091
4.090
4.089
4.088
4.086
4.086
4.086
4.099
4.097
4.096
4.095
4.094
4.092
4.091
4.091
4.089
4.089
4.103
4.102
4.101
4.099
4.098
4.096
4.095
4.094
4.092
4.092
4.107
4.106
4.105
4.103
4.101
4.100
4.099
4.097
4.096
4.094
4.108
4.109
4.107
4.107
4.106
4.104
4.102
4.100
4.099
4.098
4.111
4.110
4.109
4.109
4.107
4.106
4.104
4.103
4.101
4.111
4.113
4.112
4.111
4.110
4.109
4.107
4.105
4.104
4.110
4.113
4.114
4.113
4.112
4.111
4.110
4.109
4.107
4.115
4.115
4.115
4.114
4.113
4.113
4.111
4.109
4.114
4.116
4.116
4.116
4.115
4.114
4.113
4.112
4.114
4.117
4.117
4.117
4.116
4.116
4.115
4.114
4.117
4.118
4.117
4.117
4.117
4.116
4.116
4.117
4.118
4.118
4.119
4.118
4.118
4.117
4.117
4.119
4.119
4.119
4.119
4.119
4.118
4.118
4.119
4.120
4.120
4.120
4.119
4.119
4.118
4.119
4.120
4.121
4.120
4.120
4.120
4.118
4.120
4.121
4.120
4.120
4.120
4.121
4.118
4.120
4.120
4.121
4.122
4.121
4.121
4.119
4.120
4.121
4.121
4.122
4.122
4.121
4.119
4.120
4.121
4.122
4.122
4.122
4.122
4.119
4.120
4.121
4.122
4.122
4.123
4.123
4.120
4.121
4.122
4.122
4.122
4.123
4.123
4.121
4.122
4.122
4.123
4.123
4.124
4.121
4.122
4.123
4.123
4.123
4.124
4.122
4.122
4.123
4.123
4.124
4.124
4.122
4.123
4.123
4.123
4.124
4.124
4.122
4.123
4.123
4.124
4.124
4.125
4.122
4.123
4.124
4.124
4.125
4.125
4.125
4.125
4.125
4.125
4.125
4.125
4.126
4.126
4.126
4.127
4.127
4.127
4.126
4.126
4.126
4.127
4.128
4.127
4.128
4.127
4.128
4.128
4.128
4.128
4.128
4.127
4.128
4.129
4.129
4.129
4.129
4.129
4.130
4.129
4.130
4.129
4.130
4.130
4.130
4.130
4.130
4.129
4.131
4.131
4.131
4.131
4.130
4.132
4.131
4.131
4.132
4.130
4.131
4.132
4.132
4.132
4.131
4.132
4.133
4.133
4.133
4.131
4.132
4.133
4.133
4.133
4.133
4.133
4.134
4.133
4.133
4.133
4.134
4.134
4.133
4.134
4.135
4.134
4.132
4.135
4.134
4.135
4.132
4.135
4.134
4.135
4.134
4.135
4.135
4.133
4.135
4.135
4.133
4.134
4.135
4.133
4.133
4.135
4.132
4.134
4.135
4.132
4.132
4.134
4.131
4.132
4.134
4.131
4.132
4.133
4.132
4.132
4.131
4.132
4.131
4.132
4.131
4.131
4.132
4.131
4.132
4.132
4.132
4.132
4.132
4.132
4.132
4.132
4.132
4.132
4.131
4.135
4.135
4.136
4.137
4.137
4.138
4.138
4.138
4.138
4.138
4.139
4.139
4.139
4.140
4.139
4.140
4.139
4.140
4.139
4.139
4.140
4.139
4.140
4.140
4.140
4.140
4.140
4.140
4.140
4.140
4.140
4.140
4.140
4.140
4.141
4.140
4.140
4.140
4.140
