0.857
0.858
0.858
0.861
0.866
0.870
0.869
0.869
0.868
0.871
0.874
0.877
0.876
0.877
0.878
0.888
0.882
0.880
0.881
0.883
0.884
0.887
0.888
0.884
0.885
0.885
0.887
0.889
0.880
0.888
0.888
0.888
0.889
0.893
0.891
0.892
0.891
0.892
0.892
0.868
0.895
0.895
0.895
0.895
0.896
0.896
0.898
0.898
0.898
0.898
0.898
0.898
0.900
0.901
0.902
0.901
0.902
0.902
0.903
0.905
0.906
0.906
0.906
0.906
0.904
0.906
0.908
0.909
0.910
0.912
0.905
0.906
0.907
0.910
0.912
0.914
0.906
0.908
0.909
0.910
0.912
0.915
0.908
0.911
0.913
0.916
0.908
0.909
0.910
0.912
0.914
0.917
0.909
0.910
0.911
0.912
0.914
0.917
0.910
0.910
0.912
0.914
0.917
0.911
0.911
0.912
0.913
0.915
0.916
0.911
0.911
0.912
0.913
0.915
0.916
0.911
0.912
0.912
0.913
0.915
0.916
0.914
0.915
0.914
0.915
0.915
0.915
0.914
0.915
0.915
0.916
0.915
0.915
0.915
0.916
0.912
0.912
0.912
0.912
0.912
0.913
0.914
0.914
0.914
0.915
0.916
0.914
0.913
0.913
0.914
0.914
0.914
0.914
0.914
0.915
0.916
0.916
0.914
0.914
0.914
0.914
0.915
0.914
0.915
0.915
0.916
0.915
0.916
0.915
0.915
0.915
0.915
0.915
0.916
0.916
0.916
0.916
0.916
0.916
0.917
0.916
0.916
0.916
0.917
0.917
0.916
0.917
0.917
0.917
0.917
0.918
0.918
0.917
0.918
0.918
0.917
0.917
0.917
0.918
0.917
0.918
0.918
0.919
0.919
0.918
0.919
0.918
0.919
0.918
0.918
0.918
0.919
0.919
0.919
0.920
0.919
0.919
0.919
0.919
0.919
0.919
0.919
0.919
0.920
0.920
0.920
0.919
0.919
0.920
0.919
0.920
0.920
0.919
0.920
0.920
0.920
0.919
0.920
0.920
0.920
0.920
0.920
0.920
0.920
0.920
0.920
0.920
0.920
0.920
0.920
0.920
0.921
0.921
0.920
0.920
0.921
0.920
0.921
0.921
0.921
0.921
0.921
0.920
0.921
0.921
0.921
0.920
0.920
0.921
0.921
0.921
0.921
0.921
0.921
0.921
0.921
0.920
0.921
0.920
0.921
0.921
0.921
0.921
0.922
0.921
0.921
0.921
0.921
0.921
0.921
0.921
0.921
0.922
0.922
0.921
0.921
0.920
0.920
0.920
0.921
0.921
0.921
0.921
0.922
0.922
0.922
0.921
0.921
0.921
0.921
0.921
0.922
0.922
0.922
0.922
0.922
0.921
0.921
0.921
0.921
0.921
0.922
0.921
0.922
0.922
0.921
0.921
0.921
0.921
0.921
0.921
0.921
0.922
0.923
0.921
0.921
0.921
0.921
0.921
0.922
0.922
0.922
0.923
0.921
0.921
0.922
0.921
0.922
0.922
0.922
0.922
0.922
0.921
0.921
0.922
0.922
0.922
0.922
0.922
0.922
0.921
0.921
0.922
0.922
0.922
0.922
0.923
0.921
0.921
0.922
0.921
0.922
0.922
0.922
0.922
0.922
0.922
0.922
0.922
0.922
0.923
0.922
0.922
0.921
0.922
0.922
0.923
0.923
0.921
0.922
0.922
0.922
0.922
0.923
0.923
0.922
0.922
0.921
0.922
0.922
0.922
0.923
0.922
0.921
0.922
0.922
0.922
0.922
0.922
0.922
0.922
0.922
0.922
0.922
0.922
0.922
0.922
0.922
0.922
0.922
0.922
0.923
0.922
0.922
0.922
0.922
0.922
0.922
0.922
0.923
0.922
0.922
0.922
0.923
0.922
0.923
0.923
0.922
0.922
0.922
0.922
0.922
0.923
0.923
0.922
0.922
0.922
0.922
0.923
0.923
0.922
0.922
0.922
0.922
0.923
0.923
0.922
0.922
0.923
0.923
0.922
0.923
0.923
0.922
0.922
0.923
0.923
0.923
0.923
0.923
0.922
0.922
0.922
0.923
0.922
0.923
0.923
0.923
0.923
0.923
0.923
0.923
0.923
0.923
0.923
0.923
0.923
0.923
0.922
0.923
0.922
0.923
0.923
0.923
0.923
0.923
0.923
0.923
0.924
0.923
0.923
0.923
0.923
0.923
0.924
0.923
0.923
0.923
0.923
0.923
0.923
0.923
0.923
0.923
0.923
0.923
0.923
0.923
0.923
0.924
0.923
0.923
0.923
0.924
0.924
0.924
0.923
0.924
0.924
0.924
0.923
0.924
0.923
0.923
0.924
0.923
0.924
0.924
0.924
0.923
0.924
0.923
0.924
0.923
0.924
0.924
0.924
0.924
0.924
0.924
0.924
0.923
0.923
0.924
0.924
0.924
0.923
0.924
0.924
0.923
0.924
0.924
0.924
0.924
0.924
0.924
0.924
0.924
0.924
0.924
0.924
0.924
0.924
0.924
0.924
0.923
0.923
0.923
0.924
0.924
0.924
0.924
0.924
0.924
0.924
0.924
0.924
0.924
0.924
0.924
0.924
0.924
0.924
0.924
0.924
0.924
0.924
0.924
0.924
0.924
0.924
0.924
0.924
0.924
0.924
0.924
0.924
0.924
0.924
0.924
0.924
0.924
0.924
0.924
0.924
0.924
0.924
0.924
0.924
0.924
0.924
0.924
0.924
0.925
0.924
0.924
0.924
0.925
0.924
0.924
0.925
0.925
0.924
0.924
0.924
0.924
0.924
0.924
0.924
0.924
0.924
0.924
0.924
0.924
0.924
0.924
0.925
0.924
0.924
0.924
