3.909
3.911
3.903
3.903
3.904
3.909
3.933
3.933
3.926
3.926
3.927
3.934
3.965
3.964
3.955
3.960
3.960
3.985
3.989
3.987
3.986
3.988
3.994
4.006
4.007
4.007
4.008
4.011
3.985
4.026
4.026
4.026
4.024
4.030
4.044
4.044
4.040
4.040
4.039
4.026
4.061
4.061
4.057
4.056
4.054
4.054
4.075
4.076
4.073
4.071
4.069
4.068
4.085
4.086
4.086
4.085
4.083
4.081
4.102
4.103
4.111
4.098
4.094
4.093
4.115
4.116
4.120
4.118
4.106
4.103
4.132
4.129
4.118
4.119
4.113
4.110
4.147
4.144
4.139
4.128
4.119
4.117
4.160
4.145
4.127
4.118
4.179
4.178
4.173
4.160
4.141
4.124
4.192
4.192
4.188
4.175
4.155
4.137
4.200
4.201
4.201
4.172
4.148
4.203
4.207
4.210
4.204
4.185
4.160
4.206
4.209
4.214
4.212
4.198
4.173
4.208
4.212
4.217
4.217
4.207
4.184
4.221
4.214
4.223
4.219
4.226
4.224
4.229
4.227
4.231
4.230
4.234
4.233
4.236
4.235
4.227
4.227
4.228
4.227
4.227
4.228
4.231
4.233
4.234
4.235
4.233
4.232
4.234
4.234
4.236
4.237
4.237
4.238
4.238
4.238
4.238
4.236
4.238
4.240
4.240
4.240
4.240
4.241
4.242
4.242
4.243
4.241
4.239
4.244
4.245
4.245
4.246
4.246
4.246
4.247
4.246
4.246
4.246
4.244
4.250
4.251
4.251
4.251
4.251
4.252
4.251
4.252
4.251
4.251
4.250
4.254
4.255
4.256
4.256
4.255
4.255
4.256
4.256
4.255
4.255
4.255
4.258
4.258
4.259
4.259
4.259
4.260
4.260
4.259
4.260
4.260
4.259
4.262
4.262
4.263
4.263
4.263
4.263
4.262
4.262
4.263
4.262
4.262
4.266
4.266
4.266
4.266
4.266
4.266
4.266
4.266
4.265
4.265
4.265
4.271
4.270
4.270
4.270
4.269
4.269
4.268
4.268
4.268
4.268
4.268
4.275
4.275
4.274
4.273
4.273
4.273
4.272
4.271
4.272
4.271
4.271
4.278
4.277
4.276
4.276
4.276
4.275
4.275
4.273
4.274
4.273
4.282
4.281
4.280
4.279
4.278
4.277
4.277
4.276
4.276
4.275
4.285
4.284
4.283
4.282
4.281
4.281
4.280
4.279
4.278
4.278
4.288
4.287
4.286
4.285
4.284
4.283
4.283
4.282
4.281
4.280
4.290
4.290
4.289
4.288
4.287
4.286
4.285
4.284
4.283
4.283
4.291
4.291
4.291
4.291
4.290
4.288
4.288
4.287
4.285
4.285
4.293
4.292
4.292
4.292
4.291
4.290
4.289
4.288
4.287
4.293
4.294
4.294
4.294
4.293
4.292
4.291
4.290
4.289
4.292
4.295
4.295
4.295
4.294
4.294
4.294
4.293
4.291
4.296
4.296
4.296
4.296
4.296
4.295
4.295
4.293
4.296
4.297
4.297
4.297
4.297
4.296
4.297
4.296
4.294
4.297
4.297
4.297
4.298
4.297
4.297
4.298
4.297
4.298
4.298
4.298
4.298
4.299
4.298
4.297
4.298
4.299
4.299
4.299
4.299
4.299
4.297
4.298
4.299
4.299
4.300
4.300
4.300
4.297
4.298
4.299
4.300
4.299
4.300
4.300
4.297
4.298
4.300
4.300
4.300
4.300
4.301
4.297
4.299
4.299
4.300
4.300
4.301
4.301
4.297
4.298
4.300
4.300
4.301
4.301
4.301
4.298
4.299
4.299
4.300
4.300
4.301
4.302
4.298
4.299
4.300
4.301
4.301
4.301
4.302
4.298
4.299
4.300
4.300
4.301
4.302
4.302
4.297
4.299
4.300
4.301
4.301
4.302
4.302
4.300
4.300
4.301
4.301
4.301
4.302
4.300
4.300
4.301
4.301
4.302
4.302
4.299
4.301
4.301
4.301
4.302
4.302
4.299
4.301
4.301
4.302
4.302
4.302
4.300
4.300
4.301
4.301
4.302
4.303
4.298
4.300
4.301
4.302
4.302
4.303
4.303
4.301
4.302
4.302
4.303
4.303
4.304
4.301
4.302
4.302
4.303
4.303
4.304
4.302
4.303
4.303
4.304
4.304
4.304
4.303
4.303
4.304
4.304
4.304
4.304
4.302
4.303
4.304
4.304
4.305
4.305
4.304
4.304
4.305
4.305
4.306
4.304
4.305
4.305
4.306
4.305
4.304
4.305
4.305
4.306
4.306
4.304
4.306
4.305
4.306
4.306
4.305
4.306
4.306
4.306
4.307
4.305
4.305
4.306
4.306
4.306
4.305
4.307
4.306
4.307
4.307
4.306
4.306
4.307
4.307
4.307
4.307
4.307
4.307
4.306
4.307
4.308
4.307
4.306
4.307
4.308
4.308
4.305
4.308
4.308
4.308
4.306
4.308
4.308
4.307
4.308
4.308
4.305
4.307
4.308
4.305
4.307
4.308
4.305
4.306
4.308
4.304
4.306
4.307
4.304
4.305
4.306
4.304
4.305
4.306
4.304
4.305
4.304
4.305
4.304
4.305
4.304
4.304
4.304
4.304
4.304
4.304
4.304
4.304
4.305
4.304
4.304
4.305
4.305
4.304
4.305
4.307
4.308
4.308
4.309
4.309
4.309
4.309
4.309
4.309
4.309
4.310
4.310
4.310
4.311
4.310
4.310
4.310
4.310
4.311
4.311
4.311
4.311
4.310
4.310
4.311
4.311
4.311
4.311
4.311
4.311
4.311
4.311
4.311
4.311
4.311
4.311
4.311
4.311
4.312
