4.364
4.365
4.363
4.362
4.364
4.365
4.372
4.372
4.370
4.371
4.371
4.373
4.381
4.381
4.379
4.379
4.379
4.386
4.386
4.386
4.386
4.386
4.387
4.390
4.391
4.390
4.391
4.391
4.386
4.393
4.393
4.393
4.393
4.394
4.396
4.396
4.396
4.396
4.395
4.394
4.399
4.399
4.398
4.397
4.396
4.396
4.401
4.401
4.401
4.399
4.399
4.398
4.403
4.402
4.402
4.402
4.400
4.399
4.406
4.404
4.405
4.401
4.401
4.401
4.407
4.406
4.405
4.404
4.401
4.399
4.409
4.408
4.405
4.404
4.401
4.400
4.410
4.409
4.408
4.404
4.402
4.401
4.410
4.406
4.402
4.400
4.411
4.410
4.410
4.409
4.405
4.400
4.412
4.411
4.411
4.410
4.406
4.402
4.414
4.413
4.412
4.409
4.404
4.414
4.414
4.414
4.413
4.410
4.407
4.415
4.415
4.415
4.414
4.413
4.410
4.416
4.416
4.415
4.416
4.414
4.411
4.416
4.416
4.418
4.417
4.419
4.418
4.419
4.419
4.420
4.419
4.420
4.421
4.420
4.421
4.418
4.417
4.416
4.415
4.415
4.415
4.415
4.416
4.416
4.417
4.417
4.420
4.420
4.419
4.419
4.419
4.419
4.418
4.418
4.418
4.418
4.418
4.420
4.421
4.420
4.420
4.420
4.420
4.420
4.420
4.419
4.419
4.418
4.421
4.420
4.420
4.420
4.420
4.420
4.420
4.420
4.420
4.420
4.420
4.420
4.421
4.421
4.420
4.420
4.420
4.420
4.420
4.420
4.420
4.421
4.420
4.421
4.421
4.420
4.421
4.421
4.421
4.420
4.420
4.421
4.421
4.421
4.421
4.421
4.421
4.421
4.421
4.421
4.421
4.421
4.420
4.420
4.421
4.421
4.421
4.421
4.421
4.421
4.421
4.421
4.421
4.421
4.420
4.422
4.422
4.422
4.421
4.421
4.421
4.421
4.421
4.421
4.421
4.421
4.421
4.422
4.421
4.421
4.421
4.421
4.422
4.421
4.421
4.422
4.421
4.422
4.422
4.421
4.421
4.421
4.422
4.422
4.422
4.422
4.421
4.421
4.422
4.422
4.422
4.421
4.422
4.422
4.421
4.421
4.421
4.421
4.422
4.422
4.421
4.422
4.422
4.422
4.421
4.422
4.422
4.422
4.422
4.423
4.422
4.422
4.422
4.422
4.421
4.422
4.422
4.421
4.422
4.422
4.423
4.422
4.422
4.422
4.422
4.422
4.422
4.421
4.423
4.422
4.422
4.423
4.422
4.422
4.422
4.422
4.422
4.422
4.422
4.423
4.422
4.422
4.422
4.422
4.422
4.422
4.422
4.422
4.422
4.423
4.422
4.422
4.422
4.423
4.422
4.423
4.422
4.423
4.422
4.422
4.422
4.422
4.423
4.422
4.422
4.422
4.422
4.422
4.423
4.422
4.422
4.423
4.422
4.422
4.422
4.423
4.423
4.423
4.423
4.422
4.422
4.423
4.422
4.423
4.423
4.423
4.422
4.422
4.423
4.422
4.423
4.422
4.422
4.423
4.422
4.422
4.422
4.423
4.422
4.423
4.422
4.422
4.423
4.423
4.423
4.423
4.423
4.422
4.423
4.423
4.423
4.422
4.423
4.423
4.422
4.422
4.423
4.423
4.423
4.423
4.422
4.423
4.423
4.423
4.423
4.423
4.423
4.422
4.423
4.423
4.423
4.423
4.423
4.423
4.423
4.423
4.423
4.423
4.423
4.423
4.423
4.423
4.423
4.423
4.423
4.423
4.423
4.423
4.423
4.423
4.423
4.423
4.423
4.423
4.423
4.423
4.423
4.423
4.423
4.423
4.423
4.423
4.423
4.423
4.423
4.423
4.423
4.423
4.423
4.423
4.423
4.423
4.423
4.423
4.423
4.423
4.423
4.423
4.423
4.423
4.423
4.423
4.423
4.423
4.423
4.423
4.423
4.423
4.423
4.423
4.423
4.423
4.423
4.423
4.423
4.423
4.423
4.423
4.423
4.423
4.423
4.423
4.423
4.423
4.423
4.423
4.423
4.423
4.423
4.423
4.424
4.423
4.423
4.423
4.423
4.423
4.423
4.423
4.423
4.423
4.423
4.423
4.423
4.423
4.424
4.423
4.424
4.423
4.423
4.424
4.424
4.423
4.423
4.424
4.424
4.423
4.424
4.423
4.424
4.423
4.423
4.423
4.423
4.423
4.423
4.424
4.423
4.424
4.423
4.423
4.423
4.423
4.424
4.424
4.423
4.424
4.423
4.424
4.423
4.423
4.423
4.424
4.423
4.423
4.423
4.423
4.423
4.424
4.424
4.423
4.423
4.423
4.424
4.424
4.423
4.423
4.423
4.424
4.424
4.423
4.424
4.424
4.423
4.424
4.424
4.424
4.424
4.423
4.424
4.424
4.424
4.423
4.423
4.424
4.424
4.423
4.424
4.424
4.423
4.424
4.424
4.424
4.424
4.423
4.423
4.423
4.424
4.423
4.423
4.423
4.423
4.423
4.423
4.423
4.423
4.423
4.423
4.423
4.423
4.423
4.423
4.423
4.423
4.423
4.423
4.423
4.423
4.423
4.423
4.422
4.423
4.422
4.423
4.423
4.423
4.423
4.423
4.422
4.423
4.422
4.423
4.423
4.422
4.423
4.424
4.424
4.423
4.424
4.423
4.424
4.424
4.424
4.423
4.424
4.424
4.424
4.424
4.424
4.424
4.424
4.424
4.424
4.424
4.424
4.424
4.424
4.424
4.424
4.424
4.424
4.424
4.424
4.424
4.424
4.423
4.424
4.424
4.424
4.424
4.424
4.424
4.424
