3.978
3.980
3.972
3.972
3.975
3.980
4.007
4.007
4.000
4.000
4.002
4.010
4.039
4.037
4.030
4.035
4.035
4.057
4.060
4.059
4.058
4.059
4.065
4.076
4.077
4.077
4.078
4.081
4.057
4.094
4.094
4.094
4.092
4.098
4.111
4.111
4.108
4.107
4.107
4.095
4.127
4.127
4.123
4.121
4.120
4.120
4.140
4.141
4.138
4.136
4.134
4.133
4.149
4.150
4.150
4.149
4.148
4.145
4.163
4.164
4.171
4.160
4.156
4.156
4.175
4.175
4.179
4.176
4.165
4.161
4.189
4.185
4.177
4.176
4.171
4.168
4.201
4.198
4.193
4.182
4.174
4.174
4.212
4.195
4.179
4.171
4.230
4.227
4.219
4.206
4.188
4.170
4.243
4.240
4.233
4.219
4.198
4.180
4.251
4.250
4.245
4.212
4.188
4.256
4.256
4.255
4.245
4.225
4.198
4.259
4.260
4.260
4.254
4.237
4.211
4.262
4.263
4.264
4.260
4.247
4.222
4.266
4.255
4.270
4.263
4.274
4.268
4.277
4.273
4.280
4.277
4.284
4.282
4.287
4.285
4.281
4.281
4.281
4.281
4.281
4.282
4.283
4.286
4.287
4.288
4.287
4.290
4.291
4.291
4.291
4.292
4.292
4.292
4.293
4.293
4.293
4.292
4.297
4.297
4.297
4.298
4.297
4.298
4.298
4.299
4.299
4.296
4.295
4.303
4.304
4.304
4.304
4.304
4.303
4.304
4.304
4.303
4.303
4.301
4.307
4.308
4.308
4.309
4.308
4.309
4.308
4.309
4.308
4.308
4.307
4.311
4.312
4.312
4.313
4.312
4.313
4.313
4.313
4.313
4.312
4.312
4.315
4.315
4.316
4.316
4.316
4.316
4.316
4.316
4.316
4.317
4.316
4.319
4.319
4.320
4.319
4.319
4.319
4.320
4.320
4.319
4.320
4.319
4.323
4.323
4.323
4.323
4.322
4.323
4.322
4.323
4.322
4.322
4.322
4.328
4.328
4.327
4.327
4.326
4.326
4.326
4.325
4.325
4.325
4.325
4.332
4.331
4.330
4.330
4.330
4.329
4.329
4.328
4.329
4.328
4.328
4.335
4.335
4.333
4.332
4.333
4.331
4.331
4.331
4.330
4.330
4.339
4.338
4.337
4.336
4.335
4.334
4.334
4.333
4.333
4.332
4.342
4.341
4.340
4.339
4.339
4.337
4.337
4.336
4.335
4.335
4.345
4.344
4.343
4.342
4.341
4.340
4.340
4.338
4.337
4.337
4.348
4.347
4.346
4.345
4.344
4.343
4.342
4.341
4.341
4.340
4.348
4.349
4.349
4.347
4.346
4.346
4.345
4.344
4.343
4.342
4.350
4.350
4.350
4.349
4.348
4.347
4.347
4.346
4.345
4.350
4.351
4.351
4.350
4.351
4.349
4.348
4.348
4.347
4.349
4.351
4.352
4.352
4.352
4.351
4.351
4.351
4.349
4.351
4.353
4.353
4.353
4.353
4.352
4.352
4.351
4.351
4.353
4.354
4.354
4.354
4.354
4.354
4.353
4.351
4.353
4.354
4.354
4.354
4.354
4.355
4.355
4.353
4.355
4.355
4.355
4.355
4.356
4.356
4.354
4.355
4.355
4.355
4.356
4.356
4.356
4.353
4.355
4.355
4.356
4.356
4.357
4.358
4.353
4.354
4.356
4.356
4.357
4.357
4.358
4.353
4.355
4.355
4.356
4.356
4.357
4.358
4.353
4.355
4.356
4.356
4.357
4.358
4.359
4.354
4.355
4.356
4.357
4.357
4.358
4.359
4.354
4.355
4.356
4.357
4.357
4.358
4.359
4.354
4.355
4.356
4.357
4.358
4.358
4.359
4.354
4.355
4.356
4.357
4.358
4.358
4.359
4.354
4.355
4.357
4.357
4.358
4.359
4.359
4.356
4.356
4.357
4.357
4.358
4.359
4.355
4.357
4.357
4.358
4.359
4.359
4.356
4.357
4.357
4.358
4.359
4.360
4.356
4.357
4.358
4.358
4.359
4.360
4.356
4.357
4.357
4.358
4.359
4.360
4.355
4.356
4.358
4.358
4.359
4.359
4.360
4.357
4.357
4.358
4.359
4.359
4.360
4.358
4.358
4.358
4.359
4.359
4.360
4.358
4.358
4.359
4.360
4.360
4.360
4.358
4.359
4.359
4.361
4.361
4.361
4.358
4.359
4.360
4.360
4.361
4.362
4.360
4.361
4.361
4.362
4.362
4.360
4.361
4.361
4.362
4.362
4.360
4.361
4.361
4.362
4.362
4.361
4.361
4.362
4.362
4.363
4.361
4.362
4.362
4.362
4.362
4.361
4.361
4.362
4.363
4.363
4.361
4.362
4.363
4.363
4.363
4.362
4.363
4.363
4.364
4.362
4.363
4.363
4.364
4.362
4.363
4.364
4.364
4.362
4.364
4.363
4.364
4.361
4.363
4.363
4.364
4.363
4.364
4.365
4.362
4.364
4.364
4.362
4.364
4.364
4.361
4.362
4.364
4.361
4.362
4.364
4.361
4.362
4.363
4.360
4.361
4.363
4.360
4.361
4.361
4.361
4.361
4.361
4.362
4.361
4.361
4.361
4.361
4.361
4.361
4.361
4.361
4.361
4.361
4.360
4.361
4.361
4.361
4.361
4.361
4.361
4.363
4.363
4.364
4.364
4.365
4.365
4.365
4.365
4.366
4.366
4.366
4.366
4.366
4.366
4.366
4.366
4.366
4.366
4.366
4.366
4.366
4.366
4.367
4.367
4.366
4.367
4.366
4.367
4.367
4.367
4.367
4.366
4.367
4.367
4.366
4.367
4.367
4.367
4.367
