0.031800000000000002
0.030099999999999998
0.063500000000000001
0.1162
0.14599999999999999
0.1484
0.13109999999999999
-0.013899999999999999
-0.023199999999999998
-0.0025999999999999999
0.1019
0.25040000000000001
0.33729999999999999
0.36830000000000002
-0.077700000000000005
-0.057200000000000001
-0.0086
0.066000000000000003
0.17610000000000001
0.33510000000000001
0.44
0.49990000000000001
-0.1002
-0.053999999999999999
0.0178
0.097900000000000001
0.1731
0.2702
0.35449999999999998
0.4325
0.46129999999999999
-0.069900000000000004
-0.014500000000000001
0.0557
0.13389999999999999
0.20399999999999999
0.2707
0.32940000000000003
0.3992
0.45340000000000003
-0.018100000000000002
0.035000000000000003
0.093200000000000005
0.15809999999999999
0.22509999999999999
0.28079999999999999
0.32319999999999999
0.35599999999999998
0.41299999999999998
0.44919999999999999
0.035700000000000003
0.080399999999999999
0.12759999999999999
0.1804
0.2334
0.2823
0.3206
0.34770000000000001
0.37309999999999999
0.41070000000000001
0.42870000000000003
0.082299999999999998
0.1138
0.15229999999999999
0.19489999999999999
0.2387
0.27689999999999998
0.31140000000000001
0.33900000000000002
0.35520000000000002
0.38350000000000001
0.41739999999999999
0.1308
0.15060000000000001
0.17660000000000001
0.2077
0.2412
0.2752
0.30380000000000001
0.3281
0.34820000000000001
0.36699999999999999
0.39340000000000003
-0.0023999999999999998
0.18479999999999999
0.20019999999999999
0.21990000000000001
0.24460000000000001
0.27150000000000002
0.2959
0.31900000000000001
0.33660000000000001
0.3548
0.3765
0.0235
0.035700000000000003
0.18990000000000001
0.2331
0.24929999999999999
0.26819999999999999
0.28849999999999998
0.30990000000000001
0.32450000000000001
0.33960000000000001
0.36020000000000002
0.063600000000000004
0.070499999999999993
0.2243
0.25929999999999997
0.27129999999999999
0.28560000000000002
0.30159999999999998
0.31690000000000002
0.33260000000000001
0.3453
0.084400000000000003
0.099599999999999994
0.1026
0.25209999999999999
0.28050000000000003
0.28620000000000001
0.29720000000000002
0.30969999999999998
0.32190000000000002
0.33689999999999998
0.11360000000000001
0.1221
0.13300000000000001
0.13070000000000001
0.27339999999999998
0.2954
0.2989
0.30669999999999997
0.31569999999999998
0.32840000000000003
0.15340000000000001
0.15329999999999999
0.1555
0.16250000000000001
0.15840000000000001
0.29220000000000002
0.30570000000000003
0.30909999999999999
0.31380000000000002
0.32369999999999999
0.1948
0.187
0.1855
0.19020000000000001
0.18379999999999999
0.30809999999999998
0.31519999999999998
0.31640000000000001
0.3221
0.2268
0.22689999999999999
0.2145
0.21249999999999999
0.2157
0.20849999999999999
0.32179999999999997
0.3226
0.32540000000000002
0.25890000000000002
0.2535
0.2374
0.23569999999999999
0.2387
0.2321
0.33300000000000002
0.33210000000000001
0.27789999999999998
0.28139999999999998
0.27160000000000001
0.255
0.25719999999999998
0.26079999999999998
0.25490000000000002
0.3427
0.29799999999999999
0.29630000000000001
0.28310000000000002
0.26840000000000003
0.27760000000000001
0.28029999999999999
0.35210000000000002
0.28760000000000002
0.3054
0.30959999999999999
0.30359999999999998
0.29060000000000002
0.28139999999999998
0.29649999999999999
0.29920000000000002
0.30719999999999997
0.31609999999999999
0.31559999999999999
0.30840000000000001
0.2954
0.29849999999999999
0.31430000000000002
0.27939999999999998
0.30640000000000001
0.31859999999999999
0.32129999999999997
0.31890000000000002
0.30969999999999998
0.29349999999999998
0.27289999999999998
0.30509999999999998
0.31869999999999998
0.3241
0.32450000000000001
0.31990000000000002
0.30959999999999999
0.29299999999999998
0.3034
0.31790000000000002
0.32450000000000001
0.32700000000000001
0.32540000000000002
0.32029999999999997
0.30759999999999998
0.30230000000000001
0.31680000000000003
0.32390000000000002
0.32800000000000001
0.32890000000000003
0.3261
0.31850000000000001
0.3019
0.31569999999999998
0.32279999999999998
0.32750000000000001
0.3301
0.32929999999999998
0.32469999999999999
0.30149999999999999
0.31440000000000001
0.32100000000000001
0.32550000000000001
0.32900000000000001
0.33119999999999999
0.33079999999999998
0.3135
0.31890000000000002
0.3226
0.32590000000000002
0.3291
0.33129999999999998
0.31340000000000001
0.31730000000000003
0.3196
0.32250000000000001
0.32569999999999999
0.32900000000000001
0.31319999999999998
0.31569999999999998
0.31690000000000002
0.31900000000000001
0.32169999999999999
0.32490000000000002
0.31280000000000002
0.31419999999999998
0.3145
0.31559999999999999
0.31780000000000003
0.32079999999999997
0.313
0.31280000000000002
0.31180000000000002
0.31219999999999998
0.31369999999999998
0.3165
0.3049
0.31390000000000001
0.31080000000000002
0.30709999999999998
0.30570000000000003
0.30630000000000002
0.30790000000000001
0.31590000000000001
0.31030000000000002
0.30359999999999998
0.2999
0.29909999999999998
0.30020000000000002
0.31850000000000001
0.31090000000000001
0.3014
0.2954
0.2928
0.29299999999999998
0.32050000000000001
0.31230000000000002
0.30030000000000001
0.2918
0.28770000000000001
0.28660000000000002
0.3216
0.31359999999999999
0.29980000000000001
0.2893
0.28349999999999997
0.28120000000000001
0.32219999999999999
0.31469999999999998
0.29930000000000001
0.2873
0.2802
0.27689999999999998
0.31640000000000001
0.29870000000000002
0.28520000000000001
0.27700000000000002
0.2732
0.31900000000000001
0.29909999999999998
0.28320000000000001
0.27389999999999998
0.26950000000000002
0.32250000000000001
0.30080000000000001
0.28220000000000001
0.27100000000000002
0.26579999999999998
0.32619999999999999
0.30359999999999998
0.28270000000000001
0.26950000000000002
0.26300000000000001
0.33050000000000002
0.30759999999999998
0.28460000000000002
0.26929999999999998
0.26119999999999999
0.33589999999999998
0.31269999999999998
0.28749999999999998
0.27050000000000002
0.26079999999999998
0.34520000000000001
0.31769999999999998
0.29099999999999998
0.27250000000000002
0.26140000000000002
0.32340000000000002
0.2954
0.27429999999999999
0.26200000000000001
0.32929999999999998
0.2984
0.27710000000000001
0.2636
0.33329999999999999
0.30130000000000001
0.27850000000000003
0.26340000000000002
0.3377
0.30199999999999999
0.27800000000000002
0.26190000000000002
0.34460000000000002
0.30159999999999998
0.27510000000000001
0.25879999999999997
0.30180000000000001
0.27110000000000001
0.25369999999999998
0.30430000000000001
0.26740000000000003
0.247
0.30830000000000002
0.26490000000000002
0.24030000000000001
0.31059999999999999
0.2641
0.2351
0.25729999999999997
0.22239999999999999
0.24790000000000001
0.20699999999999999
0.1983
0.19550000000000001
0.19600000000000001
0.1976
