-30.470
-30.182
-30.535
-29.856
-28.606
-27.247
-25.604
-25.744
-26.053
-25.377
-24.484
-23.414
-21.878
-21.754
-22.169
-21.148
-21.159
-20.147
-19.748
-19.503
-19.265
-18.968
-18.407
-18.384
-18.194
-18.018
-17.620
-17.176
-20.561
-16.521
-16.521
-16.521
-16.364
-15.346
-14.523
-14.554
-14.876
-14.820
-14.612
-16.785
-12.628
-12.655
-12.868
-13.089
-12.852
-12.855
-11.090
-11.051
-11.272
-11.372
-11.442
-11.425
-9.735
-9.738
-9.793
-9.872
-9.943
-10.003
-8.442
-8.062
-7.293
-8.224
-8.577
-8.735
-7.672
-7.450
-6.837
-6.825
-7.358
-7.442
-6.871
-6.944
-7.344
-6.817
-7.015
-7.027
-6.442
-6.368
-6.342
-6.486
-6.799
-6.633
-5.887
-5.811
-6.281
-6.524
-5.403
-5.375
-5.417
-5.451
-5.708
-5.863
-4.880
-4.866
-4.962
-5.061
-5.235
-5.352
-4.372
-4.368
-4.480
-4.754
-4.967
-3.927
-3.907
-4.031
-4.133
-4.323
-4.544
-3.547
-3.505
-3.618
-3.688
-3.866
-4.121
-3.245
-3.158
-3.241
-3.286
-3.433
-3.679
-2.910
-3.033
-2.597
-2.673
-2.324
-2.361
-2.083
-2.090
-1.870
-1.851
-1.682
-1.643
-1.518
-1.466
-1.837
-1.889
-1.933
-1.955
-1.946
-1.901
-1.818
-1.691
-1.522
-1.361
-1.255
-1.114
-1.125
-1.145
-1.167
-1.187
-1.198
-1.196
-1.172
-1.117
-1.034
-0.960
-0.737
-0.737
-0.742
-0.750
-0.758
-0.767
-0.774
-0.778
-0.772
-0.750
-0.716
-0.487
-0.486
-0.490
-0.497
-0.502
-0.507
-0.511
-0.514
-0.517
-0.517
-0.512
-0.312
-0.310
-0.313
-0.319
-0.325
-0.330
-0.334
-0.336
-0.338
-0.340
-0.341
-0.184
-0.182
-0.184
-0.189
-0.194
-0.200
-0.204
-0.206
-0.207
-0.208
-0.207
-0.083
-0.085
-0.088
-0.093
-0.099
-0.104
-0.108
-0.110
-0.111
-0.111
-0.109
-0.001
-0.007
-0.014
-0.020
-0.027
-0.034
-0.038
-0.041
-0.042
-0.041
-0.039
0.067
0.056
0.046
0.037
0.028
0.020
0.013
0.009
0.007
0.007
0.010
0.120
0.106
0.094
0.082
0.071
0.061
0.052
0.046
0.042
0.041
0.043
0.156
0.145
0.131
0.118
0.105
0.093
0.082
0.073
0.066
0.063
0.063
0.168
0.159
0.146
0.132
0.118
0.104
0.092
0.083
0.077
0.074
0.182
0.175
0.166
0.153
0.137
0.122
0.107
0.094
0.085
0.079
0.190
0.181
0.176
0.167
0.152
0.136
0.119
0.103
0.089
0.079
0.191
0.184
0.177
0.172
0.161
0.145
0.127
0.109
0.091
0.077
0.189
0.181
0.176
0.169
0.162
0.150
0.132
0.112
0.092
0.075
0.180
0.170
0.167
0.162
0.155
0.147
0.133
0.113
0.091
0.071
0.152
0.151
0.149
0.144
0.136
0.127
0.110
0.088
0.066
0.123
0.126
0.127
0.125
0.120
0.111
0.101
0.081
0.059
0.074
0.094
0.097
0.099
0.097
0.091
0.082
0.069
0.049
0.052
0.060
0.064
0.066
0.064
0.057
0.049
0.034
0.004
0.017
0.023
0.027
0.028
0.026
0.020
0.012
-0.048
-0.029
-0.023
-0.018
-0.014
-0.013
-0.015
-0.021
-0.078
-0.070
-0.066
-0.062
-0.058
-0.057
-0.059
-0.128
-0.119
-0.115
-0.112
-0.108
-0.104
-0.102
-0.178
-0.169
-0.165
-0.162
-0.159
-0.154
-0.151
-0.228
-0.218
-0.215
-0.214
-0.210
-0.206
-0.201
-0.278
-0.268
-0.266
-0.264
-0.262
-0.259
-0.254
-0.329
-0.318
-0.315
-0.315
-0.314
-0.311
-0.306
-0.379
-0.367
-0.365
-0.365
-0.365
-0.363
-0.359
-0.429
-0.416
-0.414
-0.415
-0.416
-0.415
-0.412
-0.480
-0.466
-0.463
-0.465
-0.466
-0.466
-0.464
-0.530
-0.515
-0.512
-0.514
-0.516
-0.517
-0.515
-0.580
-0.564
-0.561
-0.562
-0.565
-0.566
-0.566
-0.613
-0.610
-0.611
-0.614
-0.616
-0.616
-0.662
-0.658
-0.659
-0.662
-0.664
-0.665
-0.710
-0.706
-0.707
-0.710
-0.712
-0.714
-0.758
-0.754
-0.755
-0.757
-0.760
-0.762
-0.805
-0.801
-0.802
-0.804
-0.807
-0.809
-1.002
-0.987
-0.985
-0.986
-0.989
-0.992
-0.994
-1.157
-1.159
-1.162
-1.166
-1.169
-1.170
-1.315
-1.322
-1.328
-1.333
-1.337
-1.340
-1.461
-1.474
-1.484
-1.491
-1.497
-1.500
-1.596
-1.615
-1.630
-1.639
-1.647
-1.652
-1.721
-1.745
-1.766
-1.778
-1.788
-1.796
-1.866
-1.893
-1.908
-1.920
-1.931
-1.978
-2.011
-2.031
-2.044
-2.057
-2.085
-2.122
-2.146
-2.161
-2.175
-2.188
-2.226
-2.255
-2.272
-2.286
-2.285
-2.326
-2.357
-2.377
-2.391
-2.375
-2.421
-2.455
-2.477
-2.492
-2.458
-2.510
-2.547
-2.572
-2.588
-2.593
-2.635
-2.662
-2.680
-2.669
-2.717
-2.748
-2.767
-2.742
-2.792
-2.827
-2.848
-2.817
-2.863
-2.901
-2.925
-2.897
-2.933
-2.970
-2.996
-3.003
-3.038
-3.065
-3.077
-3.105
-3.130
-3.154
-3.175
-3.197
-3.233
-3.246
-3.264
-3.315
-3.321
-3.334
-3.398
-3.398
-3.406
-3.481
-3.476
-3.480
-3.562
-3.556
-3.555
-3.635
-3.632
-3.712
-3.709
-3.788
-3.785
-3.862
-3.860
-3.934
-3.933
-4.005
-4.005
-4.074
-4.074
-4.141
-4.143
-4.207
-4.209
-4.272
-4.275
-4.339
-4.484
-4.830
-5.179
-5.531
-5.886
-6.243
-6.602
-6.963
-7.325
-7.689
-8.054
-8.420
-8.787
-9.155
-9.524
-9.894
-10.264
-10.635
-11.006
-11.377
-11.749
-12.121
-12.494
-12.867
-13.240
-13.613
-13.987
-14.360
-14.734
-15.108
-15.482
-15.856
-16.230
-16.605
-16.979
-17.353
-17.728
-18.103
-18.477
