4.378
4.378
4.374
4.378
4.382
4.386
4.394
4.393
4.392
4.393
4.395
4.397
4.408
4.406
4.404
4.406
4.405
4.415
4.416
4.415
4.413
4.413
4.416
4.424
4.425
4.424
4.423
4.423
4.415
4.434
4.434
4.434
4.432
4.433
4.444
4.445
4.442
4.442
4.441
4.435
4.454
4.454
4.453
4.451
4.449
4.449
4.462
4.463
4.461
4.460
4.458
4.458
4.466
4.468
4.468
4.468
4.466
4.465
4.467
4.468
4.471
4.472
4.473
4.471
4.472
4.475
4.480
4.481
4.478
4.477
4.494
4.482
4.476
4.481
4.482
4.482
4.510
4.500
4.489
4.484
4.486
4.487
4.515
4.494
4.488
4.489
4.525
4.525
4.521
4.507
4.496
4.492
4.527
4.528
4.529
4.520
4.507
4.499
4.529
4.530
4.533
4.521
4.509
4.530
4.531
4.533
4.534
4.529
4.519
4.530
4.530
4.533
4.536
4.534
4.527
4.530
4.531
4.534
4.536
4.537
4.532
4.536
4.537
4.536
4.538
4.537
4.538
4.537
4.539
4.538
4.539
4.539
4.540
4.539
4.541
4.530
4.530
4.531
4.531
4.533
4.536
4.538
4.541
4.543
4.545
4.546
4.539
4.539
4.538
4.538
4.540
4.542
4.543
4.545
4.546
4.548
4.549
4.553
4.552
4.551
4.550
4.550
4.551
4.551
4.552
4.552
4.551
4.552
4.562
4.562
4.561
4.560
4.560
4.560
4.560
4.559
4.559
4.558
4.557
4.565
4.564
4.564
4.564
4.564
4.564
4.565
4.565
4.564
4.564
4.562
4.561
4.562
4.563
4.564
4.565
4.566
4.567
4.568
4.568
4.568
4.567
4.554
4.557
4.559
4.560
4.563
4.565
4.567
4.568
4.570
4.571
4.571
4.544
4.548
4.552
4.555
4.558
4.561
4.564
4.567
4.569
4.571
4.573
4.533
4.538
4.543
4.548
4.552
4.556
4.560
4.563
4.566
4.570
4.572
4.523
4.528
4.534
4.540
4.545
4.551
4.555
4.559
4.564
4.567
4.570
4.513
4.519
4.526
4.532
4.538
4.544
4.550
4.555
4.560
4.565
4.568
4.511
4.519
4.525
4.531
4.538
4.545
4.551
4.556
4.562
4.566
4.505
4.511
4.519
4.525
4.533
4.541
4.547
4.553
4.560
4.564
4.500
4.505
4.512
4.520
4.529
4.536
4.543
4.551
4.557
4.562
4.497
4.500
4.508
4.516
4.524
4.533
4.541
4.547
4.555
4.561
4.497
4.498
4.504
4.511
4.520
4.529
4.537
4.545
4.553
4.559
4.501
4.496
4.501
4.507
4.516
4.526
4.534
4.543
4.551
4.558
4.498
4.500
4.506
4.513
4.522
4.532
4.541
4.549
4.558
4.503
4.501
4.504
4.512
4.521
4.530
4.539
4.548
4.555
4.511
4.504
4.505
4.511
4.520
4.529
4.537
4.547
4.555
4.508
4.507
4.511
4.519
4.528
4.537
4.546
4.554
4.512
4.509
4.512
4.519
4.527
4.536
4.546
4.554
4.518
4.512
4.515
4.519
4.528
4.536
4.545
4.553
4.516
4.517
4.521
4.528
4.536
4.545
4.554
4.520
4.519
4.522
4.528
4.537
4.545
4.553
4.524
4.522
4.524
4.529
4.537
4.546
4.554
4.528
4.525
4.526
4.531
4.537
4.545
4.554
4.532
4.528
4.528
4.532
4.539
4.546
4.554
4.535
4.531
4.531
4.535
4.539
4.547
4.554
4.539
4.534
4.535
4.536
4.541
4.547
4.555
4.541
4.537
4.537
4.539
4.543
4.548
4.555
4.544
4.540
4.540
4.540
4.545
4.549
4.556
4.547
4.542
4.541
4.542
4.546
4.551
4.557
4.549
4.544
4.543
4.545
4.547
4.552
4.558
4.546
4.545
4.547
4.550
4.553
4.558
4.548
4.548
4.549
4.551
4.555
4.560
4.550
4.549
4.551
4.553
4.556
4.560
4.552
4.551
4.552
4.554
4.557
4.561
4.553
4.552
4.554
4.556
4.559
4.562
4.564
4.559
4.557
4.558
4.560
4.563
4.566
4.563
4.562
4.562
4.564
4.567
4.570
4.567
4.565
4.566
4.567
4.569
4.572
4.570
4.568
4.569
4.570
4.572
4.575
4.573
4.570
4.570
4.572
4.574
4.577
4.577
4.573
4.572
4.573
4.575
4.578
4.575
4.575
4.575
4.577
4.579
4.578
4.576
4.577
4.578
4.580
4.580
4.578
4.578
4.579
4.581
4.581
4.580
4.580
4.581
4.582
4.583
4.581
4.582
4.582
4.583
4.584
4.582
4.582
4.583
4.584
4.586
4.584
4.583
4.584
4.585
4.584
4.584
4.584
4.586
4.585
4.585
4.585
4.586
4.587
4.586
4.586
4.587
4.587
4.587
4.586
4.587
4.588
4.587
4.587
4.588
4.588
4.588
4.588
4.588
4.589
4.589
4.589
4.588
4.590
4.589
4.589
4.590
4.589
4.589
4.589
4.590
4.589
4.590
4.590
4.590
4.591
4.590
4.591
4.591
4.590
4.591
4.590
4.591
4.591
4.591
4.590
4.591
4.591
4.591
4.590
4.591
4.591
4.591
4.591
4.591
4.590
4.591
4.590
4.591
4.592
4.590
4.590
4.590
4.590
4.591
4.590
4.591
4.591
4.591
4.591
4.591
4.591
4.591
4.591
4.591
4.591
4.591
4.591
4.591
4.591
4.592
4.591
4.592
4.591
4.591
4.592
4.592
4.591
4.592
4.592
4.592
4.591
4.592
4.592
4.592
4.591
4.592
4.592
4.591
