2.048
2.054
2.035
2.041
2.057
2.077
2.126
2.125
2.114
2.117
2.125
2.138
2.175
2.174
2.165
2.172
2.172
2.198
2.201
2.200
2.200
2.201
2.207
2.219
2.220
2.220
2.221
2.223
2.198
2.238
2.238
2.238
2.236
2.242
2.254
2.254
2.251
2.250
2.251
2.239
2.270
2.270
2.267
2.265
2.266
2.265
2.282
2.283
2.281
2.279
2.278
2.278
2.292
2.293
2.293
2.292
2.291
2.290
2.303
2.307
2.312
2.302
2.301
2.301
2.308
2.312
2.318
2.316
2.310
2.309
2.312
2.314
2.311
2.316
2.315
2.315
2.310
2.315
2.318
2.316
2.315
2.320
2.315
2.318
2.313
2.316
2.315
2.318
2.318
2.316
2.313
2.312
2.322
2.323
2.321
2.317
2.312
2.311
2.331
2.332
2.328
2.314
2.310
2.342
2.343
2.337
2.331
2.320
2.311
2.353
2.353
2.347
2.342
2.331
2.318
2.361
2.363
2.358
2.354
2.345
2.330
2.366
2.358
2.376
2.371
2.384
2.381
2.392
2.390
2.399
2.398
2.404
2.405
2.409
2.410
2.408
2.405
2.402
2.400
2.399
2.399
2.400
2.403
2.408
2.412
2.415
2.427
2.428
2.427
2.426
2.425
2.424
2.423
2.423
2.423
2.424
2.425
2.435
2.435
2.435
2.435
2.435
2.435
2.434
2.434
2.433
2.432
2.432
2.442
2.441
2.442
2.441
2.440
2.441
2.440
2.439
2.439
2.439
2.437
2.446
2.446
2.446
2.446
2.445
2.445
2.445
2.444
2.444
2.444
2.443
2.449
2.449
2.449
2.449
2.449
2.449
2.449
2.449
2.448
2.448
2.447
2.451
2.451
2.452
2.452
2.452
2.452
2.452
2.452
2.452
2.451
2.452
2.454
2.455
2.455
2.455
2.455
2.454
2.455
2.455
2.455
2.454
2.455
2.458
2.457
2.457
2.458
2.457
2.457
2.457
2.458
2.457
2.457
2.456
2.461
2.461
2.461
2.461
2.460
2.460
2.459
2.460
2.459
2.459
2.460
2.464
2.465
2.464
2.463
2.463
2.463
2.462
2.462
2.462
2.462
2.461
2.468
2.467
2.466
2.465
2.465
2.464
2.464
2.464
2.463
2.463
2.470
2.469
2.469
2.468
2.467
2.466
2.466
2.466
2.465
2.465
2.473
2.472
2.472
2.471
2.470
2.469
2.469
2.468
2.468
2.466
2.476
2.475
2.474
2.474
2.472
2.472
2.471
2.470
2.470
2.469
2.477
2.478
2.477
2.476
2.475
2.474
2.473
2.472
2.471
2.471
2.479
2.479
2.478
2.477
2.478
2.476
2.476
2.474
2.473
2.473
2.481
2.480
2.479
2.479
2.478
2.477
2.477
2.475
2.474
2.481
2.482
2.481
2.481
2.480
2.479
2.478
2.477
2.476
2.480
2.482
2.482
2.482
2.482
2.481
2.479
2.479
2.478
2.483
2.484
2.482
2.483
2.482
2.482
2.481
2.480
2.482
2.484
2.483
2.483
2.483
2.482
2.482
2.481
2.482
2.484
2.484
2.484
2.484
2.483
2.483
2.482
2.484
2.485
2.484
2.484
2.484
2.484
2.484
2.484
2.484
2.485
2.485
2.485
2.485
2.484
2.485
2.486
2.486
2.485
2.485
2.485
2.485
2.485
2.485
2.486
2.486
2.486
2.485
2.485
2.485
2.486
2.486
2.486
2.486
2.486
2.486
2.485
2.486
2.487
2.486
2.487
2.486
2.487
2.485
2.486
2.486
2.487
2.487
2.487
2.487
2.485
2.486
2.486
2.487
2.487
2.487
2.488
2.485
2.486
2.487
2.487
2.488
2.487
2.488
2.485
2.486
2.487
2.488
2.487
2.488
2.487
2.486
2.487
2.487
2.487
2.488
2.487
2.488
2.486
2.487
2.487
2.487
2.487
2.488
2.487
2.487
2.488
2.488
2.488
2.488
2.487
2.488
2.488
2.488
2.488
2.489
2.487
2.487
2.488
2.488
2.489
2.488
2.487
2.487
2.488
2.488
2.488
2.489
2.487
2.488
2.488
2.489
2.489
2.489
2.489
2.489
2.489
2.489
2.490
2.489
2.489
2.489
2.490
2.490
2.490
2.490
2.490
2.489
2.490
2.490
2.491
2.490
2.491
2.490
2.490
2.490
2.490
2.491
2.491
2.490
2.491
2.491
2.491
2.491
2.492
2.492
2.492
2.491
2.492
2.492
2.492
2.492
2.493
2.492
2.492
2.492
2.493
2.493
2.493
2.493
2.492
2.493
2.493
2.493
2.493
2.493
2.493
2.493
2.494
2.493
2.493
2.493
2.494
2.494
2.494
2.493
2.494
2.493
2.494
2.494
2.493
2.493
2.494
2.494
2.493
2.495
2.494
2.495
2.494
2.495
2.495
2.494
2.493
2.495
2.494
2.495
2.493
2.495
2.495
2.495
2.495
2.495
2.495
2.494
2.494
2.495
2.494
2.494
2.495
2.494
2.495
2.495
2.493
2.494
2.495
2.493
2.493
2.495
2.493
2.493
2.494
2.492
2.493
2.493
2.493
2.493
2.493
2.493
2.492
2.493
2.493
2.493
2.493
2.492
2.493
2.493
2.493
2.493
2.493
2.493
2.493
2.493
2.493
2.493
2.493
2.495
2.496
2.496
2.496
2.496
2.496
2.497
2.497
2.497
2.497
2.497
2.497
2.498
2.498
2.497
2.498
2.497
2.498
2.498
2.498
2.498
2.498
2.498
2.498
2.498
2.498
2.498
2.498
2.498
2.498
2.498
2.498
2.498
2.498
2.498
2.498
2.498
2.498
2.498
