5.712
5.794
5.514
5.597
5.804
6.122
6.951
6.934
6.755
6.822
6.946
7.145
7.510
7.503
7.431
7.493
7.490
7.632
7.645
7.642
7.639
7.646
7.670
7.708
7.712
7.712
7.716
7.723
7.632
7.762
7.762
7.762
7.757
7.775
7.809
7.808
7.799
7.797
7.798
7.764
7.853
7.852
7.843
7.837
7.837
7.836
7.886
7.889
7.882
7.877
7.873
7.871
7.908
7.914
7.916
7.915
7.911
7.907
7.938
7.950
7.978
7.947
7.941
7.941
7.962
7.977
8.003
8.004
7.977
7.970
7.996
8.001
7.986
8.007
7.996
7.991
8.025
8.035
8.037
8.025
8.010
8.013
8.078
8.073
8.035
8.014
8.125
8.134
8.130
8.114
8.077
8.045
8.180
8.189
8.185
8.164
8.127
8.090
8.230
8.239
8.239
8.186
8.133
8.268
8.280
8.284
8.275
8.238
8.184
8.298
8.310
8.319
8.320
8.291
8.236
8.321
8.335
8.349
8.352
8.335
8.288
8.377
8.368
8.398
8.394
8.416
8.416
8.432
8.432
8.446
8.447
8.460
8.461
8.472
8.472
8.426
8.431
8.434
8.437
8.441
8.447
8.453
8.461
8.466
8.467
8.461
8.478
8.483
8.486
8.489
8.491
8.493
8.496
8.498
8.496
8.494
8.489
8.529
8.532
8.534
8.533
8.532
8.531
8.531
8.529
8.525
8.518
8.513
8.570
8.577
8.579
8.578
8.577
8.575
8.572
8.567
8.562
8.553
8.544
8.601
8.609
8.612
8.614
8.614
8.612
8.610
8.606
8.600
8.592
8.582
8.628
8.635
8.639
8.642
8.643
8.644
8.643
8.640
8.637
8.631
8.623
8.656
8.661
8.665
8.668
8.669
8.670
8.671
8.670
8.668
8.664
8.658
8.686
8.689
8.692
8.694
8.694
8.695
8.695
8.695
8.694
8.691
8.689
8.718
8.719
8.719
8.719
8.719
8.719
8.718
8.717
8.716
8.715
8.713
8.750
8.748
8.746
8.744
8.743
8.742
8.740
8.739
8.737
8.736
8.734
8.782
8.776
8.772
8.769
8.767
8.764
8.761
8.759
8.757
8.755
8.753
8.805
8.799
8.794
8.789
8.785
8.781
8.778
8.775
8.773
8.770
8.832
8.825
8.818
8.812
8.806
8.802
8.797
8.793
8.789
8.786
8.858
8.850
8.841
8.834
8.827
8.821
8.816
8.811
8.806
8.802
8.879
8.873
8.865
8.856
8.848
8.840
8.834
8.827
8.822
8.817
8.895
8.892
8.886
8.878
8.868
8.860
8.851
8.844
8.838
8.832
8.901
8.908
8.903
8.896
8.889
8.879
8.869
8.861
8.854
8.847
8.919
8.917
8.912
8.905
8.897
8.887
8.878
8.870
8.861
8.922
8.928
8.925
8.919
8.911
8.903
8.894
8.884
8.875
8.916
8.935
8.935
8.931
8.925
8.917
8.909
8.899
8.890
8.937
8.942
8.941
8.936
8.929
8.923
8.913
8.903
8.937
8.947
8.947
8.944
8.939
8.933
8.925
8.916
8.938
8.949
8.952
8.950
8.947
8.942
8.935
8.927
8.952
8.956
8.956
8.953
8.949
8.943
8.936
8.953
8.959
8.959
8.957
8.955
8.950
8.944
8.954
8.961
8.963
8.961
8.959
8.955
8.951
8.955
8.962
8.965
8.965
8.963
8.960
8.956
8.956
8.964
8.967
8.968
8.966
8.964
8.960
8.958
8.965
8.969
8.971
8.970
8.967
8.964
8.958
8.967
8.970
8.973
8.972
8.971
8.968
8.960
8.968
8.972
8.974
8.974
8.973
8.970
8.961
8.969
8.974
8.975
8.976
8.975
8.974
8.963
8.971
8.975
8.977
8.977
8.977
8.976
8.964
8.972
8.976
8.978
8.979
8.979
8.978
8.973
8.978
8.980
8.981
8.981
8.980
8.975
8.979
8.981
8.982
8.982
8.982
8.976
8.980
8.983
8.984
8.983
8.983
8.978
8.982
8.984
8.984
8.985
8.984
8.979
8.983
8.985
8.986
8.986
8.986
8.976
8.985
8.988
8.990
8.991
8.991
8.991
8.990
8.994
8.995
8.995
8.996
8.995
8.995
8.998
9.000
9.000
9.000
9.000
8.999
9.003
9.004
9.004
9.004
9.004
9.002
9.007
9.009
9.009
9.009
9.008
9.004
9.011
9.013
9.013
9.012
9.011
9.014
9.017
9.017
9.016
9.016
9.016
9.020
9.020
9.020
9.019
9.019
9.022
9.024
9.024
9.022
9.021
9.025
9.026
9.027
9.025
9.023
9.027
9.029
9.028
9.028
9.025
9.030
9.031
9.031
9.031
9.025
9.033
9.033
9.033
9.033
9.036
9.036
9.036
9.035
9.037
9.039
9.038
9.037
9.038
9.041
9.041
9.041
9.037
9.043
9.043
9.043
9.037
9.044
9.046
9.045
9.044
9.047
9.047
9.045
9.048
9.049
9.044
9.048
9.050
9.044
9.048
9.050
9.043
9.049
9.050
9.044
9.048
9.051
9.044
9.048
9.050
9.044
9.047
9.050
9.047
9.050
9.049
9.050
9.048
9.050
9.048
9.050
9.049
9.050
9.049
9.051
9.050
9.052
9.051
9.051
9.050
9.052
9.051
9.052
9.053
9.047
9.050
9.053
9.056
9.057
9.059
9.061
9.063
9.064
9.065
9.066
9.068
9.068
9.069
9.069
9.070
9.071
9.071
9.072
9.072
9.072
9.072
9.072
9.072
9.073
9.073
9.074
9.074
9.074
9.074
9.074
9.074
9.074
9.074
9.074
9.075
9.074
9.074
9.075
