7.610
7.608
7.614
7.612
7.607
7.598
7.539
7.540
7.562
7.559
7.551
7.526
7.333
7.343
7.412
7.369
7.371
7.103
7.067
7.070
7.073
7.048
6.961
6.977
6.990
6.963
6.941
6.944
7.104
7.738
7.738
7.738
7.557
7.946
9.191
9.181
8.860
8.805
8.782
7.797
10.605
10.581
10.333
10.124
10.111
10.105
11.556
11.625
11.429
11.332
11.232
11.197
12.340
12.292
12.223
12.163
12.099
12.036
12.907
13.112
12.871
12.905
12.661
12.489
12.635
12.672
12.584
12.549
12.662
12.635
12.319
12.424
12.604
12.480
12.481
12.482
12.227
12.261
12.289
12.328
12.403
12.385
12.210
12.197
12.251
12.295
12.267
12.214
12.171
12.155
12.154
12.143
12.312
12.248
12.188
12.150
12.114
12.092
12.348
12.285
12.219
12.110
12.072
12.366
12.313
12.250
12.189
12.126
12.073
12.371
12.327
12.276
12.220
12.156
12.093
12.368
12.330
12.291
12.245
12.186
12.119
12.259
12.209
12.268
12.225
12.271
12.235
12.273
12.241
12.273
12.244
12.272
12.246
12.271
12.248
12.243
12.268
12.294
12.320
12.347
12.370
12.390
12.402
12.402
12.393
12.383
12.174
12.199
12.225
12.252
12.278
12.302
12.325
12.344
12.353
12.351
12.347
12.146
12.164
12.183
12.203
12.226
12.249
12.272
12.293
12.311
12.318
12.318
12.154
12.165
12.179
12.193
12.208
12.226
12.243
12.260
12.277
12.292
12.297
12.172
12.181
12.190
12.200
12.211
12.223
12.236
12.249
12.261
12.276
12.288
12.195
12.202
12.210
12.217
12.223
12.230
12.238
12.246
12.255
12.265
12.275
12.221
12.228
12.234
12.238
12.243
12.247
12.251
12.255
12.259
12.265
12.272
12.249
12.255
12.259
12.263
12.266
12.268
12.270
12.271
12.272
12.274
12.276
12.278
12.281
12.284
12.287
12.288
12.290
12.290
12.290
12.289
12.288
12.288
12.305
12.306
12.308
12.309
12.309
12.310
12.309
12.309
12.307
12.305
12.302
12.331
12.329
12.330
12.330
12.330
12.329
12.327
12.325
12.323
12.320
12.318
12.353
12.349
12.348
12.347
12.346
12.344
12.342
12.339
12.336
12.332
12.373
12.369
12.364
12.363
12.361
12.359
12.356
12.353
12.350
12.347
12.388
12.386
12.382
12.376
12.373
12.371
12.369
12.365
12.363
12.359
12.398
12.399
12.398
12.391
12.385
12.382
12.378
12.375
12.373
12.370
12.405
12.409
12.408
12.405
12.398
12.392
12.388
12.384
12.381
12.378
12.402
12.416
12.417
12.415
12.410
12.403
12.396
12.392
12.389
12.386
12.419
12.423
12.422
12.419
12.414
12.406
12.400
12.396
12.392
12.418
12.427
12.427
12.425
12.421
12.416
12.408
12.402
12.398
12.417
12.429
12.432
12.431
12.427
12.423
12.417
12.409
12.404
12.430
12.436
12.436
12.433
12.429
12.423
12.417
12.409
12.431
12.437
12.439
12.437
12.434
12.429
12.423
12.415
12.432
12.438
12.441
12.440
12.438
12.433
12.429
12.423
12.440
12.443
12.442
12.441
12.437
12.433
12.427
12.441
12.444
12.445
12.443
12.441
12.436
12.431
12.442
12.445
12.446
12.445
12.443
12.439
12.434
12.442
12.446
12.448
12.447
12.445
12.442
12.437
12.443
12.448
12.449
12.449
12.446
12.444
12.440
12.444
12.448
12.450
12.450
12.449
12.445
12.442
12.444
12.449
12.451
12.451
12.450
12.448
12.445
12.445
12.450
12.452
12.452
12.451
12.449
12.446
12.446
12.451
12.452
12.453
12.452
12.450
12.447
12.447
12.451
12.453
12.454
12.453
12.452
12.448
12.447
12.452
12.454
12.454
12.453
12.452
12.450
12.453
12.454
12.455
12.455
12.454
12.451
12.453
12.456
12.455
12.455
12.454
12.452
12.454
12.456
12.457
12.456
12.455
12.453
12.455
12.456
12.457
12.457
12.455
12.453
12.455
12.457
12.457
12.458
12.457
12.454
12.451
12.458
12.459
12.460
12.460
12.459
12.457
12.460
12.462
12.462
12.463
12.461
12.460
12.461
12.464
12.465
12.464
12.463
12.462
12.462
12.465
12.467
12.467
12.465
12.464
12.462
12.466
12.467
12.468
12.467
12.465
12.462
12.467
12.469
12.469
12.469
12.467
12.468
12.470
12.470
12.470
12.469
12.468
12.471
12.471
12.472
12.471
12.469
12.471
12.473
12.472
12.472
12.470
12.472
12.473
12.473
12.473
12.471
12.473
12.474
12.474
12.474
12.472
12.473
12.475
12.475
12.475
12.471
12.475
12.475
12.475
12.475
12.476
12.476
12.476
12.476
12.477
12.477
12.477
12.477
12.478
12.478
12.479
12.477
12.477
12.479
12.479
12.479
12.478
12.480
12.480
12.479
12.481
12.481
12.480
12.481
12.481
12.482
12.481
12.482
12.482
12.482
12.483
12.483
12.482
12.483
12.484
12.482
12.483
12.483
12.482
12.484
12.484
12.483
12.484
12.484
12.484
12.485
12.485
12.484
12.485
12.485
12.485
12.486
12.485
12.486
12.486
12.486
12.486
12.486
12.486
12.487
12.487
12.487
12.486
12.487
12.487
12.486
12.487
12.489
12.490
12.490
12.492
12.493
12.493
12.494
12.495
12.495
12.496
12.496
12.496
12.497
12.497
12.498
12.497
12.498
12.498
12.498
12.498
12.498
12.498
12.498
12.498
12.498
12.499
12.499
12.499
12.499
12.499
12.499
12.499
12.499
12.499
12.499
12.499
12.499
