-26.481
-26.132
-26.707
-25.963
-24.546
-22.927
-20.555
-20.719
-21.201
-20.438
-19.385
-18.046
-15.815
-15.698
-16.288
-15.057
-15.072
-13.594
-13.122
-12.857
-12.596
-12.252
-11.581
-11.467
-11.258
-11.066
-10.628
-10.145
-14.007
-9.538
-9.538
-9.538
-9.347
-8.375
-7.834
-7.861
-8.094
-8.024
-7.817
-9.809
-6.447
-6.464
-6.579
-6.720
-6.493
-6.494
-5.323
-5.339
-5.468
-5.526
-5.556
-5.529
-4.253
-4.307
-4.401
-4.490
-4.545
-4.585
-3.283
-3.039
-2.507
-3.128
-3.469
-3.707
-2.721
-2.616
-2.235
-2.205
-2.558
-2.618
-2.167
-2.232
-2.506
-2.166
-2.337
-2.411
-1.876
-1.836
-1.800
-1.871
-2.154
-2.143
-1.557
-1.416
-1.698
-1.945
-1.334
-1.298
-1.251
-1.201
-1.297
-1.360
-1.088
-1.054
-1.030
-1.001
-1.015
-1.024
-0.849
-0.822
-0.809
-0.760
-0.803
-0.641
-0.608
-0.608
-0.573
-0.564
-0.586
-0.464
-0.425
-0.426
-0.392
-0.377
-0.400
-0.329
-0.273
-0.265
-0.235
-0.217
-0.227
-0.090
-0.079
0.020
0.038
0.111
0.133
0.191
0.214
0.261
0.285
0.322
0.347
0.375
0.401
0.018
-0.026
-0.064
-0.093
-0.106
-0.094
-0.052
0.028
0.137
0.264
0.373
0.340
0.324
0.310
0.296
0.284
0.273
0.268
0.274
0.302
0.359
0.433
0.495
0.486
0.479
0.473
0.466
0.459
0.454
0.451
0.455
0.474
0.513
0.590
0.583
0.577
0.573
0.567
0.563
0.559
0.557
0.557
0.562
0.579
0.656
0.648
0.643
0.639
0.633
0.629
0.625
0.624
0.625
0.627
0.634
0.704
0.694
0.688
0.683
0.677
0.671
0.667
0.664
0.665
0.667
0.672
0.733
0.723
0.715
0.709
0.703
0.696
0.691
0.687
0.685
0.686
0.690
0.742
0.732
0.724
0.717
0.711
0.705
0.699
0.695
0.692
0.692
0.694
0.728
0.721
0.715
0.709
0.703
0.698
0.693
0.689
0.686
0.685
0.687
0.697
0.694
0.691
0.687
0.683
0.679
0.674
0.671
0.669
0.668
0.670
0.649
0.654
0.655
0.655
0.653
0.651
0.648
0.645
0.643
0.643
0.644
0.602
0.609
0.614
0.615
0.615
0.614
0.613
0.611
0.611
0.613
0.544
0.554
0.565
0.571
0.574
0.575
0.575
0.575
0.575
0.576
0.484
0.495
0.508
0.520
0.528
0.532
0.533
0.534
0.535
0.536
0.426
0.436
0.449
0.462
0.476
0.484
0.488
0.490
0.491
0.493
0.374
0.378
0.390
0.403
0.418
0.431
0.439
0.443
0.446
0.447
0.343
0.322
0.332
0.345
0.358
0.373
0.386
0.394
0.397
0.400
0.272
0.275
0.288
0.301
0.313
0.329
0.340
0.347
0.350
0.230
0.221
0.230
0.243
0.256
0.268
0.283
0.293
0.298
0.191
0.169
0.173
0.184
0.197
0.210
0.222
0.236
0.245
0.119
0.116
0.125
0.137
0.150
0.162
0.174
0.188
0.069
0.060
0.065
0.076
0.088
0.101
0.113
0.127
0.019
0.006
0.006
0.014
0.025
0.038
0.051
0.063
-0.046
-0.051
-0.047
-0.038
-0.026
-0.013
-0.000
-0.098
-0.107
-0.107
-0.101
-0.090
-0.078
-0.065
-0.150
-0.161
-0.164
-0.162
-0.154
-0.143
-0.130
-0.202
-0.214
-0.220
-0.221
-0.216
-0.207
-0.195
-0.254
-0.266
-0.275
-0.278
-0.277
-0.270
-0.260
-0.306
-0.318
-0.328
-0.334
-0.335
-0.331
-0.323
-0.359
-0.369
-0.380
-0.388
-0.392
-0.390
-0.384
-0.413
-0.421
-0.432
-0.441
-0.447
-0.448
-0.444
-0.467
-0.474
-0.484
-0.494
-0.501
-0.504
-0.502
-0.520
-0.526
-0.536
-0.545
-0.553
-0.558
-0.559
-0.574
-0.578
-0.587
-0.597
-0.605
-0.611
-0.614
-0.630
-0.638
-0.647
-0.656
-0.663
-0.667
-0.682
-0.689
-0.698
-0.707
-0.714
-0.720
-0.733
-0.740
-0.748
-0.757
-0.765
-0.771
-0.784
-0.791
-0.798
-0.806
-0.814
-0.821
-0.834
-0.841
-0.848
-0.855
-0.863
-0.870
-1.022
-1.028
-1.035
-1.042
-1.048
-1.054
-1.061
-1.209
-1.219
-1.226
-1.232
-1.237
-1.244
-1.378
-1.392
-1.401
-1.407
-1.412
-1.418
-1.534
-1.555
-1.565
-1.571
-1.576
-1.582
-1.674
-1.706
-1.720
-1.727
-1.730
-1.736
-1.802
-1.846
-1.866
-1.873
-1.876
-1.881
-1.973
-2.002
-2.011
-2.014
-2.017
-2.091
-2.128
-2.143
-2.146
-2.147
-2.204
-2.246
-2.267
-2.272
-2.273
-2.315
-2.358
-2.385
-2.394
-2.396
-2.420
-2.466
-2.496
-2.510
-2.514
-2.516
-2.570
-2.602
-2.621
-2.628
-2.605
-2.668
-2.705
-2.726
-2.737
-2.758
-2.801
-2.826
-2.840
-2.841
-2.892
-2.921
-2.937
-2.921
-2.975
-3.009
-3.029
-3.000
-3.053
-3.091
-3.115
-3.084
-3.129
-3.169
-3.195
-3.205
-3.243
-3.271
-3.282
-3.316
-3.344
-3.361
-3.390
-3.416
-3.443
-3.465
-3.488
-3.527
-3.542
-3.561
-3.611
-3.620
-3.635
-3.695
-3.700
-3.711
-3.777
-3.780
-3.787
-3.860
-3.865
-3.938
-3.942
-4.015
-4.019
-4.089
-4.094
-4.162
-4.167
-4.232
-4.239
-4.302
-4.309
-4.370
-4.377
-4.436
-4.444
-4.502
-4.509
-4.574
-4.735
-5.089
-5.446
-5.804
-6.165
-6.527
-6.890
-7.255
-7.621
-7.988
-8.356
-8.724
-9.094
-9.463
-9.834
-10.205
-10.576
-10.948
-11.320
-11.693
-12.066
-12.439
-12.812
-13.185
-13.559
-13.933
-14.306
-14.680
-15.055
-15.429
-15.803
-16.177
-16.552
-16.926
-17.301
-17.676
-18.050
-18.425
-18.800
