9.968
9.978
9.974
10.011
10.058
10.100
9.684
7.130
9.665
9.703
9.738
9.770
9.403
9.413
6.880
9.403
9.446
9.093
6.663
9.125
9.126
9.166
6.740
8.831
6.415
8.844
8.853
8.870
8.679
6.205
6.205
6.205
6.213
8.631
8.390
8.381
8.355
8.344
8.346
8.371
8.189
8.178
8.146
5.837
8.116
5.853
7.986
7.979
7.952
7.926
7.906
7.909
7.769
7.770
7.761
7.739
7.715
7.705
7.546
7.549
7.571
7.555
7.535
7.519
7.315
7.325
7.340
7.352
7.343
7.342
7.107
7.105
7.101
7.120
7.126
7.134
6.907
6.903
6.902
6.904
6.919
6.927
6.710
6.712
6.712
6.728
-23.669
6.533
6.534
6.530
6.524
6.536
6.407
6.381
6.371
6.344
6.339
6.357
6.291
6.251
6.217
6.196
6.184
6.195
6.145
6.082
6.057
6.041
6.025
6.104
6.053
5.970
5.927
5.904
5.897
6.011
5.965
5.873
5.823
5.782
5.767
5.734
5.684
5.652
5.599
5.569
5.517
5.488
5.442
5.408
5.369
5.327
5.295
5.246
5.220
3.182
3.191
3.198
3.203
3.206
3.206
3.202
3.192
3.177
3.158
3.148
2.929
2.940
2.949
2.957
2.964
2.969
2.972
2.973
2.971
2.968
2.962
2.693
2.704
2.714
2.723
2.731
2.738
2.744
2.748
2.751
2.752
2.755
2.486
2.494
2.502
2.511
2.518
2.525
2.530
2.534
2.538
2.541
2.544
2.300
2.305
2.311
2.318
2.324
2.330
2.334
2.337
2.340
2.341
2.343
2.120
2.121
2.123
2.126
2.130
2.134
2.138
2.141
2.144
2.146
2.148
1.956
1.955
1.955
1.957
1.959
1.961
1.963
1.965
1.967
1.970
1.972
1.807
1.804
1.804
1.805
1.807
1.808
1.809
1.809
1.809
1.810
1.811
1.662
1.659
1.657
1.657
1.657
1.658
1.659
1.660
1.659
1.658
1.658
1.523
1.518
1.515
1.513
1.513
1.513
1.514
1.514
1.514
1.513
1.512
1.388
1.382
1.378
1.376
1.375
1.375
1.374
1.374
1.374
1.374
1.373
1.248
1.244
1.242
1.241
1.240
1.239
1.238
1.238
1.238
1.237
1.117
1.113
1.111
1.110
1.109
1.109
1.108
1.107
1.107
1.106
0.990
0.985
0.984
0.983
0.983
0.983
0.983
0.982
0.982
0.981
0.865
0.862
0.860
0.860
0.861
0.862
0.862
0.862
0.862
0.862
0.745
0.741
0.740
0.740
0.741
0.743
0.745
0.746
0.746
0.746
0.633
0.624
0.623
0.624
0.625
0.628
0.631
0.632
0.633
0.634
0.512
0.510
0.511
0.513
0.516
0.519
0.521
0.523
0.524
0.407
0.401
0.402
0.404
0.407
0.410
0.413
0.416
0.418
0.309
0.297
0.297
0.299
0.302
0.305
0.309
0.312
0.314
0.198
0.196
0.198
0.201
0.204
0.207
0.210
0.213
0.101
0.098
0.100
0.103
0.106
0.109
0.112
0.114
0.006
0.002
0.004
0.007
0.011
0.014
0.017
0.019
-0.093
-0.092
-0.088
-0.083
-0.079
-0.075
-0.073
-0.185
-0.185
-0.182
-0.176
-0.171
-0.167
-0.164
-0.274
-0.276
-0.274
-0.269
-0.263
-0.258
-0.254
-0.359
-0.364
-0.363
-0.359
-0.354
-0.349
-0.343
-0.440
-0.448
-0.449
-0.447
-0.443
-0.437
-0.432
-0.519
-0.530
-0.533
-0.532
-0.529
-0.524
-0.519
-0.595
-0.609
-0.613
-0.614
-0.612
-0.608
-0.604
-0.670
-0.685
-0.691
-0.693
-0.692
-0.690
-0.686
-0.743
-0.759
-0.767
-0.771
-0.771
-0.769
-0.767
-0.816
-0.832
-0.841
-0.846
-0.847
-0.847
-0.844
-0.887
-0.903
-0.913
-0.919
-0.921
-0.922
-0.920
-0.973
-0.984
-0.990
-0.994
-0.995
-0.994
-1.043
-1.053
-1.060
-1.064
-1.066
-1.066
-1.111
-1.121
-1.128
-1.133
-1.136
-1.137
-1.178
-1.188
-1.195
-1.200
-1.204
-1.205
-1.244
-1.254
-1.261
-1.266
-1.270
-1.272
-1.481
-1.497
-1.507
-1.513
-1.519
-1.522
-1.526
-1.733
-1.743
-1.750
-1.755
-1.759
-1.762
-1.953
-1.964
-1.972
-1.977
-1.981
-1.984
-2.159
-2.172
-2.180
-2.186
-2.190
-2.193
-2.351
-2.366
-2.374
-2.379
-2.383
-2.387
-2.530
-2.550
-2.558
-2.562
-2.565
-2.568
-2.725
-2.734
-2.738
-2.739
-2.740
-2.887
-2.902
-2.906
-2.905
-2.905
-3.034
-3.059
-3.066
-3.066
-3.064
-3.170
-3.205
-3.218
-3.220
-3.217
-3.296
-3.342
-3.360
-3.365
-3.363
-3.415
-3.470
-3.493
-3.503
-3.503
-3.521
-3.591
-3.619
-3.631
-3.635
-3.705
-3.738
-3.754
-3.760
-3.808
-3.850
-3.869
-3.878
-3.904
-3.953
-3.977
-3.988
-3.996
-4.049
-4.078
-4.092
-4.087
-4.140
-4.172
-4.189
-4.229
-4.260
-4.280
-4.318
-4.347
-4.366
-4.405
-4.434
-4.452
-4.490
-4.519
-4.536
-4.575
-4.602
-4.619
-4.659
-4.684
-4.701
-4.744
-4.766
-4.781
-4.828
-4.848
-4.861
-4.931
-4.941
-5.012
-5.021
-5.093
-5.101
-5.172
-5.180
-5.249
-5.257
-5.324
-5.333
-5.398
-5.407
-5.471
-5.480
-5.543
-5.551
-5.613
-5.620
-5.689
-5.605
-5.980
-6.355
-6.729
-7.104
-7.479
-7.854
-8.229
-8.604
-8.979
-9.354
-9.728
-10.103
-10.478
-10.853
-11.228
-11.603
-11.978
-12.353
-12.728
-13.103
-13.478
-13.853
-14.228
-14.603
-14.978
-15.353
-15.728
-16.103
-16.478
-16.853
-17.228
-17.603
-17.978
-18.353
-18.728
-19.103
-19.478
-19.853
