-44.291
-43.832
-44.852
-44.035
-42.418
-40.437
-36.689
-36.871
-37.717
-36.907
-35.701
-33.961
-30.316
-30.249
-31.222
-29.726
-29.755
-27.221
-26.630
-26.402
-26.171
-25.763
-24.829
-24.230
-23.963
-23.781
-23.286
-22.701
-27.635
-21.451
-21.451
-21.451
-21.342
-20.067
-18.861
-18.895
-19.313
-19.267
-19.050
-21.684
-16.593
-16.624
-16.893
-17.164
-16.920
-16.925
-14.817
-14.759
-15.036
-15.158
-15.249
-15.230
-13.329
-13.289
-13.344
-13.426
-13.510
-13.571
-11.770
-11.386
-10.422
-11.542
-11.931
-12.095
-10.689
-10.468
-9.739
-9.706
-10.390
-10.499
-9.425
-9.680
-10.284
-9.615
-9.842
-9.878
-8.626
-8.782
-8.873
-9.092
-9.508
-9.310
-8.034
-8.168
-8.748
-9.048
-7.092
-7.301
-7.505
-7.660
-7.972
-8.081
-6.458
-6.665
-6.923
-7.160
-7.363
-7.439
-5.901
-6.083
-6.341
-6.785
-6.972
-5.453
-5.579
-5.826
-6.053
-6.302
-6.493
-5.067
-5.148
-5.365
-5.552
-5.800
-6.043
-4.748
-4.768
-4.942
-5.101
-5.327
-5.578
-4.671
-4.883
-4.307
-4.472
-3.982
-4.108
-3.688
-3.783
-3.424
-3.488
-3.190
-3.228
-2.982
-2.999
-3.735
-3.763
-3.773
-3.764
-3.721
-3.640
-3.519
-3.354
-3.160
-2.958
-2.791
-2.837
-2.834
-2.824
-2.803
-2.780
-2.752
-2.728
-2.695
-2.646
-2.565
-2.464
-2.266
-2.252
-2.239
-2.212
-2.186
-2.161
-2.148
-2.144
-2.144
-2.138
-2.109
-1.856
-1.840
-1.823
-1.799
-1.770
-1.747
-1.733
-1.735
-1.746
-1.763
-1.777
-1.546
-1.528
-1.513
-1.496
-1.470
-1.447
-1.431
-1.428
-1.438
-1.455
-1.480
-1.295
-1.276
-1.263
-1.250
-1.232
-1.211
-1.195
-1.186
-1.187
-1.198
-1.216
-1.077
-1.061
-1.049
-1.039
-1.028
-1.015
-1.002
-0.992
-0.988
-0.991
-1.000
-0.877
-0.868
-0.860
-0.855
-0.850
-0.844
-0.838
-0.833
-0.829
-0.828
-0.831
-0.691
-0.692
-0.691
-0.692
-0.692
-0.692
-0.693
-0.693
-0.694
-0.695
-0.697
-0.520
-0.532
-0.540
-0.546
-0.553
-0.559
-0.565
-0.571
-0.577
-0.581
-0.585
-0.364
-0.388
-0.404
-0.418
-0.431
-0.443
-0.454
-0.465
-0.475
-0.484
-0.491
-0.257
-0.283
-0.304
-0.323
-0.340
-0.357
-0.373
-0.388
-0.400
-0.411
-0.148
-0.173
-0.202
-0.227
-0.250
-0.272
-0.292
-0.312
-0.329
-0.344
-0.061
-0.082
-0.109
-0.142
-0.170
-0.197
-0.222
-0.246
-0.268
-0.287
0.005
-0.010
-0.033
-0.063
-0.099
-0.131
-0.161
-0.190
-0.216
-0.239
0.045
0.044
0.025
0.000
-0.034
-0.073
-0.109
-0.141
-0.172
-0.200
0.034
0.079
0.068
0.046
0.018
-0.021
-0.063
-0.100
-0.136
-0.168
0.090
0.094
0.077
0.052
0.021
-0.022
-0.066
-0.105
-0.142
0.070
0.102
0.094
0.072
0.044
0.009
-0.036
-0.081
-0.121
0.019
0.092
0.096
0.080
0.055
0.024
-0.014
-0.061
-0.105
0.064
0.084
0.076
0.055
0.028
-0.006
-0.048
-0.095
0.024
0.059
0.059
0.044
0.020
-0.010
-0.046
-0.090
-0.021
0.026
0.033
0.022
0.003
-0.023
-0.055
-0.094
-0.013
-0.000
-0.007
-0.023
-0.046
-0.074
-0.108
-0.054
-0.037
-0.041
-0.055
-0.076
-0.101
-0.132
-0.096
-0.076
-0.078
-0.090
-0.110
-0.134
-0.161
-0.139
-0.117
-0.117
-0.128
-0.146
-0.169
-0.195
-0.183
-0.159
-0.157
-0.167
-0.185
-0.207
-0.232
-0.228
-0.201
-0.199
-0.208
-0.225
-0.246
-0.271
-0.273
-0.244
-0.241
-0.249
-0.265
-0.286
-0.311
-0.318
-0.288
-0.283
-0.291
-0.306
-0.327
-0.351
-0.363
-0.331
-0.326
-0.333
-0.348
-0.368
-0.391
-0.409
-0.375
-0.368
-0.375
-0.389
-0.409
-0.432
-0.454
-0.419
-0.411
-0.417
-0.431
-0.450
-0.473
-0.463
-0.454
-0.459
-0.473
-0.492
-0.514
-0.506
-0.497
-0.502
-0.514
-0.533
-0.555
-0.549
-0.540
-0.544
-0.556
-0.574
-0.596
-0.592
-0.582
-0.585
-0.597
-0.614
-0.636
-0.635
-0.624
-0.627
-0.638
-0.655
-0.677
-0.842
-0.800
-0.789
-0.790
-0.798
-0.814
-0.835
-0.955
-0.945
-0.946
-0.952
-0.966
-0.987
-1.101
-1.094
-1.095
-1.100
-1.112
-1.132
-1.237
-1.234
-1.236
-1.240
-1.249
-1.269
-1.365
-1.365
-1.370
-1.374
-1.381
-1.399
-1.488
-1.487
-1.497
-1.502
-1.507
-1.523
-1.602
-1.617
-1.625
-1.630
-1.641
-1.711
-1.730
-1.742
-1.748
-1.757
-1.815
-1.837
-1.854
-1.863
-1.871
-1.914
-1.939
-1.961
-1.973
-1.982
-2.008
-2.035
-2.061
-2.078
-2.089
-2.097
-2.126
-2.157
-2.177
-2.191
-2.187
-2.210
-2.246
-2.271
-2.288
-2.288
-2.330
-2.359
-2.380
-2.363
-2.406
-2.441
-2.465
-2.437
-2.478
-2.517
-2.545
-2.516
-2.547
-2.587
-2.618
-2.600
-2.616
-2.654
-2.687
-2.687
-2.720
-2.753
-2.762
-2.787
-2.817
-2.839
-2.856
-2.883
-2.919
-2.928
-2.949
-2.999
-3.002
-3.018
-3.080
-3.077
-3.089
-3.161
-3.154
-3.161
-3.239
-3.230
-3.235
-3.306
-3.309
-3.380
-3.382
-3.453
-3.455
-3.524
-3.526
-3.594
-3.596
-3.662
-3.664
-3.728
-3.731
-3.794
-3.797
-3.858
-3.861
-3.922
-3.924
-3.986
-4.194
-4.531
-4.873
-5.219
-5.568
-5.920
-6.275
-6.632
-6.991
-7.352
-7.715
-8.078
-8.444
-8.810
-9.177
-9.545
-9.914
-10.283
-10.653
-11.024
-11.395
-11.767
-12.138
-12.511
-12.883
-13.256
-13.629
-14.002
-14.376
-14.750
-15.123
-15.497
-15.871
-16.245
-16.620
-16.994
-17.368
-17.743
-18.117
