0.45710000000000001
0.42170000000000002
0.438
0.51590000000000003
0.54569999999999996
0.54669999999999996
0.51129999999999998
0.49730000000000002
0.41699999999999998
0.39829999999999999
0.33760000000000001
0.48099999999999998
0.42949999999999999
0.43669999999999998
0.51039999999999996
0.54630000000000001
0.53939999999999999
0.50600000000000001
0.46260000000000001
0.44169999999999998
0.4037
0.34320000000000001
0.30059999999999998
0.26679999999999998
0.2344
0.21199999999999999
0.14349999999999999
0.14779999999999999
0.51060000000000005
0.44340000000000002
0.43880000000000002
0.51170000000000004
0.54239999999999999
0.53039999999999998
0.502
0.45860000000000001
0.41489999999999999
0.40389999999999998
0.36609999999999998
0.30280000000000001
0.26819999999999999
0.2351
0.21079999999999999
0.1424
0.14649999999999999
0.49220000000000003
0.62639999999999996
0.55449999999999999
0.48399999999999999
0.5323
0.44890000000000002
0.44350000000000001
0.51060000000000005
0.53100000000000003
0.52439999999999998
0.49859999999999999
0.4572
0.41589999999999999
0.37940000000000002
0.3649
0.32450000000000001
0.27039999999999997
0.23599999999999999
0.21249999999999999
0.14360000000000001
0.14810000000000001
0.49370000000000003
0.64970000000000006
0.61809999999999998
0.59570000000000001
0.56499999999999995
0.54090000000000005
0.54679999999999995
0.4577
0.45000000000000001
0.50329999999999997
0.5282
0.52310000000000001
0.49840000000000001
0.45689999999999997
0.4153
0.378
0.33900000000000002
0.32300000000000001
0.28960000000000002
0.23719999999999999
0.2135
0.1429
0.14849999999999999
0.49769999999999998
0.65269999999999995
0.61919999999999997
0.59430000000000005
0.57599999999999996
0.55940000000000001
0.54079999999999995
0.52710000000000001
0.51539999999999997
0.49859999999999999
0.45129999999999998
0.39439999999999997
0.59299999999999997
0.46539999999999998
0.45479999999999998
0.50509999999999999
0.5272
0.52159999999999995
0.4965
0.45469999999999999
0.41320000000000001
0.37530000000000002
0.33879999999999999
0.30080000000000001
0.28739999999999999
0.25419999999999998
0.21340000000000001
0.14249999999999999
0.14879999999999999
0.50519999999999998
0.66120000000000001
0.62350000000000005
0.59370000000000001
0.57199999999999995
0.55430000000000001
0.53839999999999999
0.52390000000000003
0.51180000000000003
0.49590000000000001
0.48070000000000002
0.45989999999999998
0.442
0.42830000000000001
0.41799999999999998
0.41039999999999999
0.40889999999999999
0.40689999999999998
0.40989999999999999
0.41599999999999998
0.42320000000000002
0.43020000000000003
0.57240000000000002
0.44690000000000002
0.46000000000000002
0.50829999999999997
0.52729999999999999
0.52110000000000001
0.49580000000000002
0.45500000000000002
0.41210000000000002
0.37280000000000002
0.33639999999999998
0.29909999999999998
0.26790000000000003
0.25140000000000001
0.22839999999999999
0.14169999999999999
0.1489
0.51600000000000001
0.6764
0.63380000000000003
0.59899999999999998
0.57230000000000003
0.54969999999999997
0.53149999999999997
0.51729999999999998
0.50509999999999999
0.4894
0.47489999999999999
0.45650000000000002
0.43930000000000002
0.42449999999999999
0.41239999999999999
0.40089999999999998
0.39450000000000002
0.39050000000000001
0.3911
0.39460000000000001
0.39989999999999998
0.40649999999999997
0.41299999999999998
0.41699999999999998
0.4199
0.4254
0.44180000000000003
0.46450000000000002
0.48509999999999998
0.45250000000000001
0.4168
0.45319999999999999
0.51370000000000005
0.52890000000000004
0.52180000000000004
0.496
0.45440000000000003
0.41060000000000002
0.371
0.3337
0.29630000000000001
0.2651
0.2349
0.22539999999999999
0.14810000000000001
0.1384
0.5272
0.69469999999999998
0.65210000000000001
0.61280000000000001
0.57909999999999995
0.55120000000000002
0.52859999999999996
0.51170000000000004
0.49859999999999999
0.48259999999999997
0.46889999999999998
0.45250000000000001
0.43659999999999999
0.42220000000000002
0.40999999999999998
0.39679999999999999
0.38850000000000001
0.38179999999999997
0.37969999999999998
0.38150000000000001
0.38529999999999998
0.39040000000000002
0.39650000000000002
0.40229999999999999
0.40720000000000001
0.41060000000000002
0.41360000000000002
0.41899999999999998
0.43149999999999999
0.46050000000000002
0.47270000000000001
0.4652
0.4395
0.40770000000000001
0.39550000000000002
0.39450000000000002
0.435
0.51910000000000001
0.53259999999999996
0.52349999999999997
0.497
0.45490000000000003
0.40989999999999999
0.36849999999999999
0.32979999999999998
0.2923
0.26169999999999999
0.23219999999999999
0.2112
0.13070000000000001
0.15590000000000001
0.58689999999999998
0.71640000000000004
0.67290000000000005
0.63219999999999998
0.59489999999999998
0.55969999999999998
0.5323
0.51100000000000001
0.496
0.47799999999999998
0.46329999999999999
0.44769999999999999
0.4335
0.4204
0.4093
0.39589999999999997
0.38650000000000001
0.37790000000000001
0.37380000000000002
0.37359999999999999
0.376
0.38019999999999998
0.38579999999999998
0.39169999999999999
0.39850000000000002
0.40460000000000002
0.40989999999999999
0.41470000000000001
0.4214
0.43259999999999998
0.4491
0.4667
0.47470000000000001
0.47170000000000001
0.4481
0.41520000000000001
0.38140000000000002
0.34799999999999998
0.3785
0.3705
0.42349999999999999
0.51670000000000005
0.54239999999999999
0.52559999999999996
0.49830000000000002
0.45540000000000003
0.40870000000000001
0.36620000000000003
0.32679999999999998
0.2888
0.2581
0.22889999999999999
0.20860000000000001
0.14050000000000001
0.14940000000000001
0.5867
0.79849999999999999
0.69769999999999999
0.65290000000000004
0.61240000000000006
0.57550000000000001
0.54290000000000005
0.51829999999999998
0.49880000000000002
0.47620000000000001
0.46029999999999999
0.44340000000000002
0.42980000000000002
0.41810000000000003
0.4083
0.39589999999999997
0.38669999999999999
0.37690000000000001
0.37109999999999999
0.36940000000000001
0.37040000000000001
0.37369999999999998
0.3785
0.38419999999999999
0.3906
0.3982
0.40629999999999999
0.41349999999999998
0.42009999999999997
0.42809999999999998
0.44090000000000001
0.45619999999999999
0.47039999999999998
0.4783
0.47810000000000002
0.46410000000000001
0.43740000000000001
0.3795
0.33150000000000002
0.2581
0.36380000000000001
0.35360000000000003
0.4158
0.50480000000000003
0.55359999999999998
0.53700000000000003
0.50060000000000004
0.45650000000000002
0.4093
0.36599999999999999
0.32429999999999998
0.28589999999999999
0.25469999999999998
0.22559999999999999
0.20610000000000001
0.13869999999999999
0.14760000000000001
0.54910000000000003
0.77710000000000001
0.77880000000000005
0.68759999999999999
0.63339999999999996
0.5827
0.5605
0.53010000000000002
0.50600000000000001
0.48099999999999998
0.46300000000000002
0.44209999999999999
0.42720000000000002
0.41560000000000002
0.40649999999999997
0.39600000000000002
0.3876
0.378
0.3715
0.36830000000000002
0.36809999999999998
0.37030000000000002
0.37469999999999998
0.37990000000000002
0.38629999999999998
0.39439999999999997
0.40250000000000002
0.4118
0.42059999999999997
0.43059999999999998
0.44190000000000002
0.45440000000000003
0.46870000000000001
0.47899999999999998
0.48230000000000001
0.47789999999999999
0.46350000000000002
0.41560000000000002
0.3679
0.3024
0.26700000000000002
0.25640000000000002
0.25590000000000002
0.25640000000000002
