0.35260000000000002
0.35449999999999998
0.35589999999999999
0.3574
0.3599
0.36449999999999999
0.36890000000000001
0.37809999999999999
0.36880000000000002
0.33989999999999998
0.31919999999999998
0.37040000000000001
0.37209999999999999
0.3745
0.376
0.37730000000000002
0.37769999999999998
0.37809999999999999
0.37880000000000003
0.37840000000000001
0.36470000000000002
0.3367
0.38229999999999997
0.38529999999999998
0.38779999999999998
0.39000000000000001
0.39090000000000003
0.39079999999999998
0.39029999999999998
0.38969999999999999
0.38819999999999999
0.38030000000000003
0.36030000000000001
0.38969999999999999
0.3916
0.39319999999999999
0.39419999999999999
0.3957
0.39510000000000001
0.39479999999999998
0.39360000000000001
0.39329999999999998
0.39040000000000002
0.37790000000000001
0.39760000000000001
0.39529999999999998
0.39369999999999999
0.39300000000000002
0.39290000000000003
0.39169999999999999
0.39100000000000001
0.38919999999999999
0.38869999999999999
0.38969999999999999
0.38800000000000001
0.39989999999999998
0.3967
0.3916
0.38900000000000001
0.38690000000000002
0.38500000000000001
0.38340000000000002
0.38109999999999999
0.38030000000000003
0.38069999999999998
0.38319999999999999
0.39510000000000001
0.38950000000000001
0.38529999999999998
0.38140000000000002
0.37890000000000001
0.37640000000000001
0.37480000000000002
0.373
0.37090000000000001
0.37059999999999998
0.37309999999999999
0.37490000000000001
0.37230000000000002
0.36969999999999997
0.36840000000000001
0.3674
0.36659999999999998
0.3654
0.36309999999999998
0.3614
0.36130000000000001
0.36270000000000002
0.34329999999999999
0.34899999999999998
0.34970000000000001
0.35039999999999999
0.35299999999999998
0.35399999999999998
0.35439999999999999
0.3538
0.35270000000000001
0.35160000000000002
0.35210000000000002
0.33639999999999998
0.31940000000000002
0.32690000000000002
0.33169999999999999
0.33429999999999999
0.33789999999999998
0.34060000000000001
0.34389999999999998
0.34300000000000003
0.3422
0.3427
0.33339999999999997
0.31419999999999998
0.29859999999999998
0.31
0.318
0.3226
0.32740000000000002
0.33100000000000002
0.33189999999999997
0.33360000000000001
0.3332
0.3105
0.29399999999999998
0.28310000000000002
0.29770000000000002
0.30940000000000001
0.31480000000000002
0.31840000000000002
0.32200000000000001
0.32140000000000002
0.32279999999999998
0.3075
0.28960000000000002
0.27779999999999999
0.27210000000000001
0.29459999999999997
0.30170000000000002
0.3049
0.31040000000000001
0.31109999999999999
0.31230000000000002
0.31080000000000002
0.28249999999999997
0.27129999999999999
0.26579999999999998
0.26939999999999997
0.2898
0.29520000000000002
0.29749999999999999
0.30059999999999998
0.3029
0.3175
0.28310000000000002
0.26219999999999999
0.25740000000000002
0.25840000000000002
0.27189999999999998
0.28260000000000002
0.28720000000000001
0.2898
0.29270000000000002
0.2863
0.26000000000000001
0.24579999999999999
0.2457
0.25480000000000003
0.26929999999999998
0.2762
0.27889999999999998
0.28179999999999999
0.29099999999999998
0.2596
0.2414
0.23219999999999999
0.2364
0.25159999999999999
0.26540000000000002
0.26950000000000002
0.27150000000000002
0.2949
0.26190000000000002
0.23899999999999999
0.22700000000000001
0.2208
0.2283
0.2487
0.25779999999999997
0.26150000000000001
0.29680000000000001
0.26269999999999999
0.23799999999999999
0.22309999999999999
0.21540000000000001
0.2122
0.22270000000000001
0.2422
0.2505
0.30099999999999999
0.2631
0.2359
0.219
0.2097
0.20519999999999999
0.2034
0.21709999999999999
0.23719999999999999
0.26519999999999999
0.2336
0.21410000000000001
0.20349999999999999
0.19819999999999999
0.1961
0.1958
0.21360000000000001
0.27139999999999997
0.23319999999999999
0.2097
0.19670000000000001
0.19070000000000001
0.18859999999999999
0.18809999999999999
0.19009999999999999
0.28210000000000002
0.2359
0.20780000000000001
0.19159999999999999
0.1837
0.1802
0.1797
0.18079999999999999
0.2409
0.2082
0.1888
0.1779
0.17299999999999999
0.1716
0.17269999999999999
0.24829999999999999
0.2099
0.18770000000000001
0.17469999999999999
0.16800000000000001
0.16539999999999999
0.1653
0.25580000000000003
0.2135
0.188
0.17299999999999999
0.16489999999999999
0.16070000000000001
0.15909999999999999
0.26250000000000001
0.21740000000000001
0.18909999999999999
0.1724
0.1628
0.1575
0.15490000000000001
0.27279999999999999
0.22420000000000001
0.19239999999999999
0.1726
0.16039999999999999
0.1535
0.14990000000000001
0.22770000000000001
0.19450000000000001
0.17280000000000001
0.15920000000000001
0.15110000000000001
0.14680000000000001
0.2291
0.19470000000000001
0.17249999999999999
0.15840000000000001
0.14949999999999999
0.14430000000000001
0.23019999999999999
0.19339999999999999
0.1709
0.15690000000000001
0.14810000000000001
0.1424
0.2319
0.19239999999999999
0.16869999999999999
0.1545
0.14599999999999999
0.14050000000000001
0.23449999999999999
0.19239999999999999
0.1671
0.15210000000000001
0.1434
0.13800000000000001
0.2399
0.19350000000000001
0.16550000000000001
0.1489
0.13919999999999999
0.13339999999999999
0.2472
0.19570000000000001
0.1648
0.14630000000000001
0.13589999999999999
0.13
0.25569999999999998
0.19950000000000001
0.16520000000000001
0.1452
0.1338
0.1275
0.26619999999999999
0.20449999999999999
0.16719999999999999
0.14499999999999999
0.1326
0.1258
0.2114
0.16969999999999999
0.1462
0.13200000000000001
0.12470000000000001
0.22040000000000001
0.17430000000000001
0.14779999999999999
0.1326
0.1245
0.2319
0.18029999999999999
0.15179999999999999
0.13469999999999999
0.12540000000000001
0.2465
0.1883
0.15629999999999999
0.1376
0.1273
0.2616
0.1973
0.16209999999999999
0.14169999999999999
0.1303
0.27450000000000002
0.20549999999999999
0.16789999999999999
0.1462
0.1336
0.28660000000000002
0.2122
0.1736
0.15110000000000001
0.1376
0.21709999999999999
0.17680000000000001
0.15440000000000001
0.14099999999999999
0.22109999999999999
0.1794
0.15640000000000001
0.1429
0.2253
0.1807
0.157
0.1434
0.23039999999999999
0.18179999999999999
0.15670000000000001
0.1426
0.23699999999999999
0.18279999999999999
0.15629999999999999
0.14169999999999999
0.1847
0.15590000000000001
0.1404
0.18709999999999999
0.15559999999999999
0.13919999999999999
0.19070000000000001
0.1555
0.13739999999999999
0.1961
0.15620000000000001
0.1361
0.1578
0.1351
0.16009999999999999
0.13519999999999999
0.16600000000000001
0.13789999999999999
0.1396
0.1411
0.14380000000000001
