0.72709999999999997
0.95609999999999995
1.2811999999999999
1.6007
1.6943999999999999
1.6388
1.5117
1.3481000000000001
1.1287
0.95960000000000001
0.77900000000000003
0.71479999999999999
0.91690000000000005
1.2091000000000001
1.4964999999999999
1.5882000000000001
1.5526
1.4320999999999999
1.2581
1.0822000000000001
0.90190000000000003
0.74350000000000005
0.61850000000000005
0.50439999999999996
0.4214
0.35289999999999999
0.2112
0.23200000000000001
0.68440000000000001
0.86739999999999995
1.1355999999999999
1.4034
1.4917
1.4719
1.3648
1.2008000000000001
1.0198
0.86360000000000003
0.71640000000000004
0.57920000000000005
0.49349999999999999
0.41299999999999998
0.35220000000000001
0.22270000000000001
0.24229999999999999
0.88729999999999998
1.1786000000000001
1.0996999999999999
0.64080000000000004
0.80759999999999998
1.0590999999999999
1.3213999999999999
1.4029
1.3929
1.3066
1.1563000000000001
0.9849
0.8216
0.68520000000000003
0.56640000000000001
0.47010000000000002
0.39639999999999997
0.34160000000000001
0.2142
0.22470000000000001
0.91490000000000005
1.2522
1.1782999999999999
1.0691999999999999
0.99209999999999998
0.58699999999999997
0.74199999999999999
0.98470000000000002
1.2504
1.3308
1.3260000000000001
1.2576000000000001
1.1212
0.95679999999999998
0.80020000000000002
0.66200000000000003
0.54749999999999999
0.46050000000000002
0.37919999999999998
0.33200000000000002
0.21240000000000001
0.21679999999999999
0.88249999999999995
1.2438
1.198
1.1472
1.0821000000000001
1.0257000000000001
0.9778
0.93999999999999995
0.90629999999999999
0.87670000000000003
0.8488
0.82250000000000001
0.79710000000000003
0.77200000000000002
0.74970000000000003
0.73050000000000004
0.68440000000000001
0.63190000000000002
0.54000000000000004
0.68059999999999998
0.91449999999999998
1.1894
1.2764
1.2688999999999999
1.2132000000000001
1.0911
0.93779999999999997
0.78869999999999996
0.65169999999999995
0.53369999999999995
0.4476
0.3765
0.3241
0.20849999999999999
0.21479999999999999
0.83919999999999995
1.1865000000000001
1.1722999999999999
1.1540999999999999
1.1071
1.0454000000000001
1.0
0.96009999999999995
0.92020000000000002
0.88629999999999998
0.85799999999999998
0.83360000000000001
0.81020000000000003
0.78639999999999999
0.76339999999999997
0.74080000000000001
0.71960000000000002
0.7006
0.68520000000000003
0.67179999999999995
0.66159999999999997
0.64410000000000001
0.63280000000000003
0.62219999999999998
0.61829999999999996
0.61709999999999998
0.61580000000000001
0.61439999999999995
0.52669999999999995
0.62549999999999994
0.8498
1.1356999999999999
1.2357
1.2272000000000001
1.1778
1.0697000000000001
0.92710000000000004
0.78129999999999999
0.64590000000000003
0.52880000000000005
0.44409999999999999
0.37219999999999998
0.32079999999999997
0.20979999999999999
0.2142
0.78080000000000005
1.1068
1.1228
1.1266
1.0898000000000001
1.0472999999999999
1.0163
0.97989999999999999
0.93920000000000003
0.90359999999999996
0.87309999999999999
0.8468
0.82330000000000003
0.80089999999999995
0.77849999999999997
0.75660000000000005
0.73570000000000002
0.7157
0.69750000000000001
0.68069999999999997
0.66690000000000005
0.64019999999999999
0.62460000000000004
0.60570000000000002
0.59660000000000002
0.59309999999999996
0.59230000000000005
0.5927
0.59330000000000005
0.58660000000000001
0.57669999999999999
0.57350000000000001
0.58360000000000001
0.59040000000000004
0.59089999999999998
0.48130000000000001
0.57769999999999999
0.7944
1.0869
1.2079
1.2020999999999999
1.1513
1.0532999999999999
0.91990000000000005
0.7782
0.64690000000000003
0.53100000000000003
0.44359999999999999
0.37030000000000002
0.32029999999999997
0.21429999999999999
0.21659999999999999
0.71140000000000003
1.0082
1.0549999999999999
1.0656000000000001
1.0479000000000001
1.0294000000000001
1.0096000000000001
0.97989999999999999
0.94940000000000002
0.92130000000000001
0.89419999999999999
0.86599999999999999
0.84089999999999998
0.81840000000000002
0.79690000000000005
0.77549999999999997
0.75470000000000004
0.7349
0.71579999999999999
0.69830000000000003
0.68279999999999996
0.64990000000000003
0.63019999999999998
0.6038
0.58940000000000003
0.58309999999999995
0.58089999999999997
0.58040000000000003
0.58130000000000004
0.58150000000000002
0.5786
0.57199999999999995
0.56469999999999998
0.56469999999999998
0.57720000000000005
0.59889999999999999
0.59689999999999999
0.57010000000000005
0.52039999999999997
0.46429999999999999
0.41959999999999997
0.54830000000000001
0.74219999999999997
1.0414000000000001
1.1876
1.1882999999999999
1.1363000000000001
1.0436000000000001
0.91820000000000002
0.78349999999999997
0.65359999999999996
0.53469999999999995
0.4451
0.37080000000000002
0.32069999999999999
0.21740000000000001
0.22140000000000001
0.69589999999999996
0.91920000000000002
0.93610000000000004
0.98089999999999999
0.99690000000000001
0.99280000000000002
0.97340000000000004
0.95450000000000002
0.93789999999999996
0.92669999999999997
0.91049999999999998
0.88229999999999997
0.85840000000000005
0.83720000000000006
0.81620000000000004
0.79490000000000005
0.77449999999999997
0.75580000000000003
0.73780000000000001
0.72040000000000004
0.7036
0.66710000000000003
0.64400000000000002
0.61119999999999997
0.59130000000000005
0.58099999999999996
0.57669999999999999
0.57520000000000004
0.57550000000000001
0.57689999999999997
0.5786
0.57869999999999999
0.5756
0.57169999999999999
0.57250000000000001
0.58099999999999996
0.59619999999999995
0.60829999999999995
0.60440000000000005
0.58599999999999997
0.53990000000000005
0.4914
0.44479999999999997
0.40360000000000001
0.371
0.34899999999999998
0.33660000000000001
0.3271
0.43530000000000002
0.53839999999999999
0.70250000000000001
0.99309999999999998
1.1674
1.1832
1.1323000000000001
1.0409999999999999
0.92220000000000002
0.79139999999999999
0.66049999999999998
0.54159999999999997
0.45190000000000002
0.37540000000000001
0.32329999999999998
0.22070000000000001
0.22600000000000001
0.70840000000000003
0.9163
0.85640000000000005
0.85650000000000004
0.91120000000000001
0.93410000000000004
0.92259999999999998
0.91159999999999997
0.90839999999999999
0.91190000000000004
0.90269999999999995
0.88170000000000004
0.86719999999999997
0.85240000000000005
0.83440000000000003
0.81389999999999996
0.79430000000000001
0.77539999999999998
0.75739999999999996
0.74129999999999996
0.72509999999999997
0.68830000000000002
0.66279999999999994
0.62519999999999998
0.5998
0.58499999999999996
0.57740000000000002
0.5746
0.57469999999999999
0.57509999999999994
0.57669999999999999
0.58040000000000003
0.58350000000000002
0.58420000000000005
0.58330000000000004
0.58560000000000001
0.59470000000000001
0.60760000000000003
0.61670000000000003
0.61419999999999997
0.60099999999999998
0.57110000000000005
0.52710000000000001
0.4834
0.44019999999999998
0.40000000000000002
0.36749999999999999
0.34489999999999998
0.33110000000000001
0.32379999999999998
0.31950000000000001
0.31659999999999999
0.31430000000000002
0.31180000000000002
0.30859999999999999
0.30549999999999999
0.30220000000000002
0.29830000000000001
0.45860000000000001
0.54569999999999996
0.71330000000000005
0.92989999999999995
1.1057999999999999
1.1756
1.1321000000000001
1.0405
0.92610000000000003
0.80089999999999995
0.67420000000000002
0.55620000000000003
0.46439999999999998
0.38529999999999998
0.3306
0.22570000000000001
0.22919999999999999
0.70650000000000002
0.93610000000000004
0.90129999999999999
0.84930000000000005
0.77610000000000001
0.80020000000000002
0.87809999999999999
0.87170000000000003
0.86899999999999999
0.86709999999999998
0.86370000000000002
0.85750000000000004
0.85509999999999997
0.85099999999999998
0.8397
0.82320000000000004
0.80769999999999997
0.79169999999999996
0.77410000000000001
0.75829999999999997
0.74199999999999999
0.70720000000000005
0.68200000000000005
0.64329999999999998
0.61380000000000001
0.59430000000000005
0.58350000000000002
0.57850000000000001
0.57720000000000005
0.57699999999999996
0.57879999999999998
0.58320000000000005
0.58799999999999997
0.59279999999999999
0.59630000000000005
0.60040000000000004
0.60619999999999996
0.61460000000000004
0.62329999999999997
0.62629999999999997
0.62019999999999997
0.60260000000000002
0.57199999999999995
0.53139999999999998
0.49149999999999999
0.45029999999999998
0.41010000000000002
0.37569999999999998
0.3498
0.33100000000000002
0.31869999999999998
0.31119999999999998
0.30630000000000002
0.30280000000000001
0.30020000000000002
0.29759999999999998
0.29480000000000001
0.29210000000000003
0.30030000000000001
