-29.786
-29.517
-29.781
-29.118
-27.926
-26.659
-25.206
-25.340
-25.619
-24.966
-24.108
-23.061
-21.047
-20.952
-21.589
-20.394
-20.413
-18.458
-17.914
-17.678
-17.441
-17.057
-16.202
-15.750
-15.503
-15.315
-14.835
-14.279
-18.871
-13.282
-13.282
-13.282
-13.130
-11.969
-11.110
-11.142
-11.462
-11.400
-11.176
-13.532
-9.329
-9.352
-9.527
-9.722
-9.467
-9.469
-7.962
-7.944
-8.117
-8.193
-8.237
-8.203
-6.737
-6.770
-6.830
-6.904
-6.955
-6.988
-5.686
-5.307
-4.662
-5.399
-5.733
-5.914
-5.119
-4.906
-4.350
-4.302
-4.666
-4.707
-4.592
-4.577
-4.812
-4.310
-4.420
-4.408
-4.387
-4.222
-4.086
-4.071
-4.269
-4.107
-3.952
-3.596
-3.813
-3.945
-3.760
-3.640
-3.545
-3.381
-3.381
-3.296
-3.368
-3.280
-3.248
-3.135
-3.045
-2.901
-2.941
-2.887
-2.898
-2.715
-2.615
-2.538
-2.491
-2.544
-2.484
-2.414
-2.312
-2.193
-2.137
-2.199
-2.140
-2.087
-2.025
-1.927
-1.835
-1.882
-1.824
-1.775
-1.720
-0.566
-0.448
-0.457
-0.358
-0.359
-0.276
-0.279
-0.207
-0.211
-0.149
-0.151
-0.098
-0.096
-0.053
-0.475
-0.351
-0.244
-0.155
-0.096
-0.059
-0.036
-0.021
-0.007
0.012
0.046
-0.269
-0.215
-0.165
-0.111
-0.057
-0.011
0.027
0.048
0.068
0.086
0.108
-0.039
-0.012
0.003
0.012
0.024
0.046
0.078
0.114
0.141
0.159
0.177
0.137
0.149
0.153
0.153
0.151
0.154
0.164
0.183
0.206
0.225
0.240
0.262
0.262
0.258
0.253
0.248
0.247
0.250
0.259
0.273
0.289
0.304
0.343
0.333
0.322
0.313
0.306
0.303
0.304
0.310
0.320
0.332
0.345
0.389
0.374
0.360
0.347
0.337
0.331
0.331
0.336
0.346
0.357
0.368
0.412
0.396
0.380
0.365
0.351
0.342
0.337
0.340
0.348
0.360
0.372
0.419
0.403
0.388
0.372
0.357
0.344
0.335
0.332
0.336
0.347
0.359
0.414
0.401
0.387
0.372
0.357
0.342
0.329
0.321
0.319
0.325
0.336
0.398
0.391
0.380
0.367
0.352
0.336
0.321
0.308
0.301
0.302
0.309
0.372
0.366
0.356
0.343
0.327
0.310
0.295
0.283
0.277
0.279
0.344
0.346
0.340
0.329
0.314
0.297
0.280
0.265
0.254
0.250
0.316
0.317
0.318
0.311
0.298
0.281
0.263
0.245
0.231
0.221
0.289
0.287
0.287
0.286
0.277
0.262
0.244
0.224
0.207
0.193
0.263
0.258
0.256
0.254
0.251
0.239
0.221
0.201
0.181
0.164
0.244
0.228
0.225
0.221
0.217
0.210
0.195
0.176
0.155
0.134
0.197
0.191
0.187
0.181
0.174
0.165
0.147
0.126
0.103
0.166
0.154
0.149
0.143
0.135
0.127
0.114
0.094
0.070
0.129
0.115
0.109
0.103
0.094
0.083
0.073
0.058
0.035
0.073
0.066
0.060
0.051
0.039
0.026
0.015
-0.004
0.024
0.019
0.013
0.005
-0.007
-0.021
-0.035
-0.048
-0.029
-0.031
-0.036
-0.044
-0.055
-0.070
-0.087
-0.099
-0.084
-0.088
-0.095
-0.105
-0.120
-0.138
-0.155
-0.138
-0.142
-0.147
-0.157
-0.171
-0.189
-0.209
-0.193
-0.196
-0.202
-0.210
-0.223
-0.241
-0.262
-0.248
-0.251
-0.256
-0.264
-0.277
-0.294
-0.314
-0.303
-0.306
-0.311
-0.319
-0.330
-0.346
-0.367
-0.358
-0.361
-0.366
-0.373
-0.384
-0.400
-0.420
-0.412
-0.415
-0.421
-0.428
-0.438
-0.453
-0.473
-0.465
-0.469
-0.475
-0.482
-0.492
-0.506
-0.525
-0.518
-0.522
-0.529
-0.536
-0.545
-0.558
-0.577
-0.570
-0.575
-0.582
-0.589
-0.598
-0.611
-0.629
-0.622
-0.627
-0.634
-0.642
-0.651
-0.663
-0.680
-0.678
-0.686
-0.694
-0.703
-0.714
-0.730
-0.729
-0.737
-0.745
-0.754
-0.765
-0.781
-0.779
-0.788
-0.796
-0.805
-0.816
-0.831
-0.829
-0.838
-0.846
-0.855
-0.866
-0.880
-0.877
-0.887
-0.896
-0.905
-0.915
-0.929
-1.057
-1.065
-1.077
-1.087
-1.096
-1.107
-1.119
-1.241
-1.255
-1.267
-1.277
-1.287
-1.299
-1.405
-1.422
-1.436
-1.448
-1.458
-1.469
-1.558
-1.578
-1.595
-1.608
-1.619
-1.630
-1.702
-1.724
-1.744
-1.758
-1.770
-1.782
-1.837
-1.862
-1.884
-1.900
-1.913
-1.925
-1.992
-2.016
-2.034
-2.048
-2.060
-2.114
-2.140
-2.160
-2.175
-2.187
-2.229
-2.259
-2.280
-2.295
-2.308
-2.336
-2.370
-2.393
-2.410
-2.423
-2.433
-2.475
-2.501
-2.519
-2.533
-2.518
-2.573
-2.603
-2.622
-2.637
-2.586
-2.663
-2.698
-2.720
-2.735
-2.744
-2.787
-2.811
-2.828
-2.813
-2.868
-2.897
-2.915
-2.873
-2.940
-2.975
-2.995
-2.930
-3.005
-3.046
-3.070
-2.990
-3.064
-3.111
-3.138
-3.121
-3.171
-3.201
-3.180
-3.227
-3.260
-3.243
-3.285
-3.317
-3.311
-3.345
-3.375
-3.383
-3.408
-3.434
-3.461
-3.476
-3.496
-3.542
-3.547
-3.562
-3.624
-3.622
-3.631
-3.700
-3.703
-3.779
-3.777
-3.857
-3.853
-3.935
-3.930
-4.011
-4.006
-4.086
-4.081
-4.159
-4.155
-4.231
-4.227
-4.301
-4.298
-4.369
-4.368
-4.436
-4.528
-4.878
-5.230
-5.585
-5.943
-6.302
-6.663
-7.025
-7.389
-7.755
-8.121
-8.488
-8.856
-9.225
-9.594
-9.965
-10.335
-10.706
-11.078
-11.450
-11.822
-12.195
-12.568
-12.941
-13.314
-13.687
-14.061
-14.435
-14.809
-15.183
-15.557
-15.931
-16.305
-16.680
-17.054
-17.429
-17.803
-18.178
-18.553
