-29.860
-29.587
-29.867
-29.196
-27.985
-26.698
-25.262
-25.395
-25.653
-24.997
-24.146
-23.148
-21.801
-21.675
-22.040
-21.072
-21.081
-20.220
-19.846
-19.603
-19.367
-19.087
-18.583
-18.680
-18.512
-18.341
-17.976
-17.584
-20.634
-17.250
-17.250
-17.250
-17.064
-16.291
-15.983
-16.002
-16.168
-16.103
-15.929
-17.539
-14.962
-14.975
-15.046
-15.146
-14.954
-14.955
-14.043
-14.105
-14.217
-14.263
-14.284
-14.261
-13.037
-13.171
-13.331
-13.458
-13.524
-13.566
-12.101
-12.051
-11.663
-12.275
-12.632
-12.875
-11.623
-11.639
-11.451
-11.499
-11.900
-11.976
-11.151
-11.313
-11.653
-11.492
-11.724
-11.861
-10.887
-10.998
-11.083
-11.263
-11.583
-11.673
-10.763
-10.913
-11.250
-11.526
-9.874
-10.412
-10.645
-10.761
-10.959
-11.116
-9.003
-9.823
-10.389
-10.623
-10.768
-10.879
-8.146
-9.001
-9.897
-10.586
-10.741
-7.511
-8.213
-9.208
-10.008
-10.410
-10.589
-7.004
-7.555
-8.470
-9.385
-10.090
-10.409
-6.608
-6.997
-7.766
-8.639
-9.556
-10.112
-9.950
-10.167
-9.457
-9.885
-8.795
-9.390
-8.060
-8.706
-7.361
-7.959
-6.733
-7.205
-6.186
-6.492
-6.649
-6.131
-5.594
-5.082
-4.662
-4.380
-4.229
-4.193
-4.256
-4.402
-4.639
-5.832
-5.443
-5.020
-4.585
-4.201
-3.921
-3.720
-3.626
-3.611
-3.674
-3.806
-4.863
-4.480
-4.096
-3.759
-3.503
-3.339
-3.229
-3.141
-3.090
-3.102
-3.169
-3.930
-3.575
-3.225
-2.928
-2.711
-2.584
-2.535
-2.534
-2.554
-2.579
-2.621
-3.039
-2.753
-2.480
-2.249
-2.082
-1.984
-1.949
-1.961
-1.997
-2.049
-2.107
-2.311
-2.056
-1.829
-1.643
-1.511
-1.438
-1.416
-1.431
-1.468
-1.520
-1.583
-1.819
-1.584
-1.375
-1.202
-1.073
-0.995
-0.966
-0.976
-1.011
-1.055
-1.106
-1.495
-1.285
-1.094
-0.931
-0.801
-0.705
-0.650
-0.636
-0.653
-0.688
-0.729
-1.286
-1.099
-0.924
-0.770
-0.640
-0.536
-0.459
-0.413
-0.401
-0.414
-0.441
-1.154
-0.989
-0.827
-0.679
-0.549
-0.439
-0.349
-0.281
-0.240
-0.227
-0.234
-1.073
-0.928
-0.778
-0.635
-0.504
-0.390
-0.290
-0.208
-0.144
-0.105
-0.091
-0.897
-0.759
-0.621
-0.491
-0.371
-0.264
-0.171
-0.092
-0.032
0.005
-0.881
-0.755
-0.624
-0.495
-0.373
-0.260
-0.158
-0.068
0.008
0.064
-0.861
-0.756
-0.634
-0.509
-0.387
-0.270
-0.162
-0.063
0.024
0.095
-0.825
-0.747
-0.641
-0.524
-0.405
-0.288
-0.176
-0.072
0.025
0.107
-0.767
-0.721
-0.637
-0.534
-0.422
-0.308
-0.196
-0.088
0.014
0.105
-0.664
-0.676
-0.616
-0.531
-0.432
-0.325
-0.216
-0.109
-0.004
0.093
-0.607
-0.580
-0.515
-0.431
-0.336
-0.233
-0.128
-0.025
0.075
-0.507
-0.528
-0.486
-0.419
-0.337
-0.245
-0.146
-0.045
0.055
-0.373
-0.459
-0.445
-0.396
-0.329
-0.250
-0.160
-0.063
0.035
-0.376
-0.392
-0.364
-0.313
-0.248
-0.170
-0.079
0.016
-0.293
-0.336
-0.327
-0.292
-0.239
-0.173
-0.094
-0.003
-0.217
-0.282
-0.288
-0.266
-0.227
-0.173
-0.106
-0.022
-0.234
-0.253
-0.242
-0.212
-0.168
-0.112
-0.041
-0.192
-0.223
-0.220
-0.199
-0.163
-0.115
-0.055
-0.156
-0.196
-0.202
-0.188
-0.158
-0.117
-0.065
-0.125
-0.173
-0.187
-0.179
-0.156
-0.120
-0.074
-0.099
-0.154
-0.174
-0.173
-0.155
-0.125
-0.083
-0.078
-0.137
-0.163
-0.167
-0.155
-0.130
-0.093
-0.061
-0.124
-0.155
-0.164
-0.156
-0.136
-0.103
-0.049
-0.114
-0.148
-0.161
-0.158
-0.142
-0.114
-0.040
-0.108
-0.144
-0.161
-0.161
-0.149
-0.125
-0.035
-0.104
-0.143
-0.162
-0.165
-0.157
-0.136
-0.033
-0.103
-0.143
-0.164
-0.170
-0.165
-0.148
-0.105
-0.146
-0.169
-0.177
-0.174
-0.160
-0.108
-0.151
-0.175
-0.184
-0.183
-0.172
-0.114
-0.158
-0.182
-0.193
-0.194
-0.184
-0.121
-0.166
-0.191
-0.203
-0.205
-0.197
-0.129
-0.175
-0.202
-0.214
-0.217
-0.211
-0.082
-0.171
-0.223
-0.252
-0.267
-0.272
-0.269
-0.221
-0.278
-0.312
-0.329
-0.336
-0.334
-0.272
-0.339
-0.377
-0.396
-0.405
-0.405
-0.324
-0.398
-0.442
-0.466
-0.476
-0.477
-0.376
-0.458
-0.507
-0.535
-0.548
-0.550
-0.428
-0.516
-0.570
-0.602
-0.618
-0.623
-0.574
-0.632
-0.667
-0.686
-0.693
-0.631
-0.693
-0.731
-0.752
-0.761
-0.686
-0.754
-0.794
-0.817
-0.828
-0.737
-0.812
-0.856
-0.881
-0.893
-0.781
-0.867
-0.915
-0.942
-0.956
-0.813
-0.919
-0.972
-1.001
-1.016
-0.828
-0.964
-1.024
-1.058
-1.074
-1.000
-1.072
-1.110
-1.128
-1.027
-1.114
-1.157
-1.179
-1.047
-1.148
-1.199
-1.224
-1.071
-1.177
-1.235
-1.265
-1.104
-1.203
-1.267
-1.300
-1.230
-1.296
-1.333
-1.266
-1.325
-1.364
-1.312
-1.359
-1.396
-1.367
-1.401
-1.433
-1.430
-1.451
-1.476
-1.499
-1.507
-1.525
-1.574
-1.571
-1.580
-1.650
-1.638
-1.641
-1.710
-1.707
-1.783
-1.774
-1.856
-1.845
-1.928
-1.916
-1.999
-1.987
-2.069
-2.058
-2.137
-2.127
-2.204
-2.195
-2.269
-2.261
-2.333
-2.327
-2.391
-2.478
-2.804
-3.135
-3.472
-3.813
-4.158
-4.507
-4.858
-5.213
-5.569
-5.928
-6.288
-6.651
-7.014
-7.379
-7.745
-8.112
-8.480
-8.849
-9.218
-9.588
-9.958
-10.329
-10.701
-11.073
-11.445
-11.817
-12.190
-12.563
-12.936
-13.310
-13.684
-14.057
-14.431
-14.805
-15.179
-15.553
-15.928
-16.302
