6.397
6.351
6.267
6.235
6.240
6.271
6.358
6.306
6.200
6.180
6.165
6.178
6.290
6.229
6.124
6.078
6.073
6.190
6.143
6.054
5.990
5.947
5.972
6.062
6.034
5.964
5.903
5.850
5.776
5.933
5.933
5.933
5.796
5.706
5.735
5.719
5.685
5.667
5.645
5.604
5.559
5.552
5.530
5.526
5.508
5.498
5.371
5.376
5.367
5.360
5.358
5.364
5.167
5.182
5.192
5.198
5.205
5.216
4.957
4.976
5.026
5.028
5.045
5.066
4.735
4.760
4.795
4.839
4.861
4.908
4.535
4.550
4.561
4.608
4.648
4.696
4.352
4.360
4.374
4.397
4.449
4.502
4.186
4.219
4.255
4.309
-23.637
4.032
4.037
4.051
4.084
4.137
3.920
3.909
3.894
3.894
3.925
3.983
3.823
3.807
3.772
3.798
3.838
3.737
3.721
3.671
3.652
3.661
3.705
3.654
3.640
3.584
3.558
3.554
3.596
3.569
3.561
3.504
3.479
3.465
3.495
3.378
3.341
3.324
3.297
3.270
3.248
3.214
3.200
3.153
3.147
3.091
3.093
3.029
3.037
2.917
2.864
2.811
2.764
2.755
2.788
2.817
2.829
2.826
2.813
2.796
2.856
2.826
2.778
2.718
2.663
2.639
2.645
2.686
2.692
2.692
2.692
2.697
2.685
2.674
2.663
2.646
2.620
2.609
2.590
2.583
2.586
2.588
2.517
2.504
2.494
2.486
2.481
2.477
2.475
2.482
2.492
2.499
2.502
2.335
2.324
2.314
2.307
2.301
2.298
2.297
2.299
2.308
2.318
2.328
2.155
2.146
2.139
2.132
2.128
2.124
2.123
2.125
2.130
2.140
2.151
1.982
1.975
1.969
1.963
1.959
1.957
1.955
1.956
1.960
1.968
1.978
1.817
1.811
1.806
1.801
1.798
1.795
1.793
1.794
1.796
1.803
1.812
1.660
1.655
1.651
1.647
1.643
1.641
1.639
1.638
1.639
1.643
1.651
1.509
1.506
1.503
1.500
1.496
1.494
1.491
1.490
1.489
1.491
1.496
1.363
1.363
1.361
1.359
1.356
1.354
1.351
1.349
1.348
1.348
1.351
1.225
1.225
1.224
1.223
1.220
1.218
1.215
1.213
1.212
1.213
1.090
1.093
1.094
1.094
1.092
1.090
1.087
1.085
1.083
1.083
0.959
0.964
0.968
0.969
0.969
0.967
0.965
0.962
0.960
0.959
0.833
0.840
0.845
0.848
0.849
0.849
0.847
0.845
0.842
0.840
0.714
0.719
0.725
0.730
0.733
0.734
0.733
0.731
0.729
0.726
0.602
0.604
0.610
0.615
0.620
0.622
0.623
0.622
0.619
0.617
0.494
0.498
0.504
0.510
0.513
0.515
0.515
0.514
0.511
0.392
0.391
0.396
0.402
0.407
0.411
0.412
0.411
0.409
0.297
0.290
0.292
0.297
0.303
0.308
0.311
0.311
0.310
0.194
0.193
0.196
0.201
0.206
0.211
0.213
0.213
0.102
0.098
0.099
0.103
0.107
0.112
0.116
0.118
0.012
0.006
0.006
0.008
0.011
0.016
0.020
0.024
-0.084
-0.085
-0.084
-0.082
-0.078
-0.074
-0.069
-0.172
-0.175
-0.174
-0.172
-0.169
-0.166
-0.161
-0.258
-0.262
-0.263
-0.261
-0.259
-0.255
-0.252
-0.342
-0.347
-0.349
-0.348
-0.346
-0.343
-0.340
-0.423
-0.430
-0.433
-0.433
-0.432
-0.429
-0.426
-0.503
-0.511
-0.515
-0.516
-0.516
-0.513
-0.510
-0.581
-0.590
-0.595
-0.597
-0.597
-0.595
-0.592
-0.657
-0.667
-0.673
-0.676
-0.676
-0.676
-0.673
-0.732
-0.742
-0.749
-0.752
-0.754
-0.754
-0.752
-0.805
-0.816
-0.823
-0.827
-0.830
-0.830
-0.829
-0.877
-0.888
-0.896
-0.901
-0.903
-0.905
-0.904
-0.959
-0.967
-0.972
-0.976
-0.977
-0.977
-1.029
-1.037
-1.043
-1.046
-1.049
-1.049
-1.097
-1.106
-1.112
-1.116
-1.118
-1.119
-1.164
-1.173
-1.179
-1.184
-1.187
-1.188
-1.230
-1.239
-1.246
-1.250
-1.253
-1.255
-1.467
-1.482
-1.493
-1.500
-1.505
-1.509
-1.511
-1.716
-1.728
-1.737
-1.742
-1.746
-1.749
-1.934
-1.948
-1.958
-1.964
-1.969
-1.972
-2.137
-2.153
-2.165
-2.172
-2.178
-2.181
-2.327
-2.346
-2.359
-2.368
-2.374
-2.378
-2.506
-2.527
-2.542
-2.553
-2.560
-2.564
-2.699
-2.716
-2.727
-2.735
-2.740
-2.862
-2.880
-2.893
-2.902
-2.908
-3.017
-3.037
-3.050
-3.060
-3.067
-3.161
-3.186
-3.201
-3.211
-3.218
-3.295
-3.327
-3.344
-3.355
-3.363
-3.416
-3.458
-3.479
-3.492
-3.500
-3.515
-3.580
-3.606
-3.621
-3.630
-3.691
-3.724
-3.742
-3.752
-3.787
-3.832
-3.854
-3.866
-3.865
-3.929
-3.956
-3.971
-3.932
-4.013
-4.049
-4.067
-3.996
-4.087
-4.131
-4.153
-4.154
-4.205
-4.232
-4.220
-4.273
-4.303
-4.289
-4.339
-4.370
-4.359
-4.406
-4.436
-4.431
-4.474
-4.503
-4.508
-4.543
-4.570
-4.589
-4.616
-4.639
-4.675
-4.693
-4.710
-4.773
-4.784
-4.855
-4.862
-4.937
-4.941
-5.019
-5.021
-5.100
-5.101
-5.179
-5.181
-5.257
-5.259
-5.333
-5.335
-5.407
-5.411
-5.479
-5.484
-5.556
-5.589
-5.962
-6.335
-6.709
-7.082
-7.456
-7.830
-8.204
-8.578
-8.952
-9.327
-9.701
-10.075
-10.450
-10.824
-11.199
-11.574
-11.948
-12.323
-12.698
-13.073
-13.447
-13.822
-14.197
-14.572
-14.947
-15.322
-15.697
-16.072
-16.447
-16.821
-17.196
-17.571
-17.946
-18.321
-18.696
-19.071
-19.446
-19.821
