-32.726
-32.454
-32.730
-32.060
-30.852
-29.569
-28.144
-28.277
-28.532
-27.879
-27.030
-26.034
-24.634
-24.512
-24.909
-23.919
-23.929
-22.756
-22.296
-22.065
-21.836
-21.501
-20.765
-20.353
-20.105
-19.926
-19.454
-18.895
-23.170
-17.719
-17.719
-17.719
-17.601
-16.351
-15.236
-15.272
-15.662
-15.613
-15.394
-17.956
-13.139
-13.169
-13.411
-13.653
-13.424
-13.428
-11.540
-11.497
-11.730
-11.839
-11.923
-11.918
-10.174
-10.171
-10.225
-10.307
-10.387
-10.460
-8.895
-8.522
-7.761
-8.681
-9.021
-9.180
-8.121
-7.905
-7.295
-7.284
-7.814
-7.898
-7.289
-7.388
-7.807
-7.276
-7.467
-7.472
-6.828
-6.788
-6.780
-6.937
-7.247
-7.072
-6.287
-6.241
-6.724
-6.955
-5.751
-5.759
-5.821
-5.870
-6.133
-6.271
-5.229
-5.248
-5.363
-5.477
-5.648
-5.747
-4.728
-4.751
-4.882
-5.162
-5.357
-4.287
-4.291
-4.435
-4.550
-4.736
-4.935
-3.905
-3.886
-4.021
-4.107
-4.285
-4.519
-3.596
-3.532
-3.640
-3.704
-3.857
-4.087
-2.981
-3.134
-2.649
-2.792
-2.359
-2.487
-2.110
-2.218
-1.902
-1.984
-1.724
-1.782
-1.571
-1.610
-1.868
-1.695
-1.552
-1.431
-1.343
-1.296
-1.264
-1.256
-1.268
-1.298
-1.347
-1.490
-1.385
-1.302
-1.230
-1.162
-1.116
-1.091
-1.070
-1.061
-1.067
-1.089
-1.128
-1.045
-0.993
-0.959
-0.944
-0.926
-0.908
-0.895
-0.880
-0.873
-0.878
-0.850
-0.782
-0.739
-0.714
-0.702
-0.697
-0.696
-0.697
-0.699
-0.697
-0.697
-0.628
-0.582
-0.551
-0.533
-0.524
-0.520
-0.519
-0.520
-0.522
-0.526
-0.529
-0.444
-0.422
-0.406
-0.397
-0.393
-0.391
-0.389
-0.388
-0.388
-0.389
-0.391
-0.297
-0.293
-0.292
-0.293
-0.295
-0.297
-0.298
-0.296
-0.294
-0.291
-0.290
-0.186
-0.194
-0.202
-0.212
-0.221
-0.228
-0.233
-0.234
-0.231
-0.227
-0.222
-0.100
-0.115
-0.130
-0.146
-0.161
-0.175
-0.185
-0.190
-0.190
-0.186
-0.180
-0.033
-0.052
-0.071
-0.090
-0.110
-0.129
-0.146
-0.157
-0.162
-0.161
-0.156
0.019
0.000
-0.020
-0.042
-0.065
-0.088
-0.110
-0.128
-0.140
-0.144
-0.142
0.041
0.022
-0.000
-0.025
-0.051
-0.077
-0.101
-0.119
-0.131
-0.134
0.070
0.056
0.035
0.010
-0.018
-0.047
-0.075
-0.099
-0.117
-0.128
0.094
0.079
0.063
0.039
0.012
-0.019
-0.050
-0.079
-0.103
-0.121
0.110
0.096
0.080
0.062
0.036
0.006
-0.027
-0.060
-0.089
-0.113
0.117
0.106
0.092
0.075
0.055
0.026
-0.007
-0.042
-0.075
-0.105
0.111
0.106
0.096
0.081
0.063
0.040
0.009
-0.026
-0.062
-0.096
0.093
0.088
0.078
0.063
0.044
0.019
-0.014
-0.050
-0.087
0.064
0.069
0.064
0.054
0.038
0.018
-0.007
-0.042
-0.080
0.013
0.039
0.039
0.033
0.022
0.006
-0.013
-0.040
-0.076
-0.003
0.005
0.004
-0.003
-0.015
-0.031
-0.048
-0.077
-0.054
-0.037
-0.034
-0.037
-0.044
-0.057
-0.071
-0.088
-0.110
-0.084
-0.077
-0.076
-0.080
-0.089
-0.101
-0.113
-0.135
-0.124
-0.121
-0.122
-0.127
-0.136
-0.147
-0.188
-0.175
-0.170
-0.169
-0.170
-0.176
-0.184
-0.242
-0.227
-0.221
-0.218
-0.217
-0.219
-0.225
-0.295
-0.280
-0.273
-0.269
-0.267
-0.267
-0.269
-0.347
-0.332
-0.325
-0.321
-0.319
-0.317
-0.317
-0.400
-0.384
-0.378
-0.374
-0.371
-0.368
-0.366
-0.451
-0.436
-0.430
-0.426
-0.423
-0.420
-0.417
-0.502
-0.487
-0.481
-0.478
-0.475
-0.472
-0.469
-0.553
-0.538
-0.533
-0.530
-0.527
-0.524
-0.521
-0.603
-0.588
-0.583
-0.581
-0.579
-0.576
-0.572
-0.653
-0.638
-0.633
-0.631
-0.630
-0.627
-0.623
-0.687
-0.683
-0.681
-0.680
-0.677
-0.674
-0.736
-0.732
-0.730
-0.729
-0.727
-0.724
-0.783
-0.780
-0.779
-0.778
-0.776
-0.774
-0.831
-0.828
-0.827
-0.827
-0.825
-0.822
-0.877
-0.875
-0.874
-0.874
-0.873
-0.871
-1.072
-1.057
-1.056
-1.058
-1.059
-1.058
-1.056
-1.225
-1.227
-1.231
-1.233
-1.234
-1.232
-1.383
-1.387
-1.394
-1.398
-1.399
-1.398
-1.530
-1.538
-1.547
-1.553
-1.555
-1.555
-1.669
-1.678
-1.690
-1.698
-1.702
-1.703
-1.798
-1.811
-1.825
-1.835
-1.841
-1.843
-1.935
-1.952
-1.965
-1.972
-1.975
-2.051
-2.072
-2.087
-2.096
-2.100
-2.161
-2.185
-2.203
-2.213
-2.219
-2.262
-2.292
-2.312
-2.324
-2.331
-2.355
-2.392
-2.415
-2.429
-2.437
-2.437
-2.485
-2.512
-2.529
-2.538
-2.505
-2.571
-2.603
-2.622
-2.633
-2.648
-2.688
-2.710
-2.722
-2.715
-2.766
-2.792
-2.806
-2.776
-2.835
-2.867
-2.884
-2.837
-2.899
-2.936
-2.956
-2.901
-2.958
-2.999
-3.022
-3.016
-3.058
-3.084
-3.078
-3.116
-3.142
-3.144
-3.175
-3.200
-3.215
-3.237
-3.259
-3.291
-3.304
-3.321
-3.370
-3.374
-3.385
-3.452
-3.447
-3.453
-3.534
-3.524
-3.525
-3.602
-3.599
-3.681
-3.674
-3.759
-3.751
-3.835
-3.827
-3.910
-3.902
-3.984
-3.977
-4.055
-4.049
-4.125
-4.121
-4.194
-4.190
-4.261
-4.259
-4.325
-4.428
-4.772
-5.119
-5.470
-5.824
-6.180
-6.538
-6.898
-7.260
-7.623
-7.988
-8.353
-8.720
-9.088
-9.456
-9.825
-10.195
-10.566
-10.936
-11.308
-11.680
-12.052
-12.424
-12.797
-13.170
-13.543
-13.916
-14.290
-14.664
-15.037
-15.411
-15.786
-16.160
-16.534
-16.908
-17.283
-17.657
-18.032
-18.406
