0.44190000000000002
0.40679999999999999
0.42630000000000001
0.50190000000000001
0.5343
0.53659999999999997
0.50390000000000001
0.48980000000000001
0.41339999999999999
0.39410000000000001
0.33550000000000002
0.46450000000000002
0.4163
0.42570000000000002
0.50070000000000003
0.53600000000000003
0.53080000000000005
0.49990000000000001
0.45679999999999998
0.4365
0.39939999999999998
0.3407
0.29949999999999999
0.2656
0.23400000000000001
0.21110000000000001
0.14319999999999999
0.1474
0.48699999999999999
0.42630000000000001
0.43359999999999999
0.50149999999999995
0.52710000000000001
0.52339999999999998
0.49859999999999999
0.45400000000000001
0.41249999999999998
0.39900000000000002
0.36099999999999999
0.30159999999999998
0.26779999999999998
0.2351
0.21099999999999999
0.14230000000000001
0.14680000000000001
0.49020000000000002
0.62370000000000003
0.55379999999999996
0.48680000000000001
0.51249999999999996
0.44340000000000002
0.43919999999999998
0.49380000000000002
0.52300000000000002
0.52039999999999997
0.49459999999999998
0.45379999999999998
0.41160000000000002
0.37440000000000001
0.36159999999999998
0.32179999999999997
0.26960000000000001
0.23649999999999999
0.2122
0.14299999999999999
0.14810000000000001
0.49340000000000001
0.64949999999999997
0.61799999999999999
0.59540000000000004
0.56510000000000005
0.5423
0.53059999999999996
0.4486
0.43880000000000002
0.49469999999999997
0.52080000000000004
0.51749999999999996
0.49399999999999999
0.4531
0.40999999999999998
0.3745
0.33800000000000002
0.32019999999999998
0.28760000000000002
0.23669999999999999
0.21329999999999999
0.14299999999999999
0.1484
0.49759999999999999
0.65349999999999997
0.61980000000000002
0.59489999999999998
0.57620000000000005
0.55979999999999996
0.54200000000000004
0.52839999999999998
0.51700000000000002
0.49990000000000001
0.4526
0.3962
0.56159999999999999
0.45269999999999999
0.44679999999999997
0.49709999999999999
0.51939999999999997
0.51570000000000005
0.49220000000000003
0.4516
0.41039999999999999
0.37319999999999998
0.33610000000000001
0.29880000000000001
0.28589999999999999
0.25269999999999998
0.21290000000000001
0.1426
0.14899999999999999
0.505
0.66169999999999995
0.62429999999999997
0.59460000000000002
0.57220000000000004
0.55430000000000001
0.53879999999999995
0.52529999999999999
0.51329999999999998
0.4975
0.48259999999999997
0.46179999999999999
0.44369999999999998
0.42949999999999999
0.4194
0.4118
0.40989999999999999
0.40839999999999999
0.41239999999999999
0.41880000000000001
0.42570000000000002
0.43280000000000002
0.56430000000000002
0.44309999999999999
0.45290000000000002
0.50019999999999998
0.51959999999999995
0.51539999999999997
0.49159999999999998
0.45200000000000001
0.40960000000000002
0.3705
0.33400000000000002
0.2969
0.26619999999999999
0.25019999999999998
0.2273
0.1419
0.14940000000000001
0.51680000000000004
0.6764
0.63500000000000001
0.59930000000000005
0.57099999999999995
0.54949999999999999
0.53190000000000004
0.51770000000000005
0.50609999999999999
0.49080000000000001
0.4768
0.4587
0.44140000000000001
0.42609999999999998
0.41389999999999999
0.40210000000000001
0.39539999999999997
0.3916
0.39219999999999999
0.3962
0.40200000000000002
0.40870000000000001
0.41570000000000001
0.4194
0.42099999999999999
0.4264
0.44280000000000003
0.46289999999999998
0.48020000000000002
0.46050000000000002
0.41370000000000001
0.44829999999999998
0.50549999999999995
0.52090000000000003
0.51570000000000005
0.49170000000000003
0.4516
0.4083
0.36880000000000002
0.33160000000000001
0.2944
0.26340000000000002
0.2339
0.22509999999999999
0.14810000000000001
0.14829999999999999
0.52880000000000005
0.69730000000000003
0.65190000000000003
0.6119
0.57869999999999999
0.55030000000000001
0.52759999999999996
0.51170000000000004
0.49890000000000001
0.48359999999999997
0.47049999999999997
0.45450000000000002
0.43890000000000001
0.42420000000000002
0.41149999999999998
0.39800000000000002
0.38929999999999998
0.38240000000000002
0.38040000000000002
0.38219999999999998
0.38650000000000001
0.39200000000000002
0.39839999999999998
0.40450000000000003
0.40970000000000001
0.41270000000000001
0.41470000000000001
0.42020000000000002
0.43359999999999999
0.46050000000000002
0.4708
0.4622
0.43440000000000001
0.40050000000000002
0.39190000000000003
0.39079999999999998
0.43099999999999999
0.50929999999999997
0.52390000000000003
0.51659999999999995
0.49209999999999998
0.4521
0.40820000000000001
0.36699999999999999
0.32840000000000003
0.29099999999999998
0.26050000000000001
0.23130000000000001
0.2107
0.1457
0.1565
0.52500000000000002
0.7167
0.67569999999999997
0.6331
0.59370000000000001
0.55789999999999995
0.53010000000000002
0.5101
0.49469999999999997
0.47749999999999998
0.46429999999999999
0.44940000000000002
0.43580000000000002
0.42280000000000001
0.41110000000000002
0.39700000000000002
0.38740000000000002
0.3785
0.37430000000000002
0.37419999999999998
0.37680000000000002
0.38129999999999997
0.38719999999999999
0.39360000000000001
0.40050000000000002
0.40670000000000001
0.4118
0.4163
0.42259999999999998
0.43390000000000001
0.45050000000000001
0.46679999999999999
0.47370000000000001
0.46939999999999998
0.44390000000000002
0.41139999999999999
0.37740000000000001
0.34289999999999998
0.37119999999999997
0.36699999999999999
0.41720000000000002
0.50690000000000002
0.53159999999999996
0.51859999999999995
0.49340000000000001
0.4526
0.40760000000000002
0.36509999999999998
0.3256
0.2878
0.2571
0.2281
0.20830000000000001
0.14069999999999999
0.13980000000000001
0.58730000000000004
0.79849999999999999
0.69750000000000001
0.65659999999999996
0.61499999999999999
0.57469999999999999
0.54020000000000001
0.51480000000000004
0.49519999999999997
0.47470000000000001
0.4602
0.4446
0.43190000000000001
0.42030000000000001
0.41020000000000001
0.3977
0.38790000000000002
0.37759999999999999
0.37159999999999999
0.36980000000000002
0.37090000000000001
0.37430000000000002
0.3795
0.38550000000000001
0.3926
0.40039999999999998
0.40820000000000001
0.41520000000000001
0.42170000000000002
0.42980000000000002
0.44159999999999999
0.45710000000000001
0.47099999999999997
0.4773
0.47570000000000001
0.46060000000000001
0.433
0.3765
0.32990000000000003
0.25869999999999999
0.35549999999999998
0.3483
0.40889999999999999
0.49519999999999997
0.54269999999999996
0.52729999999999999
0.49469999999999997
0.45350000000000001
0.40760000000000002
0.36449999999999999
0.32369999999999999
0.2853
0.25409999999999999
0.22559999999999999
0.20619999999999999
0.13950000000000001
0.15870000000000001
0.54879999999999995
0.77800000000000002
0.78169999999999995
0.68859999999999999
0.63900000000000001
0.58850000000000002
0.55720000000000003
0.52690000000000003
0.50349999999999995
0.47770000000000001
0.46000000000000002
0.44130000000000003
0.42770000000000002
0.41720000000000002
0.40849999999999997
0.39760000000000001
0.38890000000000002
0.37890000000000001
0.372
0.36870000000000003
0.36849999999999999
0.371
0.37530000000000002
0.38080000000000003
0.3876
0.39560000000000001
0.40450000000000003
0.4138
0.42259999999999998
0.43190000000000001
0.44290000000000002
0.45579999999999998
0.46870000000000001
0.47849999999999998
0.48130000000000001
0.47599999999999998
0.46050000000000002
0.41210000000000002
0.36509999999999998
0.30170000000000002
0.26919999999999999
0.25969999999999999
0.2591
0.25940000000000002
