0.459
0.459
0.458
0.459
0.459
0.460
0.465
0.464
0.463
0.464
0.465
0.467
0.473
0.473
0.471
0.474
0.473
0.480
0.481
0.481
0.481
0.481
0.483
0.486
0.487
0.487
0.488
0.489
0.479
0.494
0.494
0.494
0.494
0.497
0.502
0.501
0.500
0.500
0.500
0.494
0.509
0.509
0.508
0.507
0.507
0.507
0.513
0.514
0.513
0.513
0.514
0.513
0.513
0.514
0.517
0.519
0.519
0.519
0.509
0.513
0.516
0.517
0.520
0.522
0.509
0.512
0.516
0.519
0.521
0.523
0.509
0.511
0.513
0.518
0.521
0.524
0.509
0.512
0.514
0.517
0.520
0.525
0.514
0.520
0.521
0.525
0.515
0.517
0.519
0.521
0.524
0.527
0.521
0.522
0.523
0.525
0.527
0.530
0.527
0.528
0.528
0.532
0.533
0.533
0.535
0.534
0.535
0.537
0.538
0.540
0.541
0.541
0.541
0.543
0.543
0.546
0.547
0.546
0.546
0.547
0.549
0.552
0.552
0.556
0.556
0.560
0.560
0.563
0.564
0.566
0.567
0.568
0.570
0.571
0.573
0.570
0.569
0.569
0.568
0.568
0.567
0.568
0.569
0.570
0.572
0.573
0.581
0.580
0.579
0.579
0.578
0.577
0.577
0.576
0.577
0.578
0.578
0.586
0.586
0.585
0.585
0.585
0.585
0.583
0.583
0.583
0.583
0.583
0.588
0.588
0.589
0.589
0.588
0.588
0.589
0.588
0.588
0.588
0.587
0.591
0.591
0.591
0.591
0.590
0.591
0.590
0.591
0.591
0.590
0.590
0.593
0.593
0.593
0.593
0.593
0.593
0.592
0.593
0.592
0.593
0.593
0.594
0.594
0.594
0.594
0.594
0.594
0.594
0.594
0.594
0.594
0.594
0.595
0.595
0.596
0.596
0.595
0.595
0.595
0.595
0.595
0.595
0.595
0.595
0.596
0.597
0.596
0.596
0.597
0.597
0.596
0.596
0.596
0.597
0.596
0.596
0.597
0.597
0.597
0.598
0.597
0.598
0.597
0.598
0.597
0.597
0.597
0.598
0.598
0.598
0.598
0.598
0.598
0.598
0.599
0.599
0.597
0.598
0.598
0.599
0.599
0.599
0.600
0.599
0.599
0.600
0.597
0.598
0.599
0.599
0.599
0.600
0.600
0.600
0.600
0.600
0.597
0.599
0.599
0.599
0.600
0.601
0.601
0.601
0.600
0.601
0.598
0.598
0.599
0.600
0.601
0.601
0.601
0.601
0.602
0.601
0.598
0.598
0.599
0.600
0.601
0.601
0.602
0.603
0.603
0.602
0.599
0.599
0.600
0.600
0.601
0.602
0.602
0.603
0.603
0.603
0.599
0.600
0.601
0.602
0.602
0.602
0.604
0.604
0.603
0.600
0.600
0.601
0.602
0.602
0.603
0.604
0.605
0.604
0.601
0.600
0.601
0.602
0.602
0.603
0.605
0.605
0.605
0.601
0.601
0.602
0.603
0.604
0.605
0.605
0.605
0.602
0.601
0.602
0.603
0.603
0.604
0.605
0.606
0.602
0.602
0.603
0.603
0.605
0.605
0.606
0.606
0.602
0.603
0.603
0.605
0.605
0.606
0.607
0.604
0.603
0.604
0.605
0.606
0.606
0.607
0.604
0.603
0.604
0.605
0.605
0.607
0.607
0.604
0.604
0.605
0.605
0.606
0.606
0.607
0.605
0.605
0.605
0.605
0.605
0.607
0.607
0.605
0.605
0.605
0.605
0.606
0.607
0.608
0.606
0.605
0.606
0.606
0.606
0.607
0.607
0.606
0.606
0.606
0.606
0.606
0.607
0.608
0.606
0.606
0.606
0.606
0.606
0.608
0.607
0.606
0.607
0.606
0.607
0.607
0.607
0.608
0.606
0.607
0.606
0.606
0.607
0.607
0.608
0.606
0.607
0.607
0.607
0.608
0.608
0.606
0.607
0.607
0.607
0.608
0.609
0.607
0.608
0.608
0.607
0.608
0.608
0.607
0.608
0.607
0.608
0.608
0.609
0.608
0.608
0.608
0.609
0.608
0.609
0.608
0.608
0.608
0.609
0.609
0.609
0.610
0.609
0.609
0.609
0.609
0.609
0.610
0.609
0.609
0.610
0.610
0.610
0.611
0.610
0.610
0.610
0.610
0.610
0.610
0.611
0.610
0.610
0.610
0.611
0.611
0.610
0.611
0.611
0.611
0.611
0.611
0.611
0.611
0.611
0.612
0.612
0.611
0.611
0.612
0.611
0.612
0.611
0.611
0.611
0.612
0.612
0.611
0.612
0.612
0.612
0.612
0.612
0.612
0.612
0.612
0.612
0.612
0.612
0.612
0.613
0.612
0.613
0.613
0.612
0.612
0.612
0.612
0.613
0.613
0.613
0.613
0.613
0.612
0.613
0.613
0.613
0.613
0.613
0.613
0.613
0.613
0.613
0.613
0.613
0.613
0.614
0.614
0.614
0.614
0.613
0.613
0.613
0.614
0.614
0.614
0.614
0.614
0.614
0.613
0.614
0.614
0.614
0.614
0.614
0.614
0.614
0.614
0.614
0.614
0.614
0.614
0.614
0.614
0.614
0.614
0.614
0.614
0.615
0.615
0.614
0.614
0.615
0.614
0.614
0.614
0.615
0.614
0.614
0.614
0.614
0.614
0.613
0.614
0.614
0.614
0.614
0.614
0.614
0.614
0.614
0.615
0.615
0.615
0.614
0.614
0.614
0.614
0.615
0.615
0.614
0.615
0.615
0.615
0.615
0.614
0.615
0.615
0.615
0.615
0.615
0.614
0.615
0.615
0.614
0.615
0.615
0.615
0.615
0.615
0.614
