700 3.50
700 4.00
700 4.50
700 5.00
700 5.50
700 6.00
800 3.50
800 4.00
800 4.50
800 5.00
800 5.50
800 6.00
900 3.50
900 4.00
900 4.50
900 5.00
900 5.50
1000 3.50
1000 4.00
1000 4.50
1000 5.00
1000 5.50
1000 6.00
1100 3.50
1100 4.00
1100 4.50
1100 5.00
1100 5.50
1100 6.00
1200 3.50
1200 4.00
1200 4.50
1200 5.00
1200 6.00
1300 3.50
1300 4.00
1300 4.50
1300 5.00
1300 5.50
1300 6.00
1400 3.50
1400 4.00
1400 4.50
1400 5.00
1400 5.50
1400 6.00
1500 3.50
1500 4.00
1500 4.50
1500 5.00
1500 5.50
1500 6.00
1600 3.50
1600 4.00
1600 4.50
1600 5.00
1600 5.50
1600 6.00
1700 3.50
1700 4.00
1700 4.50
1700 5.00
1700 5.50
1700 6.00
1800 3.50
1800 4.00
1800 4.50
1800 5.00
1800 5.50
1800 6.00
1900 3.50
1900 4.00
1900 4.50
1900 5.00
1900 5.50
1900 6.00
2000 3.50
2000 4.00
2000 4.50
2000 5.00
2000 5.50
2000 6.00
2100 4.00
2100 5.00
2100 5.50
2100 6.00
2200 3.50
2200 4.00
2200 4.50
2200 5.00
2200 5.50
2200 6.00
2300 3.50
2300 4.00
2300 4.50
2300 5.00
2300 5.50
2300 6.00
2400 3.50
2400 4.00
2400 4.50
2400 5.50
2400 6.00
2500 3.50
2500 4.00
2500 4.50
2500 5.00
2500 5.50
2500 6.00
2600 3.50
2600 4.00
2600 4.50
2600 5.00
2600 5.50
2600 6.00
2700 3.50
2700 4.00
2700 4.50
2700 5.00
2700 5.50
2700 6.00
2800 5.00
2800 5.50
2900 5.00
2900 5.50
3000 5.00
3000 5.50
3100 5.00
3100 5.50
3200 5.00
3200 5.50
3300 5.00
3300 5.50
3400 5.00
3400 5.50
3500 0.00
3500 0.50
3500 1.00
3500 1.50
3500 2.00
3500 2.50
3500 3.00
3500 3.50
3500 4.00
3500 4.50
3500 5.00
3750 0.00
3750 0.50
3750 1.00
3750 1.50
3750 2.00
3750 2.50
3750 3.00
3750 3.50
3750 4.00
3750 4.50
3750 5.00
4000 0.00
4000 0.50
4000 1.00
4000 1.50
4000 2.00
4000 2.50
4000 3.00
4000 3.50
4000 4.00
4000 4.50
4000 5.00
4250 0.00
4250 0.50
4250 1.00
4250 1.50
4250 2.00
4250 2.50
4250 3.00
4250 3.50
4250 4.00
4250 4.50
4250 5.00
4500 0.00
4500 0.50
4500 1.00
4500 1.50
4500 2.00
4500 2.50
4500 3.00
4500 3.50
4500 4.00
4500 4.50
4500 5.00
4750 0.00
4750 0.50
4750 1.00
4750 1.50
4750 2.00
4750 2.50
4750 3.00
4750 3.50
4750 4.00
4750 4.50
4750 5.00
5000 0.00
5000 0.50
5000 1.00
5000 1.50
5000 2.00
5000 2.50
5000 3.00
5000 3.50
5000 4.00
5000 4.50
5000 5.00
5250 0.00
5250 0.50
5250 1.00
5250 1.50
5250 2.00
5250 2.50
5250 3.00
5250 3.50
5250 4.00
5250 4.50
5250 5.00
5500 0.00
5500 0.50
5500 1.00
5500 1.50
5500 2.00
5500 2.50
5500 3.00
5500 3.50
5500 4.00
5500 4.50
5500 5.00
5750 0.00
5750 0.50
5750 1.00
5750 1.50
5750 2.00
5750 2.50
5750 3.00
5750 3.50
5750 4.00
5750 4.50
5750 5.00
6000 0.00
6000 0.50
6000 1.00
6000 1.50
6000 2.00
6000 2.50
6000 3.00
6000 3.50
6000 4.00
6000 4.50
6000 5.00
6250 0.50
6250 1.00
6250 1.50
6250 2.00
6250 2.50
6250 3.00
6250 3.50
6250 4.00
6250 4.50
6250 5.00
6500 0.50
6500 1.00
6500 1.50
6500 2.00
6500 2.50
6500 3.00
6500 3.50
6500 4.00
6500 4.50
6500 5.00
6750 0.50
6750 1.00
6750 1.50
6750 2.00
6750 2.50
6750 3.00
6750 3.50
6750 4.00
6750 4.50
6750 5.00
7000 0.50
7000 1.00
7000 1.50
7000 2.00
7000 2.50
7000 3.00
7000 3.50
7000 4.00
7000 4.50
7000 5.00
7250 0.50
7250 1.00
7250 1.50
7250 2.00
7250 2.50
7250 3.00
7250 3.50
7250 4.00
7250 4.50
7250 5.00
7500 0.50
7500 1.00
7500 1.50
7500 2.00
7500 2.50
7500 3.00
7500 3.50
7500 4.00
7500 4.50
7500 5.00
7750 1.00
7750 1.50
7750 2.00
7750 2.50
7750 3.00
7750 3.50
7750 4.00
7750 4.50
7750 5.00
8000 1.00
8000 1.50
8000 2.00
8000 2.50
8000 3.00
8000 3.50
8000 4.00
8000 4.50
8000 5.00
8250 1.00
8250 1.50
8250 2.00
8250 2.50
8250 3.00
8250 3.50
8250 4.00
8250 4.50
8250 5.00
8500 1.50
8500 2.00
8500 2.50
8500 3.00
8500 3.50
8500 4.00
8500 4.50
8500 5.00
8750 1.50
8750 2.00
8750 2.50
8750 3.00
8750 3.50
8750 4.00
8750 4.50
8750 5.00
9000 1.50
9000 2.00
9000 2.50
9000 3.00
9000 3.50
9000 4.00
9000 4.50
9000 5.00
9250 2.00
9250 2.50
9250 3.00
9250 3.50
9250 4.00
9250 4.50
9250 5.00
9500 2.00
9500 2.50
9500 3.00
9500 3.50
9500 4.00
9500 4.50
9500 5.00
9750 2.00
9750 2.50
9750 3.00
9750 3.50
9750 4.00
9750 4.50
9750 5.00
10000 2.00
10000 2.50
10000 3.00
10000 3.50
10000 4.00
10000 4.50
10000 5.00
10250 2.00
10250 2.50
10250 3.00
10250 3.50
10250 4.00
10250 4.50
10250 5.00
10500 2.00
10500 2.50
10500 3.00
10500 3.50
10500 4.00
10500 4.50
10500 5.00
10750 2.00
10750 2.50
10750 3.00
10750 3.50
10750 4.00
10750 4.50
10750 5.00
11000 2.00
11000 2.50
11000 3.00
11000 3.50
11000 4.00
11000 4.50
11000 5.00
11250 2.00
11250 2.50
11250 3.00
11250 3.50
11250 4.00
11250 4.50
11250 5.00
11500 2.00
11500 2.50
11500 3.00
11500 3.50
11500 4.00
11500 4.50
11500 5.00
11750 2.00
11750 2.50
11750 3.00
11750 3.50
11750 4.00
11750 4.50
11750 5.00
12000 2.50
12000 3.00
12000 3.50
12000 4.00
12000 4.50
12000 5.00
12250 2.50
12250 3.00
12250 3.50
12250 4.00
12250 4.50
12250 5.00
12500 2.50
12500 3.00
12500 3.50
12500 4.00
12500 4.50
12500 5.00
12750 2.50
12750 3.00
12750 3.50
12750 4.00
12750 4.50
12750 5.00
13000 2.50
13000 3.00
13000 3.50
13000 4.00
13000 4.50
13000 5.00
14000 2.00
14000 2.50
14000 3.00
14000 3.50
14000 4.00
14000 4.50
14000 5.00
15000 2.50
15000 3.00
15000 3.50
15000 4.00
15000 4.50
15000 5.00
16000 2.50
16000 3.00
16000 3.50
16000 4.00
16000 4.50
16000 5.00
17000 2.50
17000 3.00
17000 3.50
17000 4.00
17000 4.50
17000 5.00
18000 2.50
18000 3.00
18000 3.50
18000 4.00
18000 4.50
18000 5.00
19000 2.50
19000 3.00
19000 3.50
19000 4.00
19000 4.50
19000 5.00
20000 3.00
20000 3.50
20000 4.00
20000 4.50
20000 5.00
21000 3.00
21000 3.50
21000 4.00
21000 4.50
21000 5.00
22000 3.00
22000 3.50
22000 4.00
22000 4.50
22000 5.00
23000 3.00
23000 3.50
23000 4.00
23000 4.50
23000 5.00
24000 3.00
24000 3.50
24000 4.00
24000 4.50
24000 5.00
25000 3.00
25000 3.50
25000 4.00
25000 4.50
25000 5.00
26000 3.00
26000 3.50
26000 4.00
26000 4.50
26000 5.00
27000 3.50
27000 4.00
27000 4.50
27000 5.00
28000 3.50
28000 4.00
28000 4.50
28000 5.00
29000 3.50
29000 4.00
29000 4.50
29000 5.00
30000 3.50
30000 4.00
30000 4.50
30000 5.00
31000 3.50
31000 4.00
31000 4.50
31000 5.00
32000 4.00
32000 4.50
32000 5.00
33000 4.00
33000 4.50
33000 5.00
34000 4.00
34000 4.50
34000 5.00
35000 4.00
35000 4.50
35000 5.00
36000 4.00
36000 4.50
36000 5.00
37000 4.00
37000 4.50
37000 5.00
38000 4.00
38000 4.50
38000 5.00
39000 4.00
39000 4.50
39000 5.00
40000 4.50
40000 5.00
41000 4.50
41000 5.00
42000 4.50
42000 5.00
43000 4.50
43000 5.00
44000 4.50
44000 5.00
45000 4.50
45000 5.00
46000 4.50
46000 5.00
47000 4.50
47000 5.00
48000 4.50
48000 5.00
49000 4.50
49000 5.00
50000 5.00
56101 5.00
62946 5.00
70627 5.00
79245 5.00
88914 5.00
99763 5.00
111936 5.00
125595 5.00
140920 5.00
158115 5.00
177407 5.00
199055 5.00
223343 5.00
250595 5.00
281172 5.00
315481 5.00
353975 5.00
397167 5.00
445629 5.00
500004 5.00
561014 5.00
629469 5.00
706276 5.00
792455 5.00
889149 5.00
997642 5.00
1119373 5.00
1255958 5.00
1409209 5.00
1581159 5.00
1774090 5.00
1990563 5.00
2233450 5.00
2505973 5.00
2811749 5.00
3154836 5.00
3539785 5.00
3971706 5.00
4456330 5.00
