0.378
0.380
0.374
0.376
0.380
0.390
0.456
0.453
0.431
0.440
0.461
0.504
0.634
0.632
0.600
0.633
0.632
0.695
0.702
0.702
0.702
0.706
0.715
0.726
0.728
0.728
0.730
0.732
0.696
0.742
0.742
0.742
0.741
0.745
0.750
0.750
0.749
0.749
0.749
0.742
0.758
0.758
0.756
0.756
0.756
0.756
0.762
0.762
0.761
0.761
0.761
0.760
0.766
0.766
0.766
0.765
0.765
0.765
0.769
0.771
0.773
0.769
0.769
0.770
0.772
0.773
0.776
0.775
0.772
0.771
0.773
0.774
0.773
0.774
0.774
0.775
0.772
0.774
0.775
0.775
0.774
0.776
0.775
0.775
0.774
0.774
0.774
0.776
0.776
0.776
0.774
0.774
0.778
0.778
0.777
0.776
0.774
0.774
0.781
0.781
0.779
0.775
0.773
0.785
0.784
0.783
0.781
0.777
0.774
0.788
0.788
0.787
0.785
0.781
0.776
0.791
0.792
0.790
0.789
0.786
0.781
0.793
0.790
0.796
0.794
0.800
0.798
0.802
0.801
0.804
0.804
0.805
0.806
0.807
0.808
0.807
0.806
0.805
0.805
0.804
0.803
0.804
0.805
0.807
0.808
0.809
0.813
0.813
0.813
0.813
0.812
0.812
0.812
0.812
0.812
0.812
0.813
0.816
0.816
0.816
0.815
0.815
0.815
0.815
0.815
0.815
0.815
0.815
0.818
0.818
0.818
0.818
0.817
0.818
0.817
0.817
0.817
0.817
0.816
0.819
0.819
0.819
0.819
0.819
0.819
0.819
0.819
0.819
0.818
0.818
0.820
0.820
0.821
0.820
0.820
0.821
0.820
0.820
0.820
0.820
0.819
0.821
0.821
0.822
0.821
0.821
0.821
0.821
0.821
0.822
0.821
0.821
0.822
0.822
0.823
0.823
0.822
0.822
0.823
0.822
0.822
0.822
0.822
0.824
0.823
0.823
0.824
0.823
0.824
0.824
0.823
0.823
0.823
0.823
0.824
0.824
0.824
0.824
0.824
0.824
0.824
0.824
0.824
0.824
0.823
0.826
0.825
0.825
0.825
0.825
0.824
0.825
0.824
0.824
0.824
0.825
0.826
0.826
0.826
0.826
0.826
0.826
0.825
0.826
0.825
0.826
0.828
0.827
0.827
0.827
0.827
0.826
0.827
0.826
0.826
0.826
0.828
0.828
0.828
0.827
0.828
0.827
0.827
0.827
0.826
0.826
0.830
0.829
0.829
0.829
0.829
0.828
0.827
0.828
0.827
0.827
0.830
0.830
0.830
0.829
0.829
0.828
0.829
0.828
0.828
0.827
0.831
0.831
0.830
0.830
0.830
0.830
0.829
0.829
0.828
0.828
0.831
0.831
0.830
0.831
0.830
0.830
0.830
0.829
0.829
0.831
0.831
0.831
0.831
0.831
0.831
0.830
0.830
0.830
0.831
0.831
0.832
0.831
0.831
0.831
0.831
0.831
0.830
0.832
0.832
0.832
0.832
0.831
0.832
0.831
0.831
0.831
0.832
0.832
0.832
0.831
0.831
0.832
0.831
0.831
0.832
0.832
0.833
0.832
0.832
0.832
0.831
0.832
0.833
0.832
0.832
0.832
0.832
0.832
0.832
0.832
0.832
0.833
0.832
0.833
0.832
0.832
0.833
0.833
0.832
0.832
0.833
0.832
0.833
0.832
0.833
0.833
0.833
0.832
0.833
0.832
0.833
0.833
0.833
0.832
0.832
0.833
0.833
0.833
0.833
0.832
0.832
0.833
0.833
0.832
0.833
0.832
0.833
0.833
0.833
0.833
0.832
0.833
0.832
0.833
0.833
0.834
0.833
0.832
0.833
0.833
0.833
0.834
0.833
0.833
0.832
0.832
0.833
0.833
0.833
0.834
0.833
0.833
0.833
0.833
0.833
0.833
0.833
0.833
0.833
0.833
0.833
0.833
0.833
0.834
0.833
0.833
0.834
0.834
0.833
0.834
0.833
0.833
0.833
0.833
0.834
0.834
0.833
0.833
0.833
0.833
0.834
0.833
0.833
0.833
0.833
0.834
0.833
0.834
0.833
0.833
0.833
0.834
0.834
0.834
0.834
0.834
0.834
0.833
0.833
0.834
0.834
0.834
0.834
0.834
0.835
0.835
0.834
0.834
0.834
0.834
0.835
0.834
0.834
0.834
0.834
0.834
0.834
0.834
0.834
0.834
0.834
0.834
0.834
0.834
0.834
0.834
0.835
0.834
0.835
0.834
0.835
0.834
0.834
0.835
0.835
0.834
0.835
0.835
0.835
0.835
0.834
0.835
0.835
0.835
0.835
0.834
0.835
0.835
0.835
0.835
0.835
0.835
0.836
0.836
0.836
0.835
0.835
0.835
0.835
0.835
0.835
0.835
0.836
0.835
0.835
0.835
0.836
0.836
0.836
0.835
0.836
0.836
0.835
0.836
0.836
0.836
0.835
0.836
0.835
0.835
0.836
0.836
0.836
0.835
0.835
0.836
0.835
0.835
0.835
0.836
0.835
0.836
0.835
0.836
0.836
0.835
0.835
0.835
0.834
0.835
0.836
0.835
0.835
0.835
0.835
0.835
0.835
0.835
0.835
0.835
0.835
0.834
0.835
0.835
0.835
0.835
0.835
0.835
0.835
0.835
0.835
0.835
0.835
0.835
0.835
0.836
0.835
0.836
0.836
0.836
0.836
0.837
0.836
0.837
0.836
0.836
0.837
0.837
0.837
0.837
0.837
0.836
0.837
0.836
0.836
0.837
0.836
0.837
0.836
0.837
0.837
0.837
0.837
0.837
0.837
0.837
0.837
0.836
0.837
0.837
0.837
0.836
0.837
0.837
