2.348
2.351
2.338
2.341
2.351
2.368
2.420
2.418
2.404
2.412
2.425
2.448
2.516
2.515
2.497
2.519
2.519
2.574
2.584
2.586
2.589
2.596
2.612
2.633
2.637
2.640
2.648
2.658
2.574
2.686
2.686
2.686
2.688
2.711
2.736
2.735
2.728
2.728
2.733
2.689
2.779
2.779
2.774
2.769
2.774
2.774
2.803
2.808
2.807
2.805
2.805
2.806
2.812
2.820
2.827
2.832
2.834
2.835
2.821
2.841
2.857
2.853
2.855
2.856
2.834
2.846
2.867
2.874
2.878
2.881
2.847
2.855
2.859
2.881
2.886
2.893
2.857
2.869
2.882
2.893
2.894
2.907
2.881
2.911
2.915
2.918
2.884
2.894
2.905
2.921
2.933
2.947
2.901
2.911
2.920
2.933
2.948
2.963
2.921
2.930
2.935
2.961
2.975
2.941
2.949
2.953
2.963
2.974
2.987
2.960
2.967
2.969
2.978
2.987
2.999
2.975
2.984
2.986
2.993
3.000
3.010
3.007
3.013
3.018
3.025
3.029
3.034
3.038
3.042
3.046
3.051
3.052
3.057
3.059
3.062
3.044
3.043
3.040
3.038
3.038
3.038
3.040
3.044
3.050
3.055
3.061
3.069
3.070
3.070
3.069
3.068
3.067
3.067
3.067
3.068
3.071
3.074
3.081
3.082
3.082
3.083
3.083
3.084
3.083
3.083
3.083
3.084
3.085
3.090
3.091
3.091
3.092
3.093
3.093
3.093
3.093
3.093
3.093
3.094
3.098
3.098
3.099
3.099
3.100
3.100
3.100
3.101
3.101
3.100
3.101
3.105
3.106
3.106
3.106
3.106
3.106
3.106
3.107
3.107
3.107
3.107
3.111
3.111
3.112
3.112
3.112
3.112
3.112
3.112
3.112
3.112
3.112
3.114
3.115
3.116
3.116
3.116
3.117
3.116
3.116
3.117
3.117
3.117
3.117
3.118
3.119
3.119
3.120
3.121
3.121
3.121
3.121
3.121
3.121
3.117
3.119
3.121
3.122
3.123
3.123
3.124
3.125
3.124
3.125
3.125
3.117
3.120
3.121
3.123
3.125
3.126
3.127
3.127
3.127
3.128
3.128
3.118
3.121
3.124
3.126
3.127
3.129
3.130
3.130
3.130
3.131
3.118
3.121
3.124
3.126
3.129
3.131
3.132
3.133
3.133
3.134
3.117
3.120
3.124
3.127
3.129
3.131
3.133
3.135
3.136
3.136
3.117
3.120
3.122
3.126
3.130
3.132
3.135
3.136
3.138
3.138
3.117
3.119
3.122
3.125
3.129
3.133
3.135
3.138
3.139
3.140
3.121
3.119
3.122
3.125
3.128
3.132
3.136
3.138
3.140
3.142
3.121
3.122
3.125
3.128
3.132
3.135
3.139
3.141
3.144
3.124
3.123
3.125
3.129
3.132
3.135
3.139
3.142
3.145
3.130
3.125
3.126
3.128
3.132
3.136
3.139
3.143
3.145
3.128
3.127
3.129
3.132
3.136
3.140
3.143
3.147
3.131
3.129
3.130
3.133
3.136
3.140
3.144
3.148
3.135
3.131
3.132
3.134
3.137
3.140
3.145
3.148
3.134
3.134
3.135
3.138
3.141
3.144
3.148
3.136
3.135
3.136
3.139
3.142
3.145
3.148
3.138
3.137
3.138
3.139
3.142
3.146
3.149
3.141
3.139
3.139
3.141
3.143
3.147
3.150
3.143
3.141
3.141
3.141
3.144
3.147
3.151
3.145
3.143
3.142
3.143
3.145
3.148
3.151
3.146
3.144
3.144
3.144
3.146
3.149
3.152
3.148
3.146
3.145
3.146
3.147
3.149
3.152
3.149
3.147
3.147
3.147
3.148
3.150
3.152
3.150
3.148
3.148
3.148
3.149
3.151
3.153
3.152
3.150
3.149
3.149
3.150
3.152
3.154
3.151
3.150
3.151
3.151
3.153
3.155
3.151
3.151
3.151
3.152
3.154
3.155
3.152
3.152
3.153
3.153
3.155
3.156
3.154
3.153
3.153
3.154
3.155
3.157
3.154
3.153
3.154
3.155
3.156
3.157
3.160
3.157
3.157
3.157
3.158
3.159
3.160
3.160
3.160
3.159
3.160
3.161
3.162
3.163
3.161
3.161
3.162
3.163
3.164
3.165
3.164
3.163
3.163
3.165
3.166
3.166
3.165
3.165
3.166
3.166
3.167
3.168
3.167
3.166
3.167
3.167
3.168
3.169
3.168
3.168
3.169
3.170
3.170
3.169
3.170
3.170
3.170
3.171
3.171
3.170
3.171
3.171
3.172
3.172
3.171
3.172
3.172
3.173
3.173
3.172
3.173
3.174
3.174
3.173
3.174
3.174
3.175
3.175
3.174
3.174
3.174
3.175
3.175
3.175
3.176
3.176
3.176
3.176
3.176
3.177
3.177
3.176
3.177
3.177
3.178
3.178
3.178
3.178
3.177
3.178
3.178
3.178
3.178
3.179
3.179
3.178
3.179
3.180
3.179
3.179
3.180
3.178
3.179
3.180
3.179
3.180
3.180
3.178
3.179
3.180
3.179
3.180
3.180
3.179
3.179
3.180
3.179
3.180
3.179
3.180
3.179
3.180
3.180
3.180
3.179
3.180
3.180
3.180
3.179
3.180
3.180
3.180
3.179
3.181
3.180
3.180
3.181
3.181
3.180
3.181
3.182
3.182
3.182
3.183
3.183
3.183
3.183
3.184
3.183
3.183
3.184
3.184
3.184
3.184
3.184
3.184
3.184
3.184
3.184
3.184
3.184
3.184
3.185
3.185
3.184
3.184
3.184
3.185
3.184
3.185
3.184
3.185
3.185
3.184
3.184
3.185
