-44.842
-44.299
-45.605
-44.705
-42.901
-40.640
-35.944
-36.139
-37.220
-36.359
-35.050
-33.046
-28.412
-28.375
-29.608
-27.941
-27.980
-24.750
-24.089
-23.886
-23.679
-23.234
-22.154
-21.318
-21.028
-20.849
-20.331
-19.707
-25.164
-18.294
-18.294
-18.294
-18.195
-16.867
-15.646
-15.682
-16.097
-16.052
-15.830
-18.520
-13.458
-13.488
-13.741
-13.996
-13.759
-13.763
-11.807
-11.760
-12.002
-12.115
-12.199
-12.187
-10.406
-10.399
-10.453
-10.534
-10.612
-10.679
-9.063
-8.681
-7.882
-8.842
-9.199
-9.359
-8.237
-8.019
-7.389
-7.374
-7.926
-8.014
-7.346
-7.460
-7.902
-7.351
-7.553
-7.566
-6.840
-6.817
-6.820
-6.984
-7.316
-7.146
-6.283
-6.257
-6.753
-7.009
-5.714
-5.735
-5.808
-5.868
-6.139
-6.283
-5.185
-5.214
-5.338
-5.463
-5.639
-5.745
-4.686
-4.716
-4.852
-5.146
-5.347
-4.253
-4.260
-4.406
-4.527
-4.718
-4.921
-3.879
-3.863
-3.997
-4.088
-4.270
-4.506
-3.578
-3.517
-3.622
-3.691
-3.847
-4.077
-3.367
-3.571
-2.976
-3.162
-2.652
-2.786
-2.361
-2.469
-2.127
-2.192
-1.916
-1.960
-1.740
-1.765
-1.996
-1.955
-1.915
-1.869
-1.812
-1.745
-1.665
-1.569
-1.486
-1.446
-1.444
-1.427
-1.404
-1.393
-1.385
-1.373
-1.353
-1.326
-1.289
-1.240
-1.198
-1.183
-1.037
-1.016
-1.011
-1.015
-1.024
-1.032
-1.036
-1.033
-1.022
-1.001
-0.982
-0.767
-0.743
-0.735
-0.737
-0.746
-0.759
-0.773
-0.787
-0.800
-0.807
-0.804
-0.574
-0.553
-0.543
-0.542
-0.548
-0.556
-0.568
-0.581
-0.596
-0.611
-0.625
-0.424
-0.409
-0.402
-0.400
-0.403
-0.408
-0.414
-0.423
-0.433
-0.445
-0.459
-0.298
-0.292
-0.291
-0.292
-0.295
-0.300
-0.304
-0.309
-0.314
-0.320
-0.328
-0.192
-0.196
-0.201
-0.207
-0.213
-0.219
-0.224
-0.228
-0.231
-0.233
-0.236
-0.105
-0.117
-0.127
-0.138
-0.148
-0.157
-0.164
-0.170
-0.173
-0.174
-0.174
-0.037
-0.052
-0.067
-0.081
-0.095
-0.108
-0.119
-0.127
-0.132
-0.134
-0.134
0.015
-0.000
-0.017
-0.034
-0.051
-0.067
-0.082
-0.095
-0.103
-0.108
-0.109
0.039
0.024
0.006
-0.013
-0.032
-0.051
-0.068
-0.081
-0.090
-0.094
0.066
0.054
0.039
0.020
-0.002
-0.023
-0.044
-0.063
-0.077
-0.085
0.087
0.074
0.063
0.046
0.025
0.001
-0.023
-0.046
-0.065
-0.079
0.101
0.090
0.077
0.065
0.046
0.022
-0.004
-0.030
-0.054
-0.074
0.106
0.097
0.087
0.074
0.060
0.039
0.012
-0.016
-0.043
-0.068
0.100
0.094
0.088
0.078
0.064
0.048
0.024
-0.004
-0.034
-0.062
0.082
0.079
0.074
0.063
0.048
0.030
0.004
-0.026
-0.057
0.053
0.060
0.059
0.053
0.041
0.026
0.006
-0.023
-0.054
0.001
0.029
0.033
0.032
0.026
0.014
-0.002
-0.024
-0.054
-0.013
-0.002
0.000
-0.001
-0.008
-0.020
-0.035
-0.059
-0.062
-0.044
-0.039
-0.037
-0.040
-0.046
-0.058
-0.072
-0.116
-0.091
-0.083
-0.079
-0.079
-0.081
-0.089
-0.099
-0.140
-0.130
-0.125
-0.123
-0.123
-0.126
-0.134
-0.191
-0.178
-0.173
-0.170
-0.168
-0.169
-0.173
-0.242
-0.228
-0.222
-0.219
-0.217
-0.215
-0.216
-0.293
-0.279
-0.273
-0.269
-0.266
-0.264
-0.263
-0.344
-0.329
-0.323
-0.320
-0.317
-0.314
-0.312
-0.395
-0.380
-0.374
-0.371
-0.368
-0.365
-0.362
-0.446
-0.430
-0.424
-0.422
-0.420
-0.417
-0.413
-0.497
-0.480
-0.474
-0.472
-0.471
-0.468
-0.464
-0.547
-0.530
-0.524
-0.523
-0.522
-0.519
-0.516
-0.597
-0.579
-0.574
-0.572
-0.572
-0.570
-0.567
-0.647
-0.629
-0.623
-0.622
-0.622
-0.621
-0.618
-0.678
-0.672
-0.671
-0.671
-0.671
-0.668
-0.726
-0.721
-0.720
-0.720
-0.720
-0.718
-0.774
-0.769
-0.768
-0.769
-0.769
-0.767
-0.822
-0.817
-0.816
-0.816
-0.817
-0.816
-0.869
-0.864
-0.863
-0.864
-0.864
-0.864
-1.067
-1.049
-1.047
-1.048
-1.049
-1.049
-1.049
-1.218
-1.219
-1.222
-1.225
-1.226
-1.225
-1.376
-1.381
-1.387
-1.391
-1.393
-1.393
-1.522
-1.531
-1.541
-1.548
-1.551
-1.552
-1.658
-1.672
-1.686
-1.695
-1.700
-1.702
-1.784
-1.802
-1.821
-1.834
-1.841
-1.844
-1.924
-1.947
-1.963
-1.973
-1.978
-2.037
-2.065
-2.085
-2.097
-2.104
-2.144
-2.176
-2.199
-2.215
-2.223
-2.245
-2.280
-2.307
-2.325
-2.335
-2.340
-2.379
-2.408
-2.429
-2.441
-2.425
-2.472
-2.504
-2.527
-2.541
-2.502
-2.560
-2.596
-2.620
-2.635
-2.640
-2.681
-2.707
-2.724
-2.712
-2.761
-2.790
-2.808
-2.780
-2.834
-2.867
-2.887
-2.848
-2.901
-2.939
-2.961
-2.920
-2.966
-3.005
-3.029
-3.030
-3.069
-3.095
-3.097
-3.131
-3.157
-3.168
-3.195
-3.218
-3.243
-3.261
-3.281
-3.321
-3.330
-3.346
-3.402
-3.403
-3.414
-3.483
-3.478
-3.484
-3.564
-3.556
-3.556
-3.633
-3.630
-3.711
-3.706
-3.787
-3.781
-3.861
-3.856
-3.934
-3.929
-4.005
-4.002
-4.075
-4.072
-4.143
-4.142
-4.210
-4.209
-4.276
-4.276
-4.341
-4.477
-4.822
-5.170
-5.521
-5.874
-6.231
-6.589
-6.949
-7.311
-7.674
-8.039
-8.405
-8.772
-9.139
-9.508
-9.877
-10.247
-10.618
-10.988
-11.360
-11.732
-12.104
-12.476
-12.849
-13.222
-13.595
-13.969
-14.342
-14.716
-15.090
-15.464
-15.838
-16.212
-16.586
-16.961
-17.335
-17.710
-18.084
-18.459
