-39.934
-39.478
-40.458
-39.630
-37.999
-36.018
-32.303
-32.488
-33.329
-32.505
-31.284
-29.531
-25.811
-25.745
-26.747
-25.224
-25.253
-22.629
-22.027
-21.798
-21.566
-21.151
-20.198
-19.595
-19.329
-19.142
-18.642
-18.053
-23.043
-16.880
-16.880
-16.880
-16.749
-15.508
-14.478
-14.512
-14.879
-14.825
-14.600
-17.119
-12.481
-12.508
-12.726
-12.953
-12.709
-12.712
-10.953
-10.917
-11.130
-11.228
-11.297
-11.279
-9.634
-9.639
-9.690
-9.767
-9.836
-9.894
-8.431
-8.056
-7.331
-8.192
-8.520
-8.674
-7.719
-7.502
-6.906
-6.889
-7.371
-7.438
-6.963
-7.039
-7.413
-6.894
-7.060
-7.051
-6.560
-6.498
-6.469
-6.596
-6.870
-6.688
-6.043
-5.961
-6.396
-6.592
-5.558
-5.552
-5.601
-5.630
-5.862
-5.973
-5.052
-5.062
-5.168
-5.266
-5.419
-5.498
-4.559
-4.578
-4.704
-4.965
-5.142
-4.121
-4.124
-4.268
-4.378
-4.557
-4.746
-3.741
-3.722
-3.860
-3.945
-4.119
-4.347
-3.435
-3.373
-3.485
-3.548
-3.700
-3.926
-3.218
-3.421
-2.826
-3.012
-2.499
-2.635
-2.206
-2.316
-1.970
-2.037
-1.759
-1.802
-1.581
-1.606
-1.824
-1.794
-1.762
-1.723
-1.671
-1.606
-1.526
-1.427
-1.336
-1.287
-1.276
-1.268
-1.250
-1.241
-1.235
-1.224
-1.206
-1.180
-1.143
-1.091
-1.046
-1.027
-0.904
-0.887
-0.884
-0.888
-0.894
-0.900
-0.901
-0.895
-0.882
-0.858
-0.837
-0.651
-0.633
-0.628
-0.631
-0.639
-0.650
-0.660
-0.670
-0.678
-0.680
-0.674
-0.470
-0.454
-0.448
-0.449
-0.455
-0.463
-0.472
-0.483
-0.493
-0.504
-0.512
-0.332
-0.321
-0.316
-0.317
-0.320
-0.325
-0.332
-0.339
-0.346
-0.355
-0.364
-0.217
-0.215
-0.215
-0.218
-0.222
-0.227
-0.231
-0.235
-0.239
-0.243
-0.249
-0.123
-0.128
-0.134
-0.141
-0.147
-0.154
-0.159
-0.163
-0.165
-0.166
-0.167
-0.047
-0.058
-0.069
-0.080
-0.090
-0.099
-0.106
-0.111
-0.114
-0.114
-0.113
0.012
-0.003
-0.017
-0.031
-0.044
-0.056
-0.067
-0.075
-0.079
-0.081
-0.079
0.055
0.041
0.026
0.010
-0.006
-0.022
-0.036
-0.048
-0.055
-0.059
-0.059
0.073
0.060
0.043
0.026
0.008
-0.010
-0.026
-0.038
-0.046
-0.049
0.093
0.084
0.070
0.052
0.033
0.012
-0.007
-0.024
-0.037
-0.045
0.108
0.097
0.088
0.073
0.054
0.032
0.009
-0.012
-0.030
-0.043
0.117
0.107
0.097
0.087
0.070
0.048
0.024
-0.000
-0.023
-0.041
0.119
0.110
0.102
0.091
0.079
0.060
0.036
0.009
-0.016
-0.040
0.112
0.105
0.099
0.091
0.079
0.065
0.043
0.017
-0.011
-0.038
0.090
0.088
0.083
0.074
0.061
0.045
0.021
-0.007
-0.036
0.061
0.066
0.065
0.060
0.050
0.037
0.019
-0.007
-0.037
0.011
0.034
0.038
0.037
0.032
0.022
0.008
-0.012
-0.040
-0.008
0.001
0.004
0.003
-0.003
-0.013
-0.026
-0.048
-0.057
-0.042
-0.036
-0.035
-0.036
-0.042
-0.052
-0.064
-0.111
-0.088
-0.081
-0.078
-0.077
-0.079
-0.084
-0.093
-0.138
-0.129
-0.124
-0.122
-0.121
-0.124
-0.130
-0.189
-0.178
-0.173
-0.170
-0.168
-0.168
-0.171
-0.240
-0.228
-0.223
-0.220
-0.217
-0.215
-0.215
-0.292
-0.279
-0.274
-0.270
-0.267
-0.265
-0.263
-0.343
-0.330
-0.325
-0.322
-0.319
-0.316
-0.313
-0.394
-0.380
-0.375
-0.373
-0.371
-0.367
-0.364
-0.445
-0.431
-0.426
-0.424
-0.422
-0.419
-0.415
-0.496
-0.481
-0.476
-0.475
-0.474
-0.471
-0.467
-0.546
-0.531
-0.527
-0.525
-0.525
-0.523
-0.519
-0.597
-0.581
-0.576
-0.576
-0.575
-0.574
-0.571
-0.647
-0.630
-0.626
-0.625
-0.625
-0.625
-0.622
-0.680
-0.675
-0.675
-0.675
-0.675
-0.673
-0.728
-0.724
-0.724
-0.724
-0.724
-0.723
-0.777
-0.772
-0.772
-0.773
-0.773
-0.772
-0.824
-0.820
-0.820
-0.821
-0.822
-0.821
-0.872
-0.868
-0.868
-0.869
-0.870
-0.869
-1.069
-1.053
-1.052
-1.053
-1.055
-1.055
-1.055
-1.223
-1.225
-1.229
-1.231
-1.232
-1.232
-1.381
-1.388
-1.394
-1.399
-1.401
-1.401
-1.528
-1.539
-1.549
-1.556
-1.560
-1.560
-1.665
-1.680
-1.694
-1.704
-1.709
-1.711
-1.791
-1.811
-1.830
-1.843
-1.851
-1.854
-1.933
-1.957
-1.973
-1.983
-1.988
-2.047
-2.076
-2.096
-2.108
-2.115
-2.154
-2.187
-2.211
-2.226
-2.235
-2.256
-2.292
-2.319
-2.337
-2.347
-2.351
-2.391
-2.421
-2.441
-2.454
-2.437
-2.485
-2.517
-2.540
-2.554
-2.513
-2.573
-2.609
-2.633
-2.649
-2.653
-2.695
-2.721
-2.738
-2.726
-2.775
-2.804
-2.822
-2.794
-2.848
-2.882
-2.902
-2.861
-2.916
-2.954
-2.976
-2.933
-2.981
-3.020
-3.045
-3.045
-3.084
-3.110
-3.113
-3.147
-3.173
-3.184
-3.211
-3.235
-3.258
-3.277
-3.298
-3.337
-3.347
-3.363
-3.417
-3.420
-3.431
-3.499
-3.495
-3.501
-3.579
-3.572
-3.573
-3.650
-3.648
-3.727
-3.723
-3.803
-3.799
-3.878
-3.873
-3.951
-3.947
-4.022
-4.019
-4.092
-4.090
-4.160
-4.160
-4.227
-4.227
-4.293
-4.294
-4.359
-4.493
-4.838
-5.186
-5.538
-5.892
-6.249
-6.607
-6.968
-7.330
-7.693
-8.058
-8.424
-8.791
-9.159
-9.528
-9.897
-10.267
-10.638
-11.009
-11.380
-11.752
-12.124
-12.497
-12.869
-13.242
-13.616
-13.989
-14.363
-14.736
-15.110
-15.484
-15.858
-16.233
-16.607
-16.981
-17.356
-17.730
-18.105
-18.479
