-44.807
-44.264
-45.570
-44.670
-42.866
-40.605
-35.908
-36.103
-37.184
-36.323
-35.014
-33.010
-28.375
-28.338
-29.571
-27.905
-27.943
-24.713
-24.051
-23.849
-23.642
-23.197
-22.117
-21.281
-20.991
-20.812
-20.293
-19.669
-25.127
-18.256
-18.256
-18.256
-18.158
-16.830
-15.609
-15.645
-16.060
-16.014
-15.792
-18.483
-13.421
-13.451
-13.704
-13.958
-13.721
-13.725
-11.770
-11.723
-11.965
-12.077
-12.161
-12.150
-10.369
-10.362
-10.416
-10.497
-10.575
-10.642
-9.026
-8.644
-7.845
-8.805
-9.162
-9.322
-8.201
-7.982
-7.352
-7.337
-7.889
-7.977
-7.311
-7.424
-7.866
-7.315
-7.516
-7.530
-6.806
-6.782
-6.784
-6.948
-7.280
-7.110
-6.249
-6.222
-6.717
-6.973
-5.681
-5.701
-5.774
-5.834
-6.104
-6.248
-5.152
-5.180
-5.304
-5.428
-5.604
-5.710
-4.652
-4.682
-4.817
-5.111
-5.312
-4.219
-4.226
-4.372
-4.493
-4.683
-4.886
-3.845
-3.828
-3.962
-4.054
-4.235
-4.471
-3.544
-3.482
-3.587
-3.656
-3.812
-4.042
-3.331
-3.536
-2.940
-3.126
-2.617
-2.750
-2.326
-2.434
-2.092
-2.157
-1.882
-1.925
-1.705
-1.730
-1.961
-1.921
-1.881
-1.835
-1.778
-1.711
-1.630
-1.535
-1.451
-1.411
-1.409
-1.393
-1.370
-1.359
-1.351
-1.339
-1.319
-1.291
-1.255
-1.206
-1.164
-1.149
-1.004
-0.983
-0.977
-0.982
-0.990
-0.998
-1.002
-0.999
-0.988
-0.967
-0.948
-0.734
-0.711
-0.703
-0.705
-0.714
-0.726
-0.739
-0.754
-0.766
-0.773
-0.770
-0.542
-0.520
-0.511
-0.510
-0.515
-0.524
-0.535
-0.548
-0.563
-0.578
-0.592
-0.392
-0.377
-0.369
-0.368
-0.371
-0.376
-0.382
-0.390
-0.400
-0.412
-0.426
-0.266
-0.260
-0.259
-0.260
-0.264
-0.268
-0.273
-0.277
-0.282
-0.288
-0.296
-0.160
-0.164
-0.169
-0.175
-0.181
-0.187
-0.193
-0.197
-0.199
-0.201
-0.204
-0.074
-0.085
-0.096
-0.106
-0.116
-0.126
-0.133
-0.139
-0.142
-0.143
-0.142
-0.005
-0.021
-0.036
-0.050
-0.064
-0.077
-0.087
-0.096
-0.101
-0.103
-0.102
0.046
0.031
0.014
-0.003
-0.020
-0.036
-0.051
-0.063
-0.072
-0.077
-0.077
0.070
0.055
0.037
0.018
-0.001
-0.020
-0.037
-0.050
-0.059
-0.063
0.096
0.085
0.070
0.050
0.029
0.008
-0.013
-0.032
-0.046
-0.054
0.117
0.105
0.093
0.077
0.056
0.032
0.008
-0.015
-0.034
-0.048
0.131
0.120
0.108
0.095
0.077
0.053
0.027
0.001
-0.023
-0.043
0.136
0.127
0.117
0.105
0.090
0.069
0.043
0.015
-0.013
-0.037
0.130
0.125
0.118
0.108
0.095
0.079
0.055
0.026
-0.003
-0.032
0.112
0.110
0.104
0.093
0.079
0.061
0.034
0.004
-0.027
0.083
0.090
0.089
0.083
0.072
0.056
0.036
0.008
-0.024
0.032
0.059
0.063
0.062
0.056
0.044
0.028
0.006
-0.024
0.017
0.028
0.030
0.029
0.022
0.010
-0.005
-0.029
-0.032
-0.014
-0.009
-0.007
-0.009
-0.016
-0.028
-0.042
-0.086
-0.061
-0.053
-0.049
-0.049
-0.051
-0.058
-0.069
-0.110
-0.100
-0.095
-0.093
-0.093
-0.096
-0.103
-0.161
-0.148
-0.143
-0.140
-0.138
-0.139
-0.143
-0.212
-0.199
-0.193
-0.189
-0.187
-0.185
-0.186
-0.263
-0.249
-0.243
-0.239
-0.236
-0.234
-0.233
-0.314
-0.299
-0.293
-0.290
-0.287
-0.284
-0.282
-0.365
-0.350
-0.344
-0.341
-0.339
-0.335
-0.332
-0.416
-0.400
-0.394
-0.392
-0.390
-0.387
-0.383
-0.467
-0.450
-0.444
-0.442
-0.441
-0.438
-0.434
-0.517
-0.500
-0.494
-0.493
-0.492
-0.490
-0.486
-0.567
-0.550
-0.544
-0.543
-0.542
-0.540
-0.537
-0.617
-0.599
-0.593
-0.592
-0.592
-0.591
-0.588
-0.648
-0.642
-0.641
-0.641
-0.641
-0.638
-0.696
-0.691
-0.690
-0.690
-0.690
-0.688
-0.744
-0.739
-0.738
-0.739
-0.739
-0.737
-0.792
-0.787
-0.786
-0.787
-0.787
-0.786
-0.839
-0.834
-0.834
-0.834
-0.834
-0.834
-1.037
-1.019
-1.017
-1.018
-1.019
-1.020
-1.019
-1.189
-1.190
-1.193
-1.195
-1.196
-1.195
-1.346
-1.351
-1.357
-1.361
-1.363
-1.363
-1.492
-1.502
-1.512
-1.518
-1.522
-1.522
-1.628
-1.642
-1.656
-1.666
-1.671
-1.672
-1.754
-1.773
-1.791
-1.804
-1.811
-1.814
-1.894
-1.917
-1.934
-1.943
-1.948
-2.008
-2.035
-2.055
-2.068
-2.074
-2.114
-2.146
-2.170
-2.185
-2.193
-2.215
-2.250
-2.277
-2.295
-2.306
-2.310
-2.349
-2.379
-2.399
-2.412
-2.396
-2.443
-2.475
-2.497
-2.512
-2.472
-2.530
-2.566
-2.590
-2.606
-2.610
-2.652
-2.678
-2.695
-2.683
-2.731
-2.761
-2.779
-2.750
-2.804
-2.838
-2.857
-2.818
-2.872
-2.909
-2.931
-2.890
-2.937
-2.976
-3.000
-3.000
-3.039
-3.065
-3.068
-3.101
-3.128
-3.139
-3.165
-3.189
-3.214
-3.232
-3.252
-3.292
-3.301
-3.317
-3.372
-3.374
-3.384
-3.454
-3.449
-3.454
-3.534
-3.526
-3.527
-3.604
-3.601
-3.681
-3.676
-3.757
-3.752
-3.832
-3.826
-3.905
-3.900
-3.976
-3.972
-4.046
-4.043
-4.114
-4.112
-4.181
-4.180
-4.246
-4.246
-4.312
-4.448
-4.792
-5.140
-5.491
-5.845
-6.201
-6.560
-6.920
-7.282
-7.645
-8.010
-8.376
-8.742
-9.110
-9.479
-9.848
-10.218
-10.588
-10.959
-11.331
-11.702
-12.075
-12.447
-12.820
-13.193
-13.566
-13.939
-14.313
-14.687
-15.060
-15.434
-15.809
-16.183
-16.557
-16.931
-17.306
-17.680
-18.055
-18.429
