0.028899999999999999
0.0121
-0.0037000000000000002
0.0011999999999999999
0.048800000000000003
0.086599999999999996
0.052299999999999999
0.052999999999999999
0.040800000000000003
0.023400000000000001
0.0035999999999999999
-0.026700000000000002
-0.0091999999999999998
0.082199999999999995
0.12330000000000001
0.068500000000000005
0.064399999999999999
0.052900000000000003
0.033099999999999997
0.018800000000000001
-0.0051999999999999998
-0.030099999999999998
-0.0149
0.072300000000000003
0.049399999999999999
0.074099999999999999
0.075700000000000003
0.071800000000000003
0.059700000000000003
0.0407
0.0241
0.013100000000000001
-0.0018
-0.010699999999999999
0.072700000000000001
0.077299999999999994
0.075999999999999998
0.071300000000000002
0.059400000000000001
0.043299999999999998
0.026800000000000001
0.016299999999999999
0.0035000000000000001
-0.0053
-0.0091000000000000004
0.068599999999999994
0.073300000000000004
0.074399999999999994
0.072499999999999995
0.066400000000000001
0.055300000000000002
0.038600000000000002
0.025100000000000001
0.016299999999999999
0.0054999999999999997
-0.0023
0.061699999999999998
0.066600000000000006
0.0693
0.068400000000000002
0.065699999999999995
0.058099999999999999
0.048099999999999997
0.036799999999999999
0.025100000000000001
0.0149
0.0054000000000000003
0.051400000000000001
0.058500000000000003
0.062300000000000001
0.063200000000000006
0.0596
0.055800000000000002
0.048599999999999997
0.041000000000000002
0.0327
0.023900000000000001
0.0132
0.036499999999999998
0.046699999999999998
0.053100000000000001
0.054899999999999997
0.053199999999999997
0.049599999999999998
0.045999999999999999
0.039899999999999998
0.0356
0.029999999999999999
0.022100000000000002
0.058900000000000001
0.027900000000000001
0.0402
0.044900000000000002
0.045400000000000003
0.0436
0.040899999999999999
0.037900000000000003
0.034599999999999999
0.031600000000000003
0.025600000000000001
0.050500000000000003
0.063399999999999998
0.035299999999999998
0.032199999999999999
0.035499999999999997
0.036400000000000002
0.035499999999999997
0.0332
0.034099999999999998
0.032500000000000001
0.0287
0.055800000000000002
0.068699999999999997
0.028899999999999999
0.024799999999999999
0.028799999999999999
0.029999999999999999
0.031099999999999999
0.030700000000000002
0.032099999999999997
0.030200000000000001
0.047899999999999998
0.061899999999999997
0.073099999999999998
0.023900000000000001
0.020400000000000001
0.025000000000000001
0.027799999999999998
0.0292
0.030800000000000001
0.031600000000000003
0.040899999999999999
0.054699999999999999
0.067299999999999999
0.077499999999999999
0.021000000000000001
0.020199999999999999
0.0247
0.0281
0.0309
0.031699999999999999
0.0349
0.048899999999999999
0.0613
0.072700000000000001
0.0814
0.0212
0.023
0.026599999999999999
0.030700000000000002
0.032199999999999999
0.042200000000000001
0.0557
0.067199999999999996
0.076999999999999999
0.083799999999999999
0.0235
0.026599999999999999
0.030700000000000002
0.033099999999999997
0.036299999999999999
0.050299999999999997
0.061800000000000001
0.071099999999999997
0.078700000000000006
0.085400000000000004
0.032500000000000001
0.030800000000000001
0.033000000000000002
0.045100000000000001
0.0574
0.066400000000000001
0.073700000000000002
0.080299999999999996
0.086199999999999999
0.034099999999999998
0.034700000000000002
0.040000000000000001
0.053100000000000001
0.062700000000000006
0.068900000000000003
0.074899999999999994
0.081500000000000003
0.086599999999999996
0.036600000000000001
0.048800000000000003
0.058799999999999998
0.0654
0.070099999999999996
0.075600000000000001
0.081000000000000003
0.043499999999999997
0.031699999999999999
0.0448
0.055100000000000003
0.062100000000000002
0.066500000000000004
0.070099999999999996
0.075700000000000003
0.0814
0.041799999999999997
0.052400000000000002
0.059499999999999997
0.063899999999999998
0.066600000000000006
0.070199999999999999
0.075800000000000006
0.027400000000000001
0.039399999999999998
0.050099999999999999
0.057299999999999997
0.0613
0.063899999999999998
0.0654
0.066600000000000006
0.037400000000000003
0.048099999999999997
0.055500000000000001
0.0596
0.061800000000000001
0.063
0.063700000000000007
0.0356
0.046300000000000001
0.053900000000000003
0.058200000000000002
0.060199999999999997
0.060900000000000003
0.061400000000000003
0.033799999999999997
0.044600000000000001
0.052299999999999999
0.056899999999999999
0.058999999999999997
0.059400000000000001
0.059200000000000003
0.032000000000000001
0.043099999999999999
0.050999999999999997
0.0557
0.0579
0.058200000000000002
0.057700000000000001
0.028500000000000001
0.040099999999999997
0.048399999999999999
0.053400000000000003
0.055899999999999998
0.056500000000000002
0.0557
0.037100000000000001
0.045999999999999999
0.051299999999999998
0.053900000000000003
0.054899999999999997
0.054199999999999998
0.034000000000000002
0.043299999999999998
0.049099999999999998
0.0521
0.053100000000000001
0.0528
0.031199999999999999
0.041000000000000002
0.047
0.050200000000000002
0.051499999999999997
0.051400000000000001
0.028400000000000002
0.0385
0.044999999999999998
0.048300000000000003
0.049799999999999997
0.050000000000000003
0.025700000000000001
0.036200000000000003
0.042900000000000001
0.0465
0.0482
0.048399999999999999
0.0080000000000000002
0.020799999999999999
0.031899999999999998
0.039300000000000002
0.043099999999999999
0.045199999999999997
0.045600000000000002
0.016400000000000001
0.027900000000000001
0.035700000000000003
0.0402
0.042500000000000003
0.043099999999999999
0.012
0.024199999999999999
0.032399999999999998
0.037199999999999997
0.0395
0.040500000000000001
0.0073000000000000001
0.020299999999999999
0.0292
0.0344
0.036900000000000002
0.037900000000000003
0.002
0.016
0.025600000000000001
0.031199999999999999
0.034200000000000001
0.035299999999999998
-0.0030000000000000001
0.010800000000000001
0.021299999999999999
0.027699999999999999
0.0309
0.032500000000000001
0.0054999999999999997
0.016400000000000001
0.0235
0.027300000000000001
0.0292
0.00050000000000000001
0.0112
0.018700000000000001
0.023
0.0253
-0.0033999999999999998
0.0067000000000000002
0.013899999999999999
0.018499999999999999
0.0212
-0.0061000000000000004
0.0030000000000000001
0.0099000000000000008
0.0144
0.017299999999999999
-0.0071000000000000004
0.00069999999999999999
0.0071000000000000004
0.0114
0.014
-0.0058999999999999999
-0.0001
0.0055999999999999999
0.0097000000000000003
0.0121
-0.0041000000000000003
0.00059999999999999995
0.0055999999999999999
0.0092999999999999992
0.0117
0.0022000000000000001
0.0070000000000000001
0.010500000000000001
0.0124
0.0037000000000000002
0.0089999999999999993
0.0124
0.0143
0.0028
0.011299999999999999
0.0146
0.0166
-0.00050000000000000001
0.0118
0.016799999999999999
0.019099999999999999
-0.0057000000000000002
0.010999999999999999
0.018100000000000002
0.021399999999999999
0.0083999999999999995
0.017600000000000001
0.022200000000000001
0.0050000000000000001
0.016
0.021700000000000001
0.0011999999999999999
0.0141
0.0207
-0.0015
0.0111
0.018700000000000001
0.0030000000000000001
0.0135
-0.0068999999999999999
0.0040000000000000001
-0.0022000000000000001
-0.0050000000000000001
-0.0063
-0.0070000000000000001
